top.vcd
$date
  Thu Apr  2 20:34:44 2020
$end
$version
  GHDL v0
$end
$timescale
  1 fs
$end
$scope module standard $end
$upscope $end
$scope module std_logic_1164 $end
$upscope $end
$scope module numeric_std $end
$upscope $end
$scope module t_top $end
$var reg 1 ! clk_t $end
$var reg 1 " reset_t $end
$var reg 1 # instructionwriteenable_t $end
$var reg 16 $ instructionwriteaddr_t[15:0] $end
$var reg 16 % instructionwritedata_t[15:0] $end
$var reg 16 & startpc_t[15:0] $end
$var reg 16 ' instructionout_t[15:0] $end
$var reg 4 ( inr_t[3:0] $end
$var reg 16 ) outr_t[15:0] $end
$scope module test $end
$var reg 1 * clk $end
$var reg 1 + instructionwriteenable $end
$var reg 16 , instructionwriteaddr[15:0] $end
$var reg 16 - instructionwritedata[15:0] $end
$var reg 16 . startpc[15:0] $end
$var reg 16 / instructionout[15:0] $end
$var reg 4 0 inr[3:0] $end
$var reg 16 1 outr[15:0] $end
$var reg 1 2 reset $end
$var reg 1 3 clk_t $end
$var reg 1 4 reset_t $end
$var reg 1 5 andbranch_t $end
$var reg 1 6 instructionwriteenable_t $end
$var reg 16 7 instructionwriteaddr_t[15:0] $end
$var reg 16 8 instructionwritedata_t[15:0] $end
$var reg 4 9 inr_t[3:0] $end
$var reg 16 : outr_t[15:0] $end
$var reg 16 ; instruction_t[15:0] $end
$var reg 1 < cregwrite_t $end
$var reg 1 = cldi_t $end
$var reg 1 > cjalr_t $end
$var reg 16 ? writeinput_t[15:0] $end
$var reg 16 @ pcinput_t[15:0] $end
$var reg 16 A r1tooffsetmux_t[15:0] $end
$var reg 16 B registertomemory_t[15:0] $end
$var reg 16 C pcoutput_t[15:0] $end
$var reg 4 D caluop_t[3:0] $end
$var reg 16 E a_t[15:0] $end
$var reg 16 F b_t[15:0] $end
$var reg 1 G isbranch_t $end
$var reg 10 H alutomemory_t[9:0] $end
$var reg 16 I alutoregmux_t[15:0] $end
$var reg 16 J outmemory_t[15:0] $end
$var reg 16 K signextension_t[15:0] $end
$var reg 16 L branchadderoutput_t[15:0] $end
$var reg 16 M incrementadderoutput_t[15:0] $end
$var reg 1 N coffset_t $end
$var reg 1 O cmemtoreg_t $end
$var reg 1 P cmemwrite_t $end
$var reg 1 Q cmemread_t $end
$var reg 1 R cisbranch_t $end
$var reg 1 S carry_t $end
$scope module rf $end
$var reg 1 T clk $end
$var reg 4 U rd[11:8] $end
$var reg 4 V r1[7:4] $end
$var reg 4 W r2[3:0] $end
$var reg 1 X cregwrite $end
$var reg 1 Y cldi $end
$var reg 1 Z cjalr $end
$var reg 16 [ writeinput[15:0] $end
$var reg 16 \ outr1tooffsetmux[15:0] $end
$var reg 16 ] outr2toalu[15:0] $end
$var reg 16 ^ tomemory[15:0] $end
$var reg 16 _ pcoutput[15:0] $end
$var reg 16 ` pcinput[15:0] $end
$var reg 4 a inr[3:0] $end
$var reg 16 b outr[15:0] $end
$var reg 1 c reset $end
$comment register16 is not handled $end
$upscope $end
$scope module arithmetic $end
$var reg 1 d clk $end
$var reg 4 e aluop[3:0] $end
$var reg 16 f a[15:0] $end
$var reg 16 g b[15:0] $end
$var reg 1 h isbranch $end
$var reg 10 i outtomemory[9:0] $end
$var reg 16 j outtoregmux[15:0] $end
$var reg 1 k reset $end
$upscope $end
$scope module control $end
$var reg 1 l clk $end
$var reg 4 m opcode[15:12] $end
$var reg 1 n cregwrite $end
$var reg 1 o coffset $end
$var reg 4 p caluop[3:0] $end
$var reg 1 q cmemwrite $end
$var reg 1 r cmemread $end
$var reg 1 s cmemtoreg $end
$var reg 1 t cldi $end
$var reg 1 u cjalr $end
$var reg 1 v cisbranch $end
$var reg 1 w reset $end
$upscope $end
$scope module sign $end
$var reg 8 x input[7:0] $end
$var reg 16 y output[15:0] $end
$var reg 1 z reset $end
$upscope $end
$scope module incrementadder $end
$var reg 16 { a[15:0] $end
$var reg 16 | b[15:0] $end
$var reg 16 } sum[15:0] $end
$var reg 1 !" cout $end
$var reg 1 "" reset $end
$var reg 17 #" result[16:0] $end
$upscope $end
$scope module branchadder $end
$var reg 16 $" a[15:0] $end
$var reg 16 %" b[15:0] $end
$var reg 16 &" sum[15:0] $end
$var reg 1 '" cout $end
$var reg 1 (" reset $end
$var reg 17 )" result[16:0] $end
$upscope $end
$scope module offsetmux $end
$var reg 16 *" a1[15:0] $end
$var reg 16 +" a2[15:0] $end
$var reg 1 ," sel $end
$var reg 16 -" b[15:0] $end
$upscope $end
$scope module pcmux $end
$var reg 16 ." a1[15:0] $end
$var reg 16 /" a2[15:0] $end
$var reg 1 0" sel $end
$var reg 16 1" b[15:0] $end
$upscope $end
$scope module regmux $end
$var reg 16 2" a1[15:0] $end
$var reg 16 3" a2[15:0] $end
$var reg 1 4" sel $end
$var reg 16 5" b[15:0] $end
$upscope $end
$scope module instruction $end
$var reg 1 6" clk $end
$var reg 16 7" pc[15:0] $end
$var reg 1 8" writeenable $end
$var reg 16 9" writedata[15:0] $end
$var reg 16 :" outinstruction[15:0] $end
$var reg 1 ;" reset $end
$comment instruction65536 is not handled $end
$upscope $end
$scope module disk $end
$var reg 10 <" addr[9:0] $end
$var reg 16 =" din[15:0] $end
$var reg 1 >" cmemwrite $end
$var reg 1 ?" cmemread $end
$var reg 16 @" outmemory[15:0] $end
$var reg 1 A" reset $end
$comment memory1024 is not handled $end
$upscope $end
$upscope $end
$upscope $end
$enddefinitions $end
#0
0!
1"
U#
bUUUUUUUUUUUUUUUU $
bUUUUUUUUUUUUUUUU %
bUUUUUUUUUUUUUUUU &
b0000000000000000 '
bUUUU (
b0000000000000000 )
0*
U+
bUUUUUUUUUUUUUUUU ,
bUUUUUUUUUUUUUUUU -
bUUUUUUUUUUUUUUUU .
b0000000000000000 /
bUUUU 0
b0000000000000000 1
12
03
14
05
U6
bUUUUUUUUUUUUUUUU 7
bUUUUUUUUUUUUUUUU 8
bUUUU 9
b0000000000000000 :
b0000000000000000 ;
0<
0=
0>
b0000000000000000 ?
b0000000000000000 @
b0000000000000000 A
b0000000000000000 B
b0000000000000000 C
b0000 D
b0000000000000000 E
b0000000000000000 F
0G
b0000000000 H
b0000000000000000 I
b0000000000000000 J
b0000000000000000 K
b0000000000000000 L
b0000000000000000 M
0N
0O
0P
0Q
0R
0S
0T
b0000 U
b0000 V
b0000 W
0X
0Y
0Z
b0000000000000000 [
b0000000000000000 \
b0000000000000000 ]
b0000000000000000 ^
b0000000000000000 _
b0000000000000000 `
bUUUU a
b0000000000000000 b
1c
0d
b0000 e
b0000000000000000 f
b0000000000000000 g
0h
b0000000000 i
b0000000000000000 j
1k
0l
b0000 m
0n
0o
b0000 p
0q
0r
0s
0t
0u
0v
1w
b00000000 x
b0000000000000000 y
1z
b0000000000000001 {
b0000000000000000 |
b0000000000000000 }
0!"
1""
b00000000000000000 #"
b0000000000000000 $"
b0000000000000000 %"
b0000000000000000 &"
0'"
1("
b00000000000000000 )"
b0000000000000000 *"
b0000000000000000 +"
0,"
b0000000000000000 -"
b0000000000000000 ."
b0000000000000000 /"
00"
b0000000000000000 1"
b0000000000000000 2"
b0000000000000000 3"
04"
b0000000000000000 5"
06"
b0000000000000000 7"
U8"
bUUUUUUUUUUUUUUUU 9"
b0000000000000000 :"
1;"
b0000000000 <"
b0000000000000000 ="
0>"
0?"
b0000000000000000 @"
1A"
#5000000
1!
1*
13
1T
1d
1l
16"
#10000000
0!
0"
b0000000000000000 &
b0010011000000011 '
b0000 (
0*
b0000000000000000 .
b0010011000000011 /
b0000 0
02
03
04
b0000 9
b0010011000000011 ;
b0000000000000001 @
b0000000000000011 K
b0000000000000011 L
b0000000000000001 M
0T
b0110 U
b0000 V
b0011 W
b0000000000000001 `
b0000 a
0c
0d
0k
0l
b0010 m
0w
b00000011 x
b0000000000000011 y
0z
b0000000000000001 }
0!"
0""
b00000000000000001 #"
b0000000000000011 %"
b0000000000000011 &"
0'"
0("
b00000000000000011 )"
b0000000000000011 +"
b0000000000000001 ."
b0000000000000011 /"
b0000000000000001 1"
06"
b0000000000000001 7"
b0010011000000011 :"
0;"
0A"
#15000000
1!
1*
13
1<
1=
b0010 D
XO
1T
1X
1Y
1d
b0010 e
1l
1n
b0010 p
Xs
1t
X4"
16"
#20000000
0!
b0010011100000111 '
b0001 (
0*
b0010011100000111 /
b0001 0
03
b0001 9
b0010011100000111 ;
b0000000000000010 @
b0000000000000001 C
b0000000000000111 K
b0000000000001000 L
b0000000000000010 M
0T
b0111 U
b0111 W
b0000000000000001 _
b0000000000000010 `
b0001 a
0d
0l
b00000111 x
b0000000000000111 y
b0000000000000001 |
b0000000000000010 }
0!"
b00000000000000010 #"
b0000000000000001 $"
b0000000000000111 %"
b0000000000001000 &"
0'"
b00000000000001000 )"
b0000000000000111 +"
b0000000000000010 ."
b0000000000001000 /"
b0000000000000010 1"
06"
b0000000000000010 7"
b0010011100000111 :"
#25000000
1!
1*
13
1T
1d
1l
16"
#30000000
0!
b0100100001100000 '
b0010 (
0*
b0100100001100000 /
b0010 0
03
b0010 9
b0100100001100000 ;
b0000000000000011 @
b0000000000000010 C
b0000000000000111 F
b0000000001100000 K
b0000000001100010 L
b0000000000000011 M
0T
b1000 U
b0110 V
b0000 W
b0000000000000111 ]
b0000000000000010 _
b0000000000000011 `
b0010 a
0d
b0000000000000111 g
0l
b0100 m
b01100000 x
b0000000001100000 y
b0000000000000010 |
b0000000000000011 }
0!"
b00000000000000011 #"
b0000000000000010 $"
b0000000001100000 %"
b0000000001100010 &"
0'"
b00000000001100010 )"
b0000000001100000 +"
b0000000000000011 ."
b0000000001100010 /"
b0000000000000011 1"
06"
b0000000000000011 7"
b0100100001100000 :"
#35000000
1!
1*
13
0=
b0000000000000011 A
b0000000000000011 B
b0100 D
b0000000000000011 E
b0000000000000000 F
b0000000000000011 J
0O
1T
0Y
b0000000000000011 \
b0000000000000000 ]
b0000000000000011 ^
1d
b0100 e
b0000000000000011 f
b0000000000000000 g
1l
b0100 p
0s
0t
b0000000000000011 *"
b0000000000000011 -"
b0000000000000011 3"
04"
16"
b0000000000000011 ="
b0000000000000011 @"
#40000000
0!
b0101010101111000 '
b0011 (
0*
b0101010101111000 /
b0011 0
03
b0011 9
b0101010101111000 ;
b0000000000000011 ?
b0000000000000100 @
b0000000000000011 C
b0000000000000011 I
b0000000001111000 K
b0000000001111011 L
b0000000000000100 M
0T
b0101 U
b0111 V
b1000 W
b0000000000000011 [
b0000000000000011 _
b0000000000000100 `
b0011 a
0d
b0000000000000011 j
0l
b0101 m
b01111000 x
b0000000001111000 y
b0000000000000011 |
b0000000000000100 }
0!"
b00000000000000100 #"
b0000000000000011 $"
b0000000001111000 %"
b0000000001111011 &"
0'"
b00000000001111011 )"
b0000000001111000 +"
b0000000000000100 ."
b0000000001111011 /"
b0000000000000100 1"
b0000000000000011 2"
b0000000000000011 5"
06"
b0000000000000100 7"
b0101010101111000 :"
#45000000
1!
1*
13
b0000000000000111 A
b0000000000000111 B
b0101 D
b0000000000000111 E
b0000000000000111 J
1T
b0000000000000111 \
b0000000000000111 ^
1d
b0101 e
b0000000000000111 f
1l
b0101 p
b0000000000000111 *"
b0000000000000111 -"
b0000000000000111 3"
16"
b0000000000000111 ="
b0000000000000111 @"
#50000000
0!
b1100100010100111 '
b0100 (
0*
b1100100010100111 /
b0100 0
03
b0100 9
b1100100010100111 ;
b0000000000000111 ?
b0000000000000101 @
b0000000000000100 C
b0000000000000111 I
b1111111110100111 K
b1111111110101011 L
b0000000000000101 M
0T
b1000 U
b1010 V
b0111 W
b0000000000000111 [
b0000000000000100 _
b0000000000000101 `
b0100 a
0d
b0000000000000111 j
0l
b1100 m
b10100111 x
b1111111110100111 y
b0000000000000100 |
b0000000000000101 }
0!"
b00000000000000101 #"
b0000000000000100 $"
b1111111110100111 %"
b1111111110101011 &"
0'"
b01111111110101011 )"
b1111111110100111 +"
b0000000000000101 ."
b1111111110101011 /"
b0000000000000101 1"
b0000000000000111 2"
b0000000000000111 5"
06"
b0000000000000101 7"
b1100100010100111 :"
#55000000
1!
1*
13
0<
b0000000000000000 A
b0000000000000000 B
b1100 D
b1111111110100111 E
b0000000000000111 F
b0000000000000000 J
1N
1R
1T
0X
b0000000000000000 \
b0000000000000111 ]
b0000000000000000 ^
1d
b1100 e
b1111111110100111 f
b0000000000000111 g
1l
0n
1o
b1100 p
1v
b0000000000000000 *"
1,"
b1111111110100111 -"
b0000000000000000 3"
16"
b0000000000000000 ="
b0000000000000000 @"
#60000000
0!
b0101010101111000 '
b0101 (
b0000000000000011 )
0*
b0101010101111000 /
b0101 0
b0000000000000011 1
03
15
b0101 9
b0000000000000011 :
b0101010101111000 ;
b0000000000000000 ?
b0000000001111101 @
b0000000000000101 C
b0000000001111000 E
1G
b0000000000000000 I
b0000000001111000 K
b0000000001111101 L
b0000000000000110 M
0T
b0101 U
b0111 V
b1000 W
b0000000000000000 [
b0000000000000101 _
b0000000001111101 `
b0101 a
b0000000000000011 b
0d
b0000000001111000 f
1h
b0000000000000000 j
0l
b0101 m
b01111000 x
b0000000001111000 y
b0000000000000101 |
b0000000000000110 }
0!"
b00000000000000110 #"
b0000000000000101 $"
b0000000001111000 %"
b0000000001111101 &"
0'"
b00000000001111101 )"
b0000000001111000 +"
b0000000001111000 -"
b0000000000000110 ."
b0000000001111101 /"
10"
b0000000001111101 1"
b0000000000000000 2"
b0000000000000000 5"
06"
b0000000001111101 7"
b0101010101111000 :"
#65000000
1!
1*
13
05
1<
b0000000000000110 @
b0000000000000111 A
b0000000000000111 B
b0101 D
b0000000000000111 E
0G
b0000000000000111 J
0N
0R
1T
1X
b0000000000000111 \
b0000000000000111 ^
b0000000000000110 `
1d
b0101 e
b0000000000000111 f
0h
1l
1n
0o
b0101 p
0v
b0000000000000111 *"
0,"
b0000000000000111 -"
00"
b0000000000000110 1"
b0000000000000111 3"
16"
b0000000000000110 7"
b0000000000000111 ="
b0000000000000111 @"
#70000000
0!
b0110 (
0*
b0110 0
03
b0110 9
b0000000000001110 ?
b0000000000000111 @
b0000000000000110 C
b0000000000001110 I
b0000000001111110 L
b0000000000000111 M
0T
b0000000000001110 [
b0000000000000110 _
b0000000000000111 `
b0110 a
0d
b0000000000001110 j
0l
b0000000000000110 |
b0000000000000111 }
0!"
b00000000000000111 #"
b0000000000000110 $"
b0000000001111110 &"
0'"
b00000000001111110 )"
b0000000000000111 ."
b0000000001111110 /"
b0000000000000111 1"
b0000000000001110 2"
b0000000000001110 5"
06"
b0000000000000111 7"
#75000000
1!
1*
13
1T
1d
1l
16"
#80000000
0!
b0111 (
b0000000000000111 )
0*
b0111 0
b0000000000000111 1
03
b0111 9
b0000000000000111 :
b0000000000001000 @
b0000000000000111 C
b0000000001111111 L
b0000000000001000 M
0T
b0000000000000111 _
b0000000000001000 `
b0111 a
b0000000000000111 b
0d
0l
b0000000000000111 |
b0000000000001000 }
0!"
b00000000000001000 #"
b0000000000000111 $"
b0000000001111111 &"
0'"
b00000000001111111 )"
b0000000000001000 ."
b0000000001111111 /"
b0000000000001000 1"
06"
b0000000000001000 7"
#85000000
1!
1*
13
1T
1d
1l
16"
#90000000
0!
b1000 (
0*
b1000 0
03
b1000 9
b0000000000001001 @
b0000000000001000 C
b0000000010000000 L
b0000000000001001 M
0T
b0000000000001000 _
b0000000000001001 `
b1000 a
0d
0l
b0000000000001000 |
b0000000000001001 }
0!"
b00000000000001001 #"
b0000000000001000 $"
b0000000010000000 &"
0'"
b00000000010000000 )"
b0000000000001001 ."
b0000000010000000 /"
b0000000000001001 1"
06"
b0000000000001001 7"
#95000000
1!
1*
13
1T
1d
1l
16"
#100000000
0!
b1001 (
b0000000000000000 )
0*
b1001 0
b0000000000000000 1
03
b1001 9
b0000000000000000 :
b0000000000001010 @
b0000000000001001 C
b0000000010000001 L
b0000000000001010 M
0T
b0000000000001001 _
b0000000000001010 `
b1001 a
b0000000000000000 b
0d
0l
b0000000000001001 |
b0000000000001010 }
0!"
b00000000000001010 #"
b0000000000001001 $"
b0000000010000001 &"
0'"
b00000000010000001 )"
b0000000000001010 ."
b0000000010000001 /"
b0000000000001010 1"
06"
b0000000000001010 7"
#105000000
1!
1*
13
1T
1d
1l
16"
#110000000
0!
b1010 (
0*
b1010 0
03
b1010 9
b0000000000001011 @
b0000000000001010 C
b0000000010000010 L
b0000000000001011 M
0T
b0000000000001010 _
b0000000000001011 `
b1010 a
0d
0l
b0000000000001010 |
b0000000000001011 }
0!"
b00000000000001011 #"
b0000000000001010 $"
b0000000010000010 &"
0'"
b00000000010000010 )"
b0000000000001011 ."
b0000000010000010 /"
b0000000000001011 1"
06"
b0000000000001011 7"
#115000000
1!
1*
13
1T
1d
1l
16"
#120000000
0!
b1011 (
0*
b1011 0
03
b1011 9
b0000000000001100 @
b0000000000001011 C
b0000000010000011 L
b0000000000001100 M
0T
b0000000000001011 _
b0000000000001100 `
b1011 a
0d
0l
b0000000000001011 |
b0000000000001100 }
0!"
b00000000000001100 #"
b0000000000001011 $"
b0000000010000011 &"
0'"
b00000000010000011 )"
b0000000000001100 ."
b0000000010000011 /"
b0000000000001100 1"
06"
b0000000000001100 7"
#125000000
1!
1*
13
1T
1d
1l
16"
#130000000
0!
b1100 (
0*
b1100 0
03
b1100 9
b0000000000001101 @
b0000000000001100 C
b0000000010000100 L
b0000000000001101 M
0T
b0000000000001100 _
b0000000000001101 `
b1100 a
0d
0l
b0000000000001100 |
b0000000000001101 }
0!"
b00000000000001101 #"
b0000000000001100 $"
b0000000010000100 &"
0'"
b00000000010000100 )"
b0000000000001101 ."
b0000000010000100 /"
b0000000000001101 1"
06"
b0000000000001101 7"
#135000000
1!
1*
13
1T
1d
1l
16"
#140000000
0!
b1101 (
0*
b1101 0
03
b1101 9
b0000000000001110 @
b0000000000001101 C
b0000000010000101 L
b0000000000001110 M
0T
b0000000000001101 _
b0000000000001110 `
b1101 a
0d
0l
b0000000000001101 |
b0000000000001110 }
0!"
b00000000000001110 #"
b0000000000001101 $"
b0000000010000101 &"
0'"
b00000000010000101 )"
b0000000000001110 ."
b0000000010000101 /"
b0000000000001110 1"
06"
b0000000000001110 7"
#145000000
1!
1*
13
1T
1d
1l
16"
#150000000
0!
b1110 (
0*
b1110 0
03
b1110 9
b0000000000001111 @
b0000000000001110 C
b0000000010000110 L
b0000000000001111 M
0T
b0000000000001110 _
b0000000000001111 `
b1110 a
0d
0l
b0000000000001110 |
b0000000000001111 }
0!"
b00000000000001111 #"
b0000000000001110 $"
b0000000010000110 &"
0'"
b00000000010000110 )"
b0000000000001111 ."
b0000000010000110 /"
b0000000000001111 1"
06"
b0000000000001111 7"
#155000000
1!
1*
13
1T
1d
1l
16"
#160000000
0!
b1111 (
b0000000000001110 )
0*
b1111 0
b0000000000001110 1
03
b1111 9
b0000000000001110 :
b0000000000010000 @
b0000000000001111 C
b0000000010000111 L
b0000000000010000 M
0T
b0000000000001111 _
b0000000000010000 `
b1111 a
b0000000000001110 b
0d
0l
b0000000000001111 |
b0000000000010000 }
0!"
b00000000000010000 #"
b0000000000001111 $"
b0000000010000111 &"
0'"
b00000000010000111 )"
b0000000000010000 ."
b0000000010000111 /"
b0000000000010000 1"
06"
b0000000000010000 7"
#165000000
1!
b0000000000001111 )
1*
b0000000000001111 1
13
b0000000000001111 :
1T
b0000000000001111 b
1d
1l
16"
#170000000
0!
b0000 (
b0000000000000000 )
0*
b0000 0
b0000000000000000 1
03
b0000 9
b0000000000000000 :
b0000000000010001 @
b0000000000010000 C
b0000000010001000 L
b0000000000010001 M
0T
b0000000000010000 _
b0000000000010001 `
b0000 a
b0000000000000000 b
0d
0l
b0000000000010000 |
b0000000000010001 }
0!"
b00000000000010001 #"
b0000000000010000 $"
b0000000010001000 &"
0'"
b00000000010001000 )"
b0000000000010001 ."
b0000000010001000 /"
b0000000000010001 1"
06"
b0000000000010001 7"
#175000000
1!
1*
13
1T
1d
1l
16"
#180000000
0!
b0001 (
0*
b0001 0
03
b0001 9
b0000000000010010 @
b0000000000010001 C
b0000000010001001 L
b0000000000010010 M
0T
b0000000000010001 _
b0000000000010010 `
b0001 a
0d
0l
b0000000000010001 |
b0000000000010010 }
0!"
b00000000000010010 #"
b0000000000010001 $"
b0000000010001001 &"
0'"
b00000000010001001 )"
b0000000000010010 ."
b0000000010001001 /"
b0000000000010010 1"
06"
b0000000000010010 7"
#185000000
1!
1*
13
1T
1d
1l
16"
#190000000
0!
b0010 (
0*
b0010 0
03
b0010 9
b0000000000010011 @
b0000000000010010 C
b0000000010001010 L
b0000000000010011 M
0T
b0000000000010010 _
b0000000000010011 `
b0010 a
0d
0l
b0000000000010010 |
b0000000000010011 }
0!"
b00000000000010011 #"
b0000000000010010 $"
b0000000010001010 &"
0'"
b00000000010001010 )"
b0000000000010011 ."
b0000000010001010 /"
b0000000000010011 1"
06"
b0000000000010011 7"
#195000000
1!
1*
13
1T
1d
1l
16"
#200000000
0!
b0011 (
0*
b0011 0
03
b0011 9
b0000000000010100 @
b0000000000010011 C
b0000000010001011 L
b0000000000010100 M
0T
b0000000000010011 _
b0000000000010100 `
b0011 a
0d
0l
b0000000000010011 |
b0000000000010100 }
0!"
b00000000000010100 #"
b0000000000010011 $"
b0000000010001011 &"
0'"
b00000000010001011 )"
b0000000000010100 ."
b0000000010001011 /"
b0000000000010100 1"
06"
b0000000000010100 7"
#205000000
1!
1*
13
1T
1d
1l
16"
#210000000
0!
b0100 (
0*
b0100 0
03
b0100 9
b0000000000010101 @
b0000000000010100 C
b0000000010001100 L
b0000000000010101 M
0T
b0000000000010100 _
b0000000000010101 `
b0100 a
0d
0l
b0000000000010100 |
b0000000000010101 }
0!"
b00000000000010101 #"
b0000000000010100 $"
b0000000010001100 &"
0'"
b00000000010001100 )"
b0000000000010101 ."
b0000000010001100 /"
b0000000000010101 1"
06"
b0000000000010101 7"
#215000000
1!
1*
13
1T
1d
1l
16"
#220000000
0!
b0101 (
b0000000000001110 )
0*
b0101 0
b0000000000001110 1
03
b0101 9
b0000000000001110 :
b0000000000010110 @
b0000000000010101 C
b0000000010001101 L
b0000000000010110 M
0T
b0000000000010101 _
b0000000000010110 `
b0101 a
b0000000000001110 b
0d
0l
b0000000000010101 |
b0000000000010110 }
0!"
b00000000000010110 #"
b0000000000010101 $"
b0000000010001101 &"
0'"
b00000000010001101 )"
b0000000000010110 ."
b0000000010001101 /"
b0000000000010110 1"
06"
b0000000000010110 7"
#225000000
1!
1*
13
1T
1d
1l
16"
#230000000
0!
b0110 (
b0000000000000011 )
0*
b0110 0
b0000000000000011 1
03
b0110 9
b0000000000000011 :
b0000000000010111 @
b0000000000010110 C
b0000000010001110 L
b0000000000010111 M
0T
b0000000000010110 _
b0000000000010111 `
b0110 a
b0000000000000011 b
0d
0l
b0000000000010110 |
b0000000000010111 }
0!"
b00000000000010111 #"
b0000000000010110 $"
b0000000010001110 &"
0'"
b00000000010001110 )"
b0000000000010111 ."
b0000000010001110 /"
b0000000000010111 1"
06"
b0000000000010111 7"
#235000000
1!
1*
13
1T
1d
1l
16"
#240000000
0!
b0111 (
b0000000000000111 )
0*
b0111 0
b0000000000000111 1
03
b0111 9
b0000000000000111 :
b0000000000011000 @
b0000000000010111 C
b0000000010001111 L
b0000000000011000 M
0T
b0000000000010111 _
b0000000000011000 `
b0111 a
b0000000000000111 b
0d
0l
b0000000000010111 |
b0000000000011000 }
0!"
b00000000000011000 #"
b0000000000010111 $"
b0000000010001111 &"
0'"
b00000000010001111 )"
b0000000000011000 ."
b0000000010001111 /"
b0000000000011000 1"
06"
b0000000000011000 7"
#245000000
1!
1*
13
1T
1d
1l
16"
#250000000
0!
b1000 (
0*
b1000 0
03
b1000 9
b0000000000011001 @
b0000000000011000 C
b0000000010010000 L
b0000000000011001 M
0T
b0000000000011000 _
b0000000000011001 `
b1000 a
0d
0l
b0000000000011000 |
b0000000000011001 }
0!"
b00000000000011001 #"
b0000000000011000 $"
b0000000010010000 &"
0'"
b00000000010010000 )"
b0000000000011001 ."
b0000000010010000 /"
b0000000000011001 1"
06"
b0000000000011001 7"
#255000000
1!
1*
13
1T
1d
1l
16"
#260000000
0!
b1001 (
b0000000000000000 )
0*
b1001 0
b0000000000000000 1
03
b1001 9
b0000000000000000 :
b0000000000011010 @
b0000000000011001 C
b0000000010010001 L
b0000000000011010 M
0T
b0000000000011001 _
b0000000000011010 `
b1001 a
b0000000000000000 b
0d
0l
b0000000000011001 |
b0000000000011010 }
0!"
b00000000000011010 #"
b0000000000011001 $"
b0000000010010001 &"
0'"
b00000000010010001 )"
b0000000000011010 ."
b0000000010010001 /"
b0000000000011010 1"
06"
b0000000000011010 7"
#265000000
1!
1*
13
1T
1d
1l
16"
#270000000
0!
b1010 (
0*
b1010 0
03
b1010 9
b0000000000011011 @
b0000000000011010 C
b0000000010010010 L
b0000000000011011 M
0T
b0000000000011010 _
b0000000000011011 `
b1010 a
0d
0l
b0000000000011010 |
b0000000000011011 }
0!"
b00000000000011011 #"
b0000000000011010 $"
b0000000010010010 &"
0'"
b00000000010010010 )"
b0000000000011011 ."
b0000000010010010 /"
b0000000000011011 1"
06"
b0000000000011011 7"
#275000000
1!
1*
13
1T
1d
1l
16"
#280000000
0!
b1011 (
0*
b1011 0
03
b1011 9
b0000000000011100 @
b0000000000011011 C
b0000000010010011 L
b0000000000011100 M
0T
b0000000000011011 _
b0000000000011100 `
b1011 a
0d
0l
b0000000000011011 |
b0000000000011100 }
0!"
b00000000000011100 #"
b0000000000011011 $"
b0000000010010011 &"
0'"
b00000000010010011 )"
b0000000000011100 ."
b0000000010010011 /"
b0000000000011100 1"
06"
b0000000000011100 7"
#285000000
1!
1*
13
1T
1d
1l
16"
#290000000
0!
b1100 (
0*
b1100 0
03
b1100 9
b0000000000011101 @
b0000000000011100 C
b0000000010010100 L
b0000000000011101 M
0T
b0000000000011100 _
b0000000000011101 `
b1100 a
0d
0l
b0000000000011100 |
b0000000000011101 }
0!"
b00000000000011101 #"
b0000000000011100 $"
b0000000010010100 &"
0'"
b00000000010010100 )"
b0000000000011101 ."
b0000000010010100 /"
b0000000000011101 1"
06"
b0000000000011101 7"
#295000000
1!
1*
13
1T
1d
1l
16"
#300000000
0!
b1101 (
0*
b1101 0
03
b1101 9
b0000000000011110 @
b0000000000011101 C
b0000000010010101 L
b0000000000011110 M
0T
b0000000000011101 _
b0000000000011110 `
b1101 a
0d
0l
b0000000000011101 |
b0000000000011110 }
0!"
b00000000000011110 #"
b0000000000011101 $"
b0000000010010101 &"
0'"
b00000000010010101 )"
b0000000000011110 ."
b0000000010010101 /"
b0000000000011110 1"
06"
b0000000000011110 7"
#305000000
1!
1*
13
1T
1d
1l
16"
#310000000
0!
b1110 (
0*
b1110 0
03
b1110 9
b0000000000011111 @
b0000000000011110 C
b0000000010010110 L
b0000000000011111 M
0T
b0000000000011110 _
b0000000000011111 `
b1110 a
0d
0l
b0000000000011110 |
b0000000000011111 }
0!"
b00000000000011111 #"
b0000000000011110 $"
b0000000010010110 &"
0'"
b00000000010010110 )"
b0000000000011111 ."
b0000000010010110 /"
b0000000000011111 1"
06"
b0000000000011111 7"
#315000000
1!
1*
13
1T
1d
1l
16"
#320000000
0!
b1111 (
b0000000000011110 )
0*
b1111 0
b0000000000011110 1
03
b1111 9
b0000000000011110 :
b0000000000100000 @
b0000000000011111 C
b0000000010010111 L
b0000000000100000 M
0T
b0000000000011111 _
b0000000000100000 `
b1111 a
b0000000000011110 b
0d
0l
b0000000000011111 |
b0000000000100000 }
0!"
b00000000000100000 #"
b0000000000011111 $"
b0000000010010111 &"
0'"
b00000000010010111 )"
b0000000000100000 ."
b0000000010010111 /"
b0000000000100000 1"
06"
b0000000000100000 7"
#325000000
1!
b0000000000011111 )
1*
b0000000000011111 1
13
b0000000000011111 :
1T
b0000000000011111 b
1d
1l
16"
#330000000
0!
b0000 (
b0000000000000000 )
0*
b0000 0
b0000000000000000 1
03
b0000 9
b0000000000000000 :
b0000000000100001 @
b0000000000100000 C
b0000000010011000 L
b0000000000100001 M
0T
b0000000000100000 _
b0000000000100001 `
b0000 a
b0000000000000000 b
0d
0l
b0000000000100000 |
b0000000000100001 }
0!"
b00000000000100001 #"
b0000000000100000 $"
b0000000010011000 &"
0'"
b00000000010011000 )"
b0000000000100001 ."
b0000000010011000 /"
b0000000000100001 1"
06"
b0000000000100001 7"
#335000000
1!
1*
13
1T
1d
1l
16"
#340000000
0!
b0001 (
0*
b0001 0
03
b0001 9
b0000000000100010 @
b0000000000100001 C
b0000000010011001 L
b0000000000100010 M
0T
b0000000000100001 _
b0000000000100010 `
b0001 a
0d
0l
b0000000000100001 |
b0000000000100010 }
0!"
b00000000000100010 #"
b0000000000100001 $"
b0000000010011001 &"
0'"
b00000000010011001 )"
b0000000000100010 ."
b0000000010011001 /"
b0000000000100010 1"
06"
b0000000000100010 7"
#345000000
1!
1*
13
1T
1d
1l
16"
#350000000
0!
b0010 (
0*
b0010 0
03
b0010 9
b0000000000100011 @
b0000000000100010 C
b0000000010011010 L
b0000000000100011 M
0T
b0000000000100010 _
b0000000000100011 `
b0010 a
0d
0l
b0000000000100010 |
b0000000000100011 }
0!"
b00000000000100011 #"
b0000000000100010 $"
b0000000010011010 &"
0'"
b00000000010011010 )"
b0000000000100011 ."
b0000000010011010 /"
b0000000000100011 1"
06"
b0000000000100011 7"
#355000000
1!
1*
13
1T
1d
1l
16"
