top.vcd
$date
  Thu Apr  9 16:06:20 2020
$end
$version
  GHDL v0
$end
$timescale
  1 fs
$end
$scope module standard $end
$upscope $end
$scope module std_logic_1164 $end
$upscope $end
$scope module numeric_std $end
$upscope $end
$scope module t_top $end
$var reg 1 ! clk_t $end
$var reg 1 " reset_t $end
$var reg 1 # instructionwriteenable_t $end
$var reg 16 $ instructionwriteaddr_t[15:0] $end
$var reg 16 % instructionwritedata_t[15:0] $end
$var reg 16 & startpc_t[15:0] $end
$var reg 16 ' instructionout_t[15:0] $end
$var reg 4 ( inr_t[3:0] $end
$var reg 16 ) outr_t[15:0] $end
$scope module test $end
$var reg 1 * clk $end
$var reg 1 + instructionwriteenable $end
$var reg 16 , instructionwriteaddr[15:0] $end
$var reg 16 - instructionwritedata[15:0] $end
$var reg 16 . startpc[15:0] $end
$var reg 16 / instructionout[15:0] $end
$var reg 4 0 inr[3:0] $end
$var reg 16 1 outr[15:0] $end
$var reg 1 2 reset $end
$var reg 1 3 clk_t $end
$var reg 1 4 reset_t $end
$var reg 1 5 instructionwriteenable_t $end
$var reg 16 6 instructionwriteaddr_t[15:0] $end
$var reg 16 7 instructionwritedata_t[15:0] $end
$var reg 4 8 inr_t[3:0] $end
$var reg 16 9 outr_t[15:0] $end
$var reg 16 : instruction_t[15:0] $end
$var reg 1 ; cregwrite_t $end
$var reg 1 < cldi_t $end
$var reg 1 = cjalr_t $end
$var reg 16 > writeinput_t[15:0] $end
$var reg 16 ? pcinput_t[15:0] $end
$var reg 16 @ r1tooffsetmux_t[15:0] $end
$var reg 16 A registertomemory_t[15:0] $end
$var reg 16 B pcoutput_t[15:0] $end
$var reg 16 C rdcontent_t[15:0] $end
$var reg 4 D caluop_t[3:0] $end
$var reg 16 E a_t[15:0] $end
$var reg 16 F b_t[15:0] $end
$var reg 1 G isbranch_t $end
$var reg 10 H alutomemory_t[9:0] $end
$var reg 16 I alutoregmux_t[15:0] $end
$var reg 16 J outmemory_t[15:0] $end
$var reg 16 K signextension_t[15:0] $end
$var reg 16 L branchadderoutput_t[15:0] $end
$var reg 16 M incrementadderoutput_t[15:0] $end
$var reg 1 N coffset_t $end
$var reg 1 O cmemtoreg_t $end
$var reg 1 P cmemwrite_t $end
$var reg 1 Q cmemread_t $end
$var reg 1 R carry_t $end
$scope module rf $end
$var reg 1 S clk $end
$var reg 4 T rd[11:8] $end
$var reg 4 U r1[7:4] $end
$var reg 4 V r2[3:0] $end
$var reg 1 W cregwrite $end
$var reg 1 X cldi $end
$var reg 1 Y cjalr $end
$var reg 16 Z writeinput[15:0] $end
$var reg 16 [ outr1tooffsetmux[15:0] $end
$var reg 16 \ outr2toalu[15:0] $end
$var reg 16 ] rdcontent[15:0] $end
$var reg 16 ^ tomemory[15:0] $end
$var reg 16 _ pcoutput[15:0] $end
$var reg 16 ` pcinput[15:0] $end
$var reg 4 a inr[3:0] $end
$var reg 16 b outr[15:0] $end
$var reg 1 c reset $end
$comment register16 is not handled $end
$upscope $end
$scope module arithmetic $end
$var reg 1 d clk $end
$var reg 4 e aluop[3:0] $end
$var reg 16 f a[15:0] $end
$var reg 16 g b[15:0] $end
$var reg 1 h isbranch $end
$var reg 10 i outtomemory[9:0] $end
$var reg 16 j outtoregmux[15:0] $end
$var reg 1 k reset $end
$var reg 16 l outtoregmux_t[15:0] $end
$upscope $end
$scope module control $end
$var reg 4 m opcode[15:12] $end
$var reg 1 n cregwrite $end
$var reg 1 o coffset $end
$var reg 4 p caluop[3:0] $end
$var reg 1 q cmemwrite $end
$var reg 1 r cmemread $end
$var reg 1 s cmemtoreg $end
$var reg 1 t cldi $end
$var reg 1 u cjalr $end
$var reg 1 v reset $end
$upscope $end
$scope module sign $end
$var reg 8 w input[7:0] $end
$var reg 16 x output[15:0] $end
$var reg 1 y reset $end
$upscope $end
$scope module incrementadder $end
$var reg 16 z a[15:0] $end
$var reg 16 { b[15:0] $end
$var reg 16 | sum[15:0] $end
$var reg 1 } cout $end
$var reg 1 !" reset $end
$var reg 17 "" result[16:0] $end
$upscope $end
$scope module branchadder $end
$var reg 16 #" a[15:0] $end
$var reg 16 $" b[15:0] $end
$var reg 16 %" sum[15:0] $end
$var reg 1 &" cout $end
$var reg 1 '" reset $end
$var reg 17 (" result[16:0] $end
$upscope $end
$scope module offsetmux $end
$var reg 16 )" a1[15:0] $end
$var reg 16 *" a2[15:0] $end
$var reg 1 +" sel $end
$var reg 16 ," b[15:0] $end
$upscope $end
$scope module pcmux $end
$var reg 16 -" a1[15:0] $end
$var reg 16 ." a2[15:0] $end
$var reg 1 /" sel $end
$var reg 16 0" b[15:0] $end
$upscope $end
$scope module regmux $end
$var reg 16 1" a1[15:0] $end
$var reg 16 2" a2[15:0] $end
$var reg 1 3" sel $end
$var reg 16 4" b[15:0] $end
$upscope $end
$scope module instruction $end
$var reg 1 5" clk $end
$var reg 16 6" pc[15:0] $end
$var reg 1 7" writeenable $end
$var reg 16 8" writedata[15:0] $end
$var reg 16 9" outinstruction[15:0] $end
$var reg 1 :" reset $end
$comment instruction65536 is not handled $end
$var reg 16 ;" outinstruction_t[15:0] $end
$upscope $end
$scope module disk $end
$var reg 10 <" addr[9:0] $end
$var reg 16 =" din[15:0] $end
$var reg 1 >" cmemwrite $end
$var reg 1 ?" cmemread $end
$var reg 16 @" outmemory[15:0] $end
$var reg 1 A" reset $end
$comment memory1024 is not handled $end
$upscope $end
$upscope $end
$upscope $end
$enddefinitions $end
#0
0!
1"
U#
bUUUUUUUUUUUUUUUU $
bUUUUUUUUUUUUUUUU %
bUUUUUUUUUUUUUUUU &
b0000000000000000 '
bUUUU (
b0000000000000000 )
0*
U+
bUUUUUUUUUUUUUUUU ,
bUUUUUUUUUUUUUUUU -
bUUUUUUUUUUUUUUUU .
b0000000000000000 /
bUUUU 0
b0000000000000000 1
12
03
14
U5
bUUUUUUUUUUUUUUUU 6
bUUUUUUUUUUUUUUUU 7
bUUUU 8
b0000000000000000 9
b0000000000000000 :
0;
0<
0=
b0000000000000000 >
b0000000000000000 ?
b0000000000000000 @
b0000000000000000 A
b0000000000000000 B
b0000000000000000 C
b0000 D
b0000000000000000 E
b0000000000000000 F
0G
b0000000000 H
b0000000000000000 I
b0000000000000000 J
b0000000000000000 K
b0000000000000000 L
b0000000000000000 M
0N
0O
0P
0Q
0R
0S
b0000 T
b0000 U
b0000 V
0W
0X
0Y
b0000000000000000 Z
b0000000000000000 [
b0000000000000000 \
b0000000000000000 ]
b0000000000000000 ^
b0000000000000000 _
b0000000000000000 `
bUUUU a
b0000000000000000 b
1c
0d
b0000 e
b0000000000000000 f
b0000000000000000 g
0h
b0000000000 i
b0000000000000000 j
1k
b0000000000000000 l
b0000 m
0n
0o
b0000 p
0q
0r
0s
0t
0u
1v
b00000000 w
b0000000000000000 x
1y
b0000000000000001 z
b0000000000000000 {
b0000000000000000 |
0}
1!"
b00000000000000000 ""
b0000000000000000 #"
b0000000000000000 $"
b0000000000000000 %"
0&"
1'"
b00000000000000000 ("
b0000000000000000 )"
b0000000000000000 *"
0+"
b0000000000000000 ,"
b0000000000000000 -"
b0000000000000000 ."
0/"
b0000000000000000 0"
b0000000000000000 1"
b0000000000000000 2"
03"
b0000000000000000 4"
05"
b0000000000000000 6"
U7"
bUUUUUUUUUUUUUUUU 8"
b0000000000000000 9"
1:"
bUUUUUUUUUUUUUUUU ;"
b0000000000 <"
b0000000000000000 ="
0>"
0?"
b0000000000000000 @"
1A"
#5000000
1!
1*
13
1S
1d
15"
#10000000
0!
0"
b0000000000000000 &
b0010011000000011 '
b1000 (
0*
b0000000000000000 .
b0010011000000011 /
b1000 0
02
03
04
b1000 8
b0010011000000011 :
1;
1<
b0000000000000001 ?
b0010 D
b0000000000000011 K
b0000000000000001 M
XO
0S
b0110 T
b0011 V
1W
1X
b0000000000000001 `
b1000 a
0c
0d
b0010 e
0k
b0010 m
1n
b0010 p
Xs
1t
0v
b00000011 w
b0000000000000011 x
0y
b0000000000000001 |
0}
0!"
b00000000000000001 ""
0&"
0'"
b0000000000000011 *"
b0000000000000001 -"
b0000000000000001 0"
X3"
05"
b0000000000000001 6"
b0010011000000011 9"
0:"
0A"
#15000000
1!
1*
13
b0000000000000011 C
b0000000000000011 L
1S
b0000000000000011 ]
1d
0}
b0000000000000011 $"
b0000000000000011 %"
0&"
b00000000000000011 ("
b0000000000000011 ."
15"
#20000000
0!
b0010011100000111 '
0*
b0010011100000111 /
03
b0010011100000111 :
b0000000000000010 ?
b0000000000000001 B
b0000000000000000 C
b0000000000000111 K
b0000000000000001 L
b0000000000000010 M
0S
b0111 T
b0111 V
b0000000000000000 ]
b0000000000000001 _
b0000000000000010 `
0d
b00000111 w
b0000000000000111 x
b0000000000000001 {
b0000000000000010 |
0}
b00000000000000010 ""
b0000000000000001 #"
b0000000000000000 $"
b0000000000000001 %"
0&"
b00000000000000001 ("
b0000000000000111 *"
b0000000000000010 -"
b0000000000000001 ."
b0000000000000010 0"
05"
b0000000000000010 6"
b0010011100000111 9"
#25000000
1!
1*
13
b0000000000000111 C
b0000000000000111 F
b0000000000001000 L
1S
b0000000000000111 \
b0000000000000111 ]
1d
b0000000000000111 g
0}
b0000000000000111 $"
b0000000000001000 %"
0&"
b00000000000001000 ("
b0000000000001000 ."
15"
#30000000
0!
b0100100001100000 '
0*
b0100100001100000 /
03
b0100100001100000 :
0<
b0000000000000011 ?
b0000000000000011 @
b0000000000000011 A
b0000000000000010 B
b0000000000000000 C
b0100 D
b0000000000000011 E
b0000000000000000 F
b0000000000000011 J
b0000000001100000 K
b0000000000000010 L
b0000000000000011 M
0O
0S
b1000 T
b0110 U
b0000 V
0X
b0000000000000011 [
b0000000000000000 \
b0000000000000000 ]
b0000000000000011 ^
b0000000000000010 _
b0000000000000011 `
0d
b0100 e
b0000000000000011 f
b0000000000000000 g
b0100 m
b0100 p
0s
0t
b01100000 w
b0000000001100000 x
b0000000000000010 {
b0000000000000011 |
0}
b00000000000000011 ""
b0000000000000010 #"
b0000000000000000 $"
b0000000000000010 %"
0&"
b00000000000000010 ("
b0000000000000011 )"
b0000000001100000 *"
b0000000000000011 ,"
b0000000000000011 -"
b0000000000000010 ."
b0000000000000011 0"
b0000000000000011 2"
03"
05"
b0000000000000011 6"
b0100100001100000 9"
b0000000000000011 ="
b0000000000000011 @"
#35000000
1!
b0000000000000011 )
1*
b0000000000000011 1
13
b0000000000000011 9
b0000000000000011 >
b0000000000000011 C
b0000000000000011 I
b0000000000000101 L
1S
b0000000000000011 Z
b0000000000000011 ]
b0000000000000011 b
1d
b0000000000000011 j
b0000000000000011 l
0}
b0000000000000011 $"
b0000000000000101 %"
0&"
b00000000000000101 ("
b0000000000000101 ."
b0000000000000011 1"
b0000000000000011 4"
15"
#40000000
0!
b0101010101111000 '
0*
b0101010101111000 /
03
b0101010101111000 :
b0000000000000100 ?
b0000000000000111 @
b0000000000000111 A
b0000000000000011 B
b0000000000000000 C
b0101 D
b0000000000000111 E
b0000000000000011 F
b0000000000000111 J
b0000000001111000 K
b0000000000000011 L
b0000000000000100 M
0S
b0101 T
b0111 U
b1000 V
b0000000000000111 [
b0000000000000011 \
b0000000000000000 ]
b0000000000000111 ^
b0000000000000011 _
b0000000000000100 `
0d
b0101 e
b0000000000000111 f
b0000000000000011 g
b0101 m
b0101 p
b01111000 w
b0000000001111000 x
b0000000000000011 {
b0000000000000100 |
0}
b00000000000000100 ""
b0000000000000011 #"
b0000000000000000 $"
b0000000000000011 %"
0&"
b00000000000000011 ("
b0000000000000111 )"
b0000000001111000 *"
b0000000000000111 ,"
b0000000000000100 -"
b0000000000000011 ."
b0000000000000100 0"
b0000000000000111 2"
05"
b0000000000000100 6"
b0101010101111000 9"
b0000000000000111 ="
b0000000000000111 @"
#45000000
1!
1*
13
b0000000000001010 >
b0000000000001010 C
b0000000000001010 I
b0000000000001101 L
1S
b0000000000001010 Z
b0000000000001010 ]
1d
b0000000000001010 j
b0000000000001010 l
0}
b0000000000001010 $"
b0000000000001101 %"
0&"
b00000000000001101 ("
b0000000000001101 ."
b0000000000001010 1"
b0000000000001010 4"
15"
#50000000
0!
b0110010001111000 '
0*
b0110010001111000 /
03
b0110010001111000 :
b0000000000000101 ?
b0000000000000100 B
b0000000000000000 C
b0110 D
b0000000000000100 L
b0000000000000101 M
0S
b0100 T
b0000000000000000 ]
b0000000000000100 _
b0000000000000101 `
0d
b0110 e
b0110 m
b0110 p
b0000000000000100 {
b0000000000000101 |
0}
b00000000000000101 ""
b0000000000000100 #"
b0000000000000000 $"
b0000000000000100 %"
0&"
b00000000000000100 ("
b0000000000000101 -"
b0000000000000100 ."
b0000000000000101 0"
05"
b0000000000000101 6"
b0110010001111000 9"
#55000000
1!
1*
13
b0000000000000100 >
b0000000000000100 C
b0000000000000100 I
b0000000000001000 L
1S
b0000000000000100 Z
b0000000000000100 ]
1d
b0000000000000100 j
b0000000000000100 l
0}
b0000000000000100 $"
b0000000000001000 %"
0&"
b00000000000001000 ("
b0000000000001000 ."
b0000000000000100 1"
b0000000000000100 4"
15"
#60000000
0!
b0111001101011000 '
b0000 (
b0000000000000000 )
0*
b0111001101011000 /
b0000 0
b0000000000000000 1
03
b0000 8
b0000000000000000 9
b0111001101011000 :
b0000000000000110 ?
b0000000000001010 @
b0000000000001010 A
b0000000000000101 B
b0000000000000000 C
b0111 D
b0000000000001010 E
b0000000000001010 J
b0000000001011000 K
b0000000000000101 L
b0000000000000110 M
0S
b0011 T
b0101 U
b0000000000001010 [
b0000000000000000 ]
b0000000000001010 ^
b0000000000000101 _
b0000000000000110 `
b0000 a
b0000000000000000 b
0d
b0111 e
b0000000000001010 f
b0111 m
b0111 p
b01011000 w
b0000000001011000 x
b0000000000000101 {
b0000000000000110 |
0}
b00000000000000110 ""
b0000000000000101 #"
b0000000000000000 $"
b0000000000000101 %"
0&"
b00000000000000101 ("
b0000000000001010 )"
b0000000001011000 *"
b0000000000001010 ,"
b0000000000000110 -"
b0000000000000101 ."
b0000000000000110 0"
b0000000000001010 2"
05"
b0000000000000110 6"
b0111001101011000 9"
b0000000000001010 ="
b0000000000001010 @"
#65000000
1!
1*
13
b0000000001010000 >
b0000000001010000 C
b0000000001010000 I
b0000000001010101 L
1S
b0000000001010000 Z
b0000000001010000 ]
1d
b0000000001010000 j
b0000000001010000 l
0}
b0000000001010000 $"
b0000000001010101 %"
0&"
b00000000001010101 ("
b0000000001010101 ."
b0000000001010000 1"
b0000000001010000 4"
15"
#70000000
0!
b1000001001011000 '
b0001 (
0*
b1000001001011000 /
b0001 0
03
b0001 8
b1000001001011000 :
b0000000000000111 ?
b0000000000000110 B
b0000000000000000 C
b1000 D
b0000000000000110 L
b0000000000000111 M
0S
b0010 T
b0000000000000000 ]
b0000000000000110 _
b0000000000000111 `
b0001 a
0d
b1000 e
b1000 m
b1000 p
b0000000000000110 {
b0000000000000111 |
0}
b00000000000000111 ""
b0000000000000110 #"
b0000000000000000 $"
b0000000000000110 %"
0&"
b00000000000000110 ("
b0000000000000111 -"
b0000000000000110 ."
b0000000000000111 0"
05"
b0000000000000111 6"
b1000001001011000 9"
#75000000
1!
1*
13
b0000000000000001 >
b0000000000000001 C
b0000000000000001 I
b0000000000000111 L
1S
b0000000000000001 Z
b0000000000000001 ]
1d
b0000000000000001 j
b0000000000000001 l
0}
b0000000000000001 $"
b0000000000000111 %"
0&"
b00000000000000111 ("
b0000000000000111 ."
b0000000000000001 1"
b0000000000000001 4"
15"
#80000000
0!
b1001100100100011 '
b0010 (
b0000000000000001 )
0*
b1001100100100011 /
b0010 0
b0000000000000001 1
03
b0010 8
b0000000000000001 9
b1001100100100011 :
b0000000000001000 ?
b0000000000000001 @
b0000000000000001 A
b0000000000000111 B
b0000000000000000 C
b1001 D
b0000000000000001 E
b0000000001010000 F
b0000000000000001 J
b0000000000100011 K
b0000000000000111 L
b0000000000001000 M
0S
b1001 T
b0010 U
b0011 V
b0000000000000001 [
b0000000001010000 \
b0000000000000000 ]
b0000000000000001 ^
b0000000000000111 _
b0000000000001000 `
b0010 a
b0000000000000001 b
0d
b1001 e
b0000000000000001 f
b0000000001010000 g
b1001 m
b1001 p
b00100011 w
b0000000000100011 x
b0000000000000111 {
b0000000000001000 |
0}
b00000000000001000 ""
b0000000000000111 #"
b0000000000000000 $"
b0000000000000111 %"
0&"
b00000000000000111 ("
b0000000000000001 )"
b0000000000100011 *"
b0000000000000001 ,"
b0000000000001000 -"
b0000000000000111 ."
b0000000000001000 0"
b0000000000000001 2"
05"
b0000000000001000 6"
b1001100100100011 9"
b0000000000000001 ="
b0000000000000001 @"
#85000000
1!
1*
13
b0000000000000000 >
b0000000000000000 C
b0000000000000000 I
b0000000000000111 L
1S
b0000000000000000 Z
b0000000000000000 ]
1d
b0000000000000000 j
b0000000000000000 l
0}
b0000000000000000 $"
b0000000000000111 %"
0&"
b00000000000000111 ("
b0000000000000111 ."
b0000000000000000 1"
b0000000000000000 4"
15"
#90000000
0!
b1010101100100011 '
b0011 (
b0000000001010000 )
0*
b1010101100100011 /
b0011 0
b0000000001010000 1
03
b0011 8
b0000000001010000 9
b1010101100100011 :
b0000000000001001 ?
b0000000000001000 B
b1010 D
b0000000000001000 L
b0000000000001001 M
0S
b1011 T
b0000000000001000 _
b0000000000001001 `
b0011 a
b0000000001010000 b
0d
b1010 e
b1010 m
b1010 p
b0000000000001000 {
b0000000000001001 |
0}
b00000000000001001 ""
b0000000000001000 #"
b0000000000001000 %"
0&"
b00000000000001000 ("
b0000000000001001 -"
b0000000000001000 ."
b0000000000001001 0"
05"
b0000000000001001 6"
b1010101100100011 9"
#95000000
1!
1*
13
b0000000001010001 >
b0000000001010001 C
b0000000001010001 I
b0000000001011001 L
1S
b0000000001010001 Z
b0000000001010001 ]
1d
b0000000001010001 j
b0000000001010001 l
0}
b0000000001010001 $"
b0000000001011001 %"
0&"
b00000000001011001 ("
b0000000001011001 ."
b0000000001010001 1"
b0000000001010001 4"
15"
#100000000
0!
b1100100010100111 '
b0100 (
b0000000000000100 )
0*
b1100100010100111 /
b0100 0
b0000000000000100 1
03
b0100 8
b0000000000000100 9
b1100100010100111 :
b0000000000001010 ?
b0000000000000000 @
b0000000000000000 A
b0000000000001001 B
b0000000000000011 C
b1100 D
b1111111110100111 E
b0000000000000111 F
b0000000000000000 J
b1111111110100111 K
b0000000000001100 L
b0000000000001010 M
1N
0S
b1000 T
b1010 U
b0111 V
b0000000000000000 [
b0000000000000111 \
b0000000000000011 ]
b0000000000000000 ^
b0000000000001001 _
b0000000000001010 `
b0100 a
b0000000000000100 b
0d
b1100 e
b1111111110100111 f
b0000000000000111 g
b1100 m
1o
b1100 p
b10100111 w
b1111111110100111 x
b0000000000001001 {
b0000000000001010 |
0}
b00000000000001010 ""
b0000000000001001 #"
b0000000000000011 $"
b0000000000001100 %"
0&"
b00000000000001100 ("
b0000000000000000 )"
b1111111110100111 *"
1+"
b1111111110100111 ,"
b0000000000001010 -"
b0000000000001100 ."
b0000000000001010 0"
b0000000000000000 2"
05"
b0000000000001010 6"
b1100100010100111 9"
b0000000000000000 ="
b0000000000000000 @"
#105000000
1!
b0010011000001111 '
1*
b0010011000001111 /
13
b0010011000001111 :
1<
b0000000000000000 >
b0000000000011000 ?
b0000000000000000 @
b0000000000000000 A
b0000000000001111 C
b0010 D
b0000000000000000 E
b0000000000001001 F
1G
b0000000000000000 I
b0000000000000000 J
b0000000000001111 K
b0000000000011000 L
0N
XO
1S
b0110 T
b0000 U
b1111 V
1X
b0000000000000000 Z
b0000000000000000 [
b0000000000001001 \
b0000000000001111 ]
b0000000000000000 ^
b0000000000011000 `
1d
b0010 e
b0000000000000000 f
b0000000000001001 g
1h
b0000000000000000 j
b0000000000000000 l
b0010 m
0o
b0010 p
Xs
1t
b00001111 w
b0000000000001111 x
0}
b0000000000001111 $"
b0000000000011000 %"
0&"
b00000000000011000 ("
b0000000000000000 )"
b0000000000001111 *"
0+"
b0000000000000000 ,"
b0000000000011000 ."
1/"
b0000000000011000 0"
b0000000000000000 1"
b0000000000000000 2"
X3"
b0000000000000000 4"
15"
b0000000000011000 6"
b0010011000001111 9"
b0000000000000000 ="
b0000000000000000 @"
#110000000
0!
b0010011000001111 '
b0101 (
b0000000000001010 )
0*
b0010011000001111 /
b0101 0
b0000000000001010 1
03
b0101 8
b0000000000001010 9
b0010011000001111 :
1<
b0000000000011001 ?
b0000000000011000 B
b0000000000001111 C
b0010 D
b0000000000000000 E
b0000000000011000 F
0G
b0000000000001111 K
b0000000000100111 L
b0000000000011001 M
0N
XO
0S
b0110 T
b0000 U
b1111 V
1X
b0000000000011000 \
b0000000000001111 ]
b0000000000011000 _
b0000000000011001 `
b0101 a
b0000000000001010 b
0d
b0010 e
b0000000000000000 f
b0000000000011000 g
0h
b0010 m
0o
b0010 p
Xs
1t
b00001111 w
b0000000000001111 x
b0000000000011000 {
b0000000000011001 |
0}
b00000000000011001 ""
b0000000000011000 #"
b0000000000001111 $"
b0000000000100111 %"
0&"
b00000000000100111 ("
b0000000000001111 *"
0+"
b0000000000000000 ,"
b0000000000011001 -"
b0000000000100111 ."
0/"
b0000000000011001 0"
X3"
05"
b0000000000011001 6"
b0010011000001111 9"
#115000000
1!
1*
13
1S
1d
15"
#120000000
0!
b0110 (
b0000000000001111 )
0*
b0110 0
b0000000000001111 1
03
b0110 8
b0000000000001111 9
b0000000000011010 ?
b0000000000011001 B
b0000000000011001 F
b0000000000101000 L
b0000000000011010 M
0S
b0000000000011001 \
b0000000000011001 _
b0000000000011010 `
b0110 a
b0000000000001111 b
0d
b0000000000011001 g
b0000000000011001 {
b0000000000011010 |
0}
b00000000000011010 ""
b0000000000011001 #"
b0000000000101000 %"
0&"
b00000000000101000 ("
b0000000000011010 -"
b0000000000101000 ."
b0000000000011010 0"
05"
b0000000000011010 6"
#125000000
1!
1*
13
1S
1d
15"
#130000000
0!
b0111 (
b0000000000000111 )
0*
b0111 0
b0000000000000111 1
03
b0111 8
b0000000000000111 9
b0000000000011011 ?
b0000000000011010 B
b0000000000011010 F
b0000000000101001 L
b0000000000011011 M
0S
b0000000000011010 \
b0000000000011010 _
b0000000000011011 `
b0111 a
b0000000000000111 b
0d
b0000000000011010 g
b0000000000011010 {
b0000000000011011 |
0}
b00000000000011011 ""
b0000000000011010 #"
b0000000000101001 %"
0&"
b00000000000101001 ("
b0000000000011011 -"
b0000000000101001 ."
b0000000000011011 0"
05"
b0000000000011011 6"
#135000000
1!
1*
13
1S
1d
15"
#140000000
0!
b1000 (
b0000000001010001 )
0*
b1000 0
b0000000001010001 1
03
b1000 8
b0000000001010001 9
b0000000000011100 ?
b0000000000011011 B
b0000000000011011 F
b0000000000101010 L
b0000000000011100 M
0S
b0000000000011011 \
b0000000000011011 _
b0000000000011100 `
b1000 a
b0000000001010001 b
0d
b0000000000011011 g
b0000000000011011 {
b0000000000011100 |
0}
b00000000000011100 ""
b0000000000011011 #"
b0000000000101010 %"
0&"
b00000000000101010 ("
b0000000000011100 -"
b0000000000101010 ."
b0000000000011100 0"
05"
b0000000000011100 6"
#145000000
1!
1*
13
1S
1d
15"
#150000000
0!
b1001 (
b0000000000000000 )
0*
b1001 0
b0000000000000000 1
03
b1001 8
b0000000000000000 9
b0000000000011101 ?
b0000000000011100 B
b0000000000011100 F
b0000000000101011 L
b0000000000011101 M
0S
b0000000000011100 \
b0000000000011100 _
b0000000000011101 `
b1001 a
b0000000000000000 b
0d
b0000000000011100 g
b0000000000011100 {
b0000000000011101 |
0}
b00000000000011101 ""
b0000000000011100 #"
b0000000000101011 %"
0&"
b00000000000101011 ("
b0000000000011101 -"
b0000000000101011 ."
b0000000000011101 0"
05"
b0000000000011101 6"
#155000000
1!
1*
13
1S
1d
15"
#160000000
0!
b1010 (
0*
b1010 0
03
b1010 8
b0000000000011110 ?
b0000000000011101 B
b0000000000011101 F
b0000000000101100 L
b0000000000011110 M
0S
b0000000000011101 \
b0000000000011101 _
b0000000000011110 `
b1010 a
0d
b0000000000011101 g
b0000000000011101 {
b0000000000011110 |
0}
b00000000000011110 ""
b0000000000011101 #"
b0000000000101100 %"
0&"
b00000000000101100 ("
b0000000000011110 -"
b0000000000101100 ."
b0000000000011110 0"
05"
b0000000000011110 6"
#165000000
1!
1*
13
1S
1d
15"
#170000000
0!
b1011 (
b0000000001010001 )
0*
b1011 0
b0000000001010001 1
03
b1011 8
b0000000001010001 9
b0000000000011111 ?
b0000000000011110 B
b0000000000011110 F
b0000000000101101 L
b0000000000011111 M
0S
b0000000000011110 \
b0000000000011110 _
b0000000000011111 `
b1011 a
b0000000001010001 b
0d
b0000000000011110 g
b0000000000011110 {
b0000000000011111 |
0}
b00000000000011111 ""
b0000000000011110 #"
b0000000000101101 %"
0&"
b00000000000101101 ("
b0000000000011111 -"
b0000000000101101 ."
b0000000000011111 0"
05"
b0000000000011111 6"
#175000000
1!
1*
13
1S
1d
15"
#180000000
0!
b1100 (
b0000000000000000 )
0*
b1100 0
b0000000000000000 1
03
b1100 8
b0000000000000000 9
b0000000000100000 ?
b0000000000011111 B
b0000000000011111 F
b0000000000101110 L
b0000000000100000 M
0S
b0000000000011111 \
b0000000000011111 _
b0000000000100000 `
b1100 a
b0000000000000000 b
0d
b0000000000011111 g
b0000000000011111 {
b0000000000100000 |
0}
b00000000000100000 ""
b0000000000011111 #"
b0000000000101110 %"
0&"
b00000000000101110 ("
b0000000000100000 -"
b0000000000101110 ."
b0000000000100000 0"
05"
b0000000000100000 6"
#185000000
1!
1*
13
1S
1d
15"
#190000000
0!
b1101 (
0*
b1101 0
03
b1101 8
b0000000000100001 ?
b0000000000100000 B
b0000000000100000 F
b0000000000101111 L
b0000000000100001 M
0S
b0000000000100000 \
b0000000000100000 _
b0000000000100001 `
b1101 a
0d
b0000000000100000 g
b0000000000100000 {
b0000000000100001 |
0}
b00000000000100001 ""
b0000000000100000 #"
b0000000000101111 %"
0&"
b00000000000101111 ("
b0000000000100001 -"
b0000000000101111 ."
b0000000000100001 0"
05"
b0000000000100001 6"
#195000000
1!
1*
13
1S
1d
15"
#200000000
0!
b1110 (
0*
b1110 0
03
b1110 8
b0000000000100010 ?
b0000000000100001 B
b0000000000100001 F
b0000000000110000 L
b0000000000100010 M
0S
b0000000000100001 \
b0000000000100001 _
b0000000000100010 `
b1110 a
0d
b0000000000100001 g
b0000000000100001 {
b0000000000100010 |
0}
b00000000000100010 ""
b0000000000100001 #"
b0000000000110000 %"
0&"
b00000000000110000 ("
b0000000000100010 -"
b0000000000110000 ."
b0000000000100010 0"
05"
b0000000000100010 6"
#205000000
1!
1*
13
1S
1d
15"
#210000000
0!
b1111 (
b0000000000100010 )
0*
b1111 0
b0000000000100010 1
03
b1111 8
b0000000000100010 9
b0000000000100011 ?
b0000000000100010 B
b0000000000100010 F
b0000000000110001 L
b0000000000100011 M
0S
b0000000000100010 \
b0000000000100010 _
b0000000000100011 `
b1111 a
b0000000000100010 b
0d
b0000000000100010 g
b0000000000100010 {
b0000000000100011 |
0}
b00000000000100011 ""
b0000000000100010 #"
b0000000000110001 %"
0&"
b00000000000110001 ("
b0000000000100011 -"
b0000000000110001 ."
b0000000000100011 0"
05"
b0000000000100011 6"
#215000000
1!
1*
13
1S
1d
15"
#220000000
0!
1"
b0000000000000000 '
b0000000000000000 )
0*
b0000000000000000 /
b0000000000000000 1
12
03
14
b0000000000000000 9
b0000000000000000 :
0;
0<
b0000000000000000 ?
b0000000000000000 B
b0000000000000000 C
b0000 D
b0000000000000000 F
b0000000000000000 K
b0000000000000000 L
b0000000000000000 M
0O
0S
b0000 T
b0000 V
0W
0X
b0000000000000000 \
b0000000000000000 ]
b0000000000000000 _
b0000000000000000 `
b0000000000000000 b
1c
0d
b0000 e
b0000000000000000 g
1k
b0000 m
0n
b0000 p
0s
0t
1v
b00000000 w
b0000000000000000 x
1y
b0000000000000000 {
b0000000000000000 |
0}
1!"
b00000000000000000 ""
b0000000000000000 #"
b0000000000000000 $"
b0000000000000000 %"
0&"
1'"
b00000000000000000 ("
b0000000000000000 *"
b0000000000000000 -"
b0000000000000000 ."
b0000000000000000 0"
03"
05"
b0000000000000000 6"
b0000000000000000 9"
1:"
1A"
#225000000
1!
1*
13
1S
1d
15"
#230000000
0!
0"
b0010011000000011 '
b1000 (
0*
b0010011000000011 /
b1000 0
02
03
04
b1000 8
b0010011000000011 :
1;
1<
b0000000000000001 ?
b0010 D
b0000000000000011 K
b0000000000000001 M
XO
0S
b0110 T
b0011 V
1W
1X
b0000000000000001 `
b1000 a
0c
0d
b0010 e
0k
b0010 m
1n
b0010 p
Xs
1t
0v
b00000011 w
b0000000000000011 x
0y
b0000000000000001 |
0}
0!"
b00000000000000001 ""
0&"
0'"
b0000000000000011 *"
b0000000000000001 -"
b0000000000000001 0"
X3"
05"
b0000000000000001 6"
b0010011000000011 9"
0:"
0A"
#235000000
1!
1*
13
b0000000000000011 C
b0000000000000011 L
1S
b0000000000000011 ]
1d
0}
b0000000000000011 $"
b0000000000000011 %"
0&"
b00000000000000011 ("
b0000000000000011 ."
15"
#240000000
0!
b0010011100000111 '
0*
b0010011100000111 /
03
b0010011100000111 :
b0000000000000010 ?
b0000000000000001 B
b0000000000000000 C
b0000000000000111 K
b0000000000000001 L
b0000000000000010 M
0S
b0111 T
b0111 V
b0000000000000000 ]
b0000000000000001 _
b0000000000000010 `
0d
b00000111 w
b0000000000000111 x
b0000000000000001 {
b0000000000000010 |
0}
b00000000000000010 ""
b0000000000000001 #"
b0000000000000000 $"
b0000000000000001 %"
0&"
b00000000000000001 ("
b0000000000000111 *"
b0000000000000010 -"
b0000000000000001 ."
b0000000000000010 0"
05"
b0000000000000010 6"
b0010011100000111 9"
