top.vcd
$date
  Wed Apr  8 16:55:12 2020
$end
$version
  GHDL v0
$end
$timescale
  1 fs
$end
$scope module standard $end
$upscope $end
$scope module std_logic_1164 $end
$upscope $end
$scope module numeric_std $end
$upscope $end
$scope module t_top $end
$var reg 1 ! clk_t $end
$var reg 1 " reset_t $end
$var reg 1 # instructionwriteenable_t $end
$var reg 16 $ instructionwriteaddr_t[15:0] $end
$var reg 16 % instructionwritedata_t[15:0] $end
$var reg 16 & startpc_t[15:0] $end
$var reg 16 ' instructionout_t[15:0] $end
$var reg 4 ( inr_t[3:0] $end
$var reg 16 ) outr_t[15:0] $end
$scope module test $end
$var reg 1 * clk $end
$var reg 1 + instructionwriteenable $end
$var reg 16 , instructionwriteaddr[15:0] $end
$var reg 16 - instructionwritedata[15:0] $end
$var reg 16 . startpc[15:0] $end
$var reg 16 / instructionout[15:0] $end
$var reg 4 0 inr[3:0] $end
$var reg 16 1 outr[15:0] $end
$var reg 1 2 reset $end
$var reg 1 3 clk_t $end
$var reg 1 4 reset_t $end
$var reg 1 5 instructionwriteenable_t $end
$var reg 16 6 instructionwriteaddr_t[15:0] $end
$var reg 16 7 instructionwritedata_t[15:0] $end
$var reg 4 8 inr_t[3:0] $end
$var reg 16 9 outr_t[15:0] $end
$var reg 16 : instruction_t[15:0] $end
$var reg 1 ; cregwrite_t $end
$var reg 1 < cldi_t $end
$var reg 1 = cjalr_t $end
$var reg 16 > writeinput_t[15:0] $end
$var reg 16 ? pcinput_t[15:0] $end
$var reg 16 @ r1tooffsetmux_t[15:0] $end
$var reg 16 A registertomemory_t[15:0] $end
$var reg 16 B pcoutput_t[15:0] $end
$var reg 4 C caluop_t[3:0] $end
$var reg 16 D a_t[15:0] $end
$var reg 16 E b_t[15:0] $end
$var reg 1 F isbranch_t $end
$var reg 10 G alutomemory_t[9:0] $end
$var reg 16 H alutoregmux_t[15:0] $end
$var reg 16 I outmemory_t[15:0] $end
$var reg 16 J signextension_t[15:0] $end
$var reg 16 K branchadderoutput_t[15:0] $end
$var reg 16 L incrementadderoutput_t[15:0] $end
$var reg 1 M coffset_t $end
$var reg 1 N cmemtoreg_t $end
$var reg 1 O cmemwrite_t $end
$var reg 1 P cmemread_t $end
$var reg 1 Q carry_t $end
$scope module rf $end
$var reg 1 R clk $end
$var reg 4 S rd[11:8] $end
$var reg 4 T r1[7:4] $end
$var reg 4 U r2[3:0] $end
$var reg 1 V cregwrite $end
$var reg 1 W cldi $end
$var reg 1 X cjalr $end
$var reg 16 Y writeinput[15:0] $end
$var reg 16 Z outr1tooffsetmux[15:0] $end
$var reg 16 [ outr2toalu[15:0] $end
$var reg 16 \ tomemory[15:0] $end
$var reg 16 ] pcoutput[15:0] $end
$var reg 16 ^ pcinput[15:0] $end
$var reg 4 _ inr[3:0] $end
$var reg 16 ` outr[15:0] $end
$var reg 1 a reset $end
$comment register16 is not handled $end
$upscope $end
$scope module arithmetic $end
$var reg 1 b clk $end
$var reg 4 c aluop[3:0] $end
$var reg 16 d a[15:0] $end
$var reg 16 e b[15:0] $end
$var reg 1 f isbranch $end
$var reg 10 g outtomemory[9:0] $end
$var reg 16 h outtoregmux[15:0] $end
$var reg 1 i reset $end
$upscope $end
$scope module control $end
$var reg 4 j opcode[15:12] $end
$var reg 1 k cregwrite $end
$var reg 1 l coffset $end
$var reg 4 m caluop[3:0] $end
$var reg 1 n cmemwrite $end
$var reg 1 o cmemread $end
$var reg 1 p cmemtoreg $end
$var reg 1 q cldi $end
$var reg 1 r cjalr $end
$var reg 1 s reset $end
$upscope $end
$scope module sign $end
$var reg 8 t input[7:0] $end
$var reg 16 u output[15:0] $end
$var reg 1 v reset $end
$upscope $end
$scope module incrementadder $end
$var reg 16 w a[15:0] $end
$var reg 16 x b[15:0] $end
$var reg 16 y sum[15:0] $end
$var reg 1 z cout $end
$var reg 1 { reset $end
$var reg 17 | result[16:0] $end
$upscope $end
$scope module branchadder $end
$var reg 16 } a[15:0] $end
$var reg 16 !" b[15:0] $end
$var reg 16 "" sum[15:0] $end
$var reg 1 #" cout $end
$var reg 1 $" reset $end
$var reg 17 %" result[16:0] $end
$upscope $end
$scope module offsetmux $end
$var reg 16 &" a1[15:0] $end
$var reg 16 '" a2[15:0] $end
$var reg 1 (" sel $end
$var reg 16 )" b[15:0] $end
$upscope $end
$scope module pcmux $end
$var reg 16 *" a1[15:0] $end
$var reg 16 +" a2[15:0] $end
$var reg 1 ," sel $end
$var reg 16 -" b[15:0] $end
$upscope $end
$scope module regmux $end
$var reg 16 ." a1[15:0] $end
$var reg 16 /" a2[15:0] $end
$var reg 1 0" sel $end
$var reg 16 1" b[15:0] $end
$upscope $end
$scope module instruction $end
$var reg 1 2" clk $end
$var reg 16 3" pc[15:0] $end
$var reg 1 4" writeenable $end
$var reg 16 5" writedata[15:0] $end
$var reg 16 6" outinstruction[15:0] $end
$var reg 1 7" reset $end
$comment instruction65536 is not handled $end
$upscope $end
$scope module disk $end
$var reg 10 8" addr[9:0] $end
$var reg 16 9" din[15:0] $end
$var reg 1 :" cmemwrite $end
$var reg 1 ;" cmemread $end
$var reg 16 <" outmemory[15:0] $end
$var reg 1 =" reset $end
$comment memory1024 is not handled $end
$upscope $end
$upscope $end
$upscope $end
$enddefinitions $end
#0
0!
1"
U#
bUUUUUUUUUUUUUUUU $
bUUUUUUUUUUUUUUUU %
bUUUUUUUUUUUUUUUU &
b0000000000000000 '
bUUUU (
b0000000000000000 )
0*
U+
bUUUUUUUUUUUUUUUU ,
bUUUUUUUUUUUUUUUU -
bUUUUUUUUUUUUUUUU .
b0000000000000000 /
bUUUU 0
b0000000000000000 1
12
03
14
U5
bUUUUUUUUUUUUUUUU 6
bUUUUUUUUUUUUUUUU 7
bUUUU 8
b0000000000000000 9
b0000000000000000 :
0;
0<
0=
b0000000000000000 >
b0000000000000000 ?
b0000000000000000 @
b0000000000000000 A
b0000000000000000 B
b0000 C
b0000000000000000 D
b0000000000000000 E
0F
b0000000000 G
b0000000000000000 H
b0000000000000000 I
b0000000000000000 J
b0000000000000000 K
b0000000000000000 L
0M
0N
0O
0P
0Q
0R
b0000 S
b0000 T
b0000 U
0V
0W
0X
b0000000000000000 Y
b0000000000000000 Z
b0000000000000000 [
b0000000000000000 \
b0000000000000000 ]
b0000000000000000 ^
bUUUU _
b0000000000000000 `
1a
0b
b0000 c
b0000000000000000 d
b0000000000000000 e
0f
b0000000000 g
b0000000000000000 h
1i
b0000 j
0k
0l
b0000 m
0n
0o
0p
0q
0r
1s
b00000000 t
b0000000000000000 u
1v
b0000000000000001 w
b0000000000000000 x
b0000000000000000 y
0z
1{
b00000000000000000 |
b0000000000000000 }
b0000000000000000 !"
b0000000000000000 ""
0#"
1$"
b00000000000000000 %"
b0000000000000000 &"
b0000000000000000 '"
0("
b0000000000000000 )"
b0000000000000000 *"
b0000000000000000 +"
0,"
b0000000000000000 -"
b0000000000000000 ."
b0000000000000000 /"
00"
b0000000000000000 1"
02"
b0000000000000000 3"
U4"
bUUUUUUUUUUUUUUUU 5"
b0000000000000000 6"
17"
b0000000000 8"
b0000000000000000 9"
0:"
0;"
b0000000000000000 <"
1="
#5000000
1!
1*
13
1R
1b
12"
#10000000
0!
0"
b0000000000000000 &
b0010011000000011 '
b1000 (
0*
b0000000000000000 .
b0010011000000011 /
b1000 0
02
03
04
b1000 8
b0010011000000011 :
1;
1<
b0000000000000001 ?
b0010 C
b0000000000000011 J
b0000000000000001 L
XN
0R
b0110 S
b0011 U
1V
1W
b0000000000000001 ^
b1000 _
0a
0b
b0010 c
0i
b0010 j
1k
b0010 m
Xp
1q
0s
b00000011 t
b0000000000000011 u
0v
b0000000000000001 y
0z
0{
b00000000000000001 |
0#"
0$"
b0000000000000011 '"
b0000000000000001 *"
b0000000000000001 -"
X0"
02"
b0000000000000001 3"
b0010011000000011 6"
07"
0="
#15000000
1!
b0010011100000111 '
1*
b0010011100000111 /
13
b0010011100000111 :
b0000000000000010 ?
b0000000000000001 B
b0000000000000111 J
b0000000000000001 K
b0000000000000010 L
1R
b0111 S
b0111 U
b0000000000000001 ]
b0000000000000010 ^
1b
b00000111 t
b0000000000000111 u
b0000000000000001 x
b0000000000000010 y
0z
b00000000000000010 |
b0000000000000001 }
b0000000000000001 ""
0#"
b00000000000000001 %"
b0000000000000111 '"
b0000000000000010 *"
b0000000000000001 +"
b0000000000000010 -"
12"
b0000000000000010 3"
b0010011100000111 6"
#20000000
0!
b0100100001100000 '
0*
b0100100001100000 /
03
b0100100001100000 :
0<
b0000000000000011 >
b0000000000000011 ?
b0000000000000011 @
b0000000000000011 A
b0000000000000010 B
b0100 C
b0000000000000011 D
b0000000000000000 E
b0000000000000011 H
b0000000000000011 I
b0000000001100000 J
b0000000000000010 K
b0000000000000011 L
0N
0R
b1000 S
b0110 T
b0000 U
0W
b0000000000000011 Y
b0000000000000011 Z
b0000000000000000 [
b0000000000000011 \
b0000000000000010 ]
b0000000000000011 ^
0b
b0100 c
b0000000000000011 d
b0000000000000000 e
b0000000000000011 h
b0100 j
b0100 m
0p
0q
b01100000 t
b0000000001100000 u
b0000000000000010 x
b0000000000000011 y
0z
b00000000000000011 |
b0000000000000010 }
b0000000000000000 !"
b0000000000000010 ""
0#"
b00000000000000010 %"
b0000000000000011 &"
b0000000001100000 '"
b0000000000000011 )"
b0000000000000011 *"
b0000000000000010 +"
b0000000000000011 -"
b0000000000000011 ."
b0000000000000011 /"
00"
b0000000000000011 1"
02"
b0000000000000011 3"
b0100100001100000 6"
b0000000000000011 9"
b0000000000000011 <"
#25000000
1!
b0101010101111000 '
b0000000000000011 )
1*
b0101010101111000 /
b0000000000000011 1
13
b0000000000000011 9
b0101010101111000 :
b0000000000001010 >
b0000000000000100 ?
b0000000000000111 @
b0000000000000111 A
b0000000000000011 B
b0101 C
b0000000000000111 D
b0000000000000011 E
b0000000000001010 H
b0000000000000111 I
b0000000001111000 J
b0000000000000110 K
b0000000000000100 L
1R
b0101 S
b0111 T
b1000 U
b0000000000001010 Y
b0000000000000111 Z
b0000000000000011 [
b0000000000000111 \
b0000000000000011 ]
b0000000000000100 ^
b0000000000000011 `
1b
b0101 c
b0000000000000111 d
b0000000000000011 e
b0000000000001010 h
b0101 j
b0101 m
b01111000 t
b0000000001111000 u
b0000000000000011 x
b0000000000000100 y
0z
b00000000000000100 |
b0000000000000011 }
b0000000000000011 !"
b0000000000000110 ""
0#"
b00000000000000110 %"
b0000000000000111 &"
b0000000001111000 '"
b0000000000000111 )"
b0000000000000100 *"
b0000000000000110 +"
b0000000000000100 -"
b0000000000001010 ."
b0000000000000111 /"
b0000000000001010 1"
12"
b0000000000000100 3"
b0101010101111000 6"
b0000000000000111 9"
b0000000000000111 <"
#30000000
0!
b0110010001111000 '
0*
b0110010001111000 /
03
b0110010001111000 :
b0000000000000100 >
b0000000000000101 ?
b0000000000000100 B
b0110 C
b0000000000000100 H
b0000000000000111 K
b0000000000000101 L
0R
b0100 S
b0000000000000100 Y
b0000000000000100 ]
b0000000000000101 ^
0b
b0110 c
b0000000000000100 h
b0110 j
b0110 m
b0000000000000100 x
b0000000000000101 y
0z
b00000000000000101 |
b0000000000000100 }
b0000000000000111 ""
0#"
b00000000000000111 %"
b0000000000000101 *"
b0000000000000111 +"
b0000000000000101 -"
b0000000000000100 ."
b0000000000000100 1"
02"
b0000000000000101 3"
b0110010001111000 6"
#35000000
1!
b0111001101011000 '
1*
b0111001101011000 /
13
b0111001101011000 :
b0000000001010000 >
b0000000000000110 ?
b0000000000001010 @
b0000000000001010 A
b0000000000000101 B
b0111 C
b0000000000001010 D
b0000000001010000 H
b0000000000001010 I
b0000000001011000 J
b0000000000001000 K
b0000000000000110 L
1R
b0011 S
b0101 T
b0000000001010000 Y
b0000000000001010 Z
b0000000000001010 \
b0000000000000101 ]
b0000000000000110 ^
1b
b0111 c
b0000000000001010 d
b0000000001010000 h
b0111 j
b0111 m
b01011000 t
b0000000001011000 u
b0000000000000101 x
b0000000000000110 y
0z
b00000000000000110 |
b0000000000000101 }
b0000000000001000 ""
0#"
b00000000000001000 %"
b0000000000001010 &"
b0000000001011000 '"
b0000000000001010 )"
b0000000000000110 *"
b0000000000001000 +"
b0000000000000110 -"
b0000000001010000 ."
b0000000000001010 /"
b0000000001010000 1"
12"
b0000000000000110 3"
b0111001101011000 6"
b0000000000001010 9"
b0000000000001010 <"
#40000000
0!
b1000001001011000 '
0*
b1000001001011000 /
03
b1000001001011000 :
b0000000000000001 >
b0000000000000111 ?
b0000000000000110 B
b1000 C
b0000000000000001 H
b0000000000001001 K
b0000000000000111 L
0R
b0010 S
b0000000000000001 Y
b0000000000000110 ]
b0000000000000111 ^
0b
b1000 c
b0000000000000001 h
b1000 j
b1000 m
b0000000000000110 x
b0000000000000111 y
0z
b00000000000000111 |
b0000000000000110 }
b0000000000001001 ""
0#"
b00000000000001001 %"
b0000000000000111 *"
b0000000000001001 +"
b0000000000000111 -"
b0000000000000001 ."
b0000000000000001 1"
02"
b0000000000000111 3"
b1000001001011000 6"
#45000000
1!
b1001100100100011 '
1*
b1001100100100011 /
13
b1001100100100011 :
b0000000000000000 >
b0000000000001000 ?
b0000000000000001 @
b0000000000000001 A
b0000000000000111 B
b1001 C
b0000000000000001 D
b0000000001010000 E
b0000000000000000 H
b0000000000000001 I
b0000000000100011 J
b0000000001010111 K
b0000000000001000 L
1R
b1001 S
b0010 T
b0011 U
b0000000000000000 Y
b0000000000000001 Z
b0000000001010000 [
b0000000000000001 \
b0000000000000111 ]
b0000000000001000 ^
1b
b1001 c
b0000000000000001 d
b0000000001010000 e
b0000000000000000 h
b1001 j
b1001 m
b00100011 t
b0000000000100011 u
b0000000000000111 x
b0000000000001000 y
0z
b00000000000001000 |
b0000000000000111 }
b0000000001010000 !"
b0000000001010111 ""
0#"
b00000000001010111 %"
b0000000000000001 &"
b0000000000100011 '"
b0000000000000001 )"
b0000000000001000 *"
b0000000001010111 +"
b0000000000001000 -"
b0000000000000000 ."
b0000000000000001 /"
b0000000000000000 1"
12"
b0000000000001000 3"
b1001100100100011 6"
b0000000000000001 9"
b0000000000000001 <"
#50000000
0!
b1010101100100011 '
0*
b1010101100100011 /
03
b1010101100100011 :
b0000000001010001 >
b0000000000001001 ?
b0000000000001000 B
b1010 C
b0000000001010001 H
b0000000001011000 K
b0000000000001001 L
0R
b1011 S
b0000000001010001 Y
b0000000000001000 ]
b0000000000001001 ^
0b
b1010 c
b0000000001010001 h
b1010 j
b1010 m
b0000000000001000 x
b0000000000001001 y
0z
b00000000000001001 |
b0000000000001000 }
b0000000001011000 ""
0#"
b00000000001011000 %"
b0000000000001001 *"
b0000000001011000 +"
b0000000000001001 -"
b0000000001010001 ."
b0000000001010001 1"
02"
b0000000000001001 3"
b1010101100100011 6"
#55000000
1!
b0010011000001111 '
1*
b0010011000001111 /
13
b0010011000001111 :
1<
b0000000000000000 >
b0000000000010010 ?
b0000000000000000 @
b0000000000000000 A
b0000000000001001 B
b0010 C
b0000000000000000 D
b0000000000001001 E
1F
b0000000000000000 H
b0000000000000000 I
b0000000000001111 J
b0000000000010010 K
b0000000000001010 L
0M
XN
1R
b0110 S
b0000 T
b1111 U
1W
b0000000000000000 Y
b0000000000000000 Z
b0000000000001001 [
b0000000000000000 \
b0000000000001001 ]
b0000000000010010 ^
1b
b0010 c
b0000000000000000 d
b0000000000001001 e
1f
b0000000000000000 h
b0010 j
0l
b0010 m
Xp
1q
b00001111 t
b0000000000001111 u
b0000000000001001 x
b0000000000001010 y
0z
b00000000000001010 |
b0000000000001001 }
b0000000000001001 !"
b0000000000010010 ""
0#"
b00000000000010010 %"
b0000000000000000 &"
b0000000000001111 '"
0("
b0000000000000000 )"
b0000000000001010 *"
b0000000000010010 +"
1,"
b0000000000010010 -"
b0000000000000000 ."
b0000000000000000 /"
X0"
b0000000000000000 1"
12"
b0000000000010010 3"
b0010011000001111 6"
b0000000000000000 9"
b0000000000000000 <"
#60000000
0!
b0000 (
b0000000000000000 )
0*
b0000 0
b0000000000000000 1
03
b0000 8
b0000000000000000 9
b0000000000100100 ?
b0000000000010010 B
b0000000000010010 E
b0000000000100100 K
b0000000000010011 L
0R
b0000000000010010 [
b0000000000010010 ]
b0000000000100100 ^
b0000 _
b0000000000000000 `
0b
b0000000000010010 e
b0000000000010010 x
b0000000000010011 y
0z
b00000000000010011 |
b0000000000010010 }
b0000000000010010 !"
b0000000000100100 ""
0#"
b00000000000100100 %"
b0000000000010011 *"
b0000000000100100 +"
b0000000000100100 -"
02"
b0000000000100100 3"
#65000000
1!
1*
13
b0000000001001000 ?
b0000000000100100 B
b0000000000100100 E
b0000000001001000 K
b0000000000100101 L
1R
b0000000000100100 [
b0000000000100100 ]
b0000000001001000 ^
1b
b0000000000100100 e
b0000000000100100 x
b0000000000100101 y
0z
b00000000000100101 |
b0000000000100100 }
b0000000000100100 !"
b0000000001001000 ""
0#"
b00000000001001000 %"
b0000000000100101 *"
b0000000001001000 +"
b0000000001001000 -"
12"
b0000000001001000 3"
#70000000
0!
b0001 (
0*
b0001 0
03
b0001 8
b0000000010010000 ?
b0000000001001000 B
b0000000001001000 E
b0000000010010000 K
b0000000001001001 L
0R
b0000000001001000 [
b0000000001001000 ]
b0000000010010000 ^
b0001 _
0b
b0000000001001000 e
b0000000001001000 x
b0000000001001001 y
0z
b00000000001001001 |
b0000000001001000 }
b0000000001001000 !"
b0000000010010000 ""
0#"
b00000000010010000 %"
b0000000001001001 *"
b0000000010010000 +"
b0000000010010000 -"
02"
b0000000010010000 3"
#75000000
1!
1*
13
b0000000100100000 ?
b0000000010010000 B
b0000000010010000 E
b0000000100100000 K
b0000000010010001 L
1R
b0000000010010000 [
b0000000010010000 ]
b0000000100100000 ^
1b
b0000000010010000 e
b0000000010010000 x
b0000000010010001 y
0z
b00000000010010001 |
b0000000010010000 }
b0000000010010000 !"
b0000000100100000 ""
0#"
b00000000100100000 %"
b0000000010010001 *"
b0000000100100000 +"
b0000000100100000 -"
12"
b0000000100100000 3"
#80000000
0!
b0010 (
b0000000000000001 )
0*
b0010 0
b0000000000000001 1
03
b0010 8
b0000000000000001 9
b0000001001000000 ?
b0000000100100000 B
b0000000100100000 E
b0000001001000000 K
b0000000100100001 L
0R
b0000000100100000 [
b0000000100100000 ]
b0000001001000000 ^
b0010 _
b0000000000000001 `
0b
b0000000100100000 e
b0000000100100000 x
b0000000100100001 y
0z
b00000000100100001 |
b0000000100100000 }
b0000000100100000 !"
b0000001001000000 ""
0#"
b00000001001000000 %"
b0000000100100001 *"
b0000001001000000 +"
b0000001001000000 -"
02"
b0000001001000000 3"
#85000000
1!
1*
13
b0000010010000000 ?
b0000001001000000 B
b0000001001000000 E
b0000010010000000 K
b0000001001000001 L
1R
b0000001001000000 [
b0000001001000000 ]
b0000010010000000 ^
1b
b0000001001000000 e
b0000001001000000 x
b0000001001000001 y
0z
b00000001001000001 |
b0000001001000000 }
b0000001001000000 !"
b0000010010000000 ""
0#"
b00000010010000000 %"
b0000001001000001 *"
b0000010010000000 +"
b0000010010000000 -"
12"
b0000010010000000 3"
#90000000
0!
b0011 (
b0000000001010000 )
0*
b0011 0
b0000000001010000 1
03
b0011 8
b0000000001010000 9
b0000100100000000 ?
b0000010010000000 B
b0000010010000000 E
b0000100100000000 K
b0000010010000001 L
0R
b0000010010000000 [
b0000010010000000 ]
b0000100100000000 ^
b0011 _
b0000000001010000 `
0b
b0000010010000000 e
b0000010010000000 x
b0000010010000001 y
0z
b00000010010000001 |
b0000010010000000 }
b0000010010000000 !"
b0000100100000000 ""
0#"
b00000100100000000 %"
b0000010010000001 *"
b0000100100000000 +"
b0000100100000000 -"
02"
b0000100100000000 3"
#95000000
1!
1*
13
b0001001000000000 ?
b0000100100000000 B
b0000100100000000 E
b0001001000000000 K
b0000100100000001 L
1R
b0000100100000000 [
b0000100100000000 ]
b0001001000000000 ^
1b
b0000100100000000 e
b0000100100000000 x
b0000100100000001 y
0z
b00000100100000001 |
b0000100100000000 }
b0000100100000000 !"
b0001001000000000 ""
0#"
b00001001000000000 %"
b0000100100000001 *"
b0001001000000000 +"
b0001001000000000 -"
12"
b0001001000000000 3"
#100000000
0!
b0100 (
b0000000000000100 )
0*
b0100 0
b0000000000000100 1
03
b0100 8
b0000000000000100 9
b0010010000000000 ?
b0001001000000000 B
b0001001000000000 E
b0010010000000000 K
b0001001000000001 L
0R
b0001001000000000 [
b0001001000000000 ]
b0010010000000000 ^
b0100 _
b0000000000000100 `
0b
b0001001000000000 e
b0001001000000000 x
b0001001000000001 y
0z
b00001001000000001 |
b0001001000000000 }
b0001001000000000 !"
b0010010000000000 ""
0#"
b00010010000000000 %"
b0001001000000001 *"
b0010010000000000 +"
b0010010000000000 -"
02"
b0010010000000000 3"
#105000000
1!
1*
13
b0100100000000000 ?
b0010010000000000 B
b0010010000000000 E
b0100100000000000 K
b0010010000000001 L
1R
b0010010000000000 [
b0010010000000000 ]
b0100100000000000 ^
1b
b0010010000000000 e
b0010010000000000 x
b0010010000000001 y
0z
b00010010000000001 |
b0010010000000000 }
b0010010000000000 !"
b0100100000000000 ""
0#"
b00100100000000000 %"
b0010010000000001 *"
b0100100000000000 +"
b0100100000000000 -"
12"
b0100100000000000 3"
#110000000
0!
b0101 (
b0000000000001010 )
0*
b0101 0
b0000000000001010 1
03
b0101 8
b0000000000001010 9
b1001000000000000 ?
b0100100000000000 B
b0100100000000000 E
b1001000000000000 K
b0100100000000001 L
0R
b0100100000000000 [
b0100100000000000 ]
b1001000000000000 ^
b0101 _
b0000000000001010 `
0b
b0100100000000000 e
b0100100000000000 x
b0100100000000001 y
0z
b00100100000000001 |
b0100100000000000 }
b0100100000000000 !"
b1001000000000000 ""
0#"
b01001000000000000 %"
b0100100000000001 *"
b1001000000000000 +"
b1001000000000000 -"
02"
b1001000000000000 3"
#115000000
1!
1*
13
b0010000000000000 ?
b1001000000000000 B
b1001000000000000 E
b0010000000000000 K
b1001000000000001 L
XQ
1R
b1001000000000000 [
b1001000000000000 ]
b0010000000000000 ^
1b
b1001000000000000 e
b1001000000000000 x
b1001000000000001 y
Xz
b01001000000000001 |
b1001000000000000 }
b1001000000000000 !"
b0010000000000000 ""
X#"
b10010000000000000 %"
b1001000000000001 *"
b0010000000000000 +"
b0010000000000000 -"
12"
b0010000000000000 3"
#120000000
0!
b0110 (
b0000000000001111 )
0*
b0110 0
b0000000000001111 1
03
b0110 8
b0000000000001111 9
b0100000000000000 ?
b0010000000000000 B
b0010000000000000 E
b0100000000000000 K
b0010000000000001 L
0Q
0R
b0010000000000000 [
b0010000000000000 ]
b0100000000000000 ^
b0110 _
b0000000000001111 `
0b
b0010000000000000 e
b0010000000000000 x
b0010000000000001 y
0z
b00010000000000001 |
b0010000000000000 }
b0010000000000000 !"
b0100000000000000 ""
0#"
b00100000000000000 %"
b0010000000000001 *"
b0100000000000000 +"
b0100000000000000 -"
02"
b0100000000000000 3"
#125000000
1!
1*
13
b1000000000000000 ?
b0100000000000000 B
b0100000000000000 E
b1000000000000000 K
b0100000000000001 L
1R
b0100000000000000 [
b0100000000000000 ]
b1000000000000000 ^
1b
b0100000000000000 e
b0100000000000000 x
b0100000000000001 y
0z
b00100000000000001 |
b0100000000000000 }
b0100000000000000 !"
b1000000000000000 ""
0#"
b01000000000000000 %"
b0100000000000001 *"
b1000000000000000 +"
b1000000000000000 -"
12"
b1000000000000000 3"
#130000000
0!
b0111 (
b0000000000000111 )
0*
b0111 0
b0000000000000111 1
03
b0111 8
b0000000000000111 9
b0000000000000000 ?
b1000000000000000 B
b1000000000000000 E
b0000000000000000 K
b1000000000000001 L
XQ
0R
b1000000000000000 [
b1000000000000000 ]
b0000000000000000 ^
b0111 _
b0000000000000111 `
0b
b1000000000000000 e
b1000000000000000 x
b1000000000000001 y
Xz
b01000000000000001 |
b1000000000000000 }
b1000000000000000 !"
b0000000000000000 ""
X#"
b10000000000000000 %"
b1000000000000001 *"
b0000000000000000 +"
b0000000000000000 -"
02"
b0000000000000000 3"
#135000000
1!
1*
13
b0000000000000000 B
b0000000000000000 E
b0000000000000001 L
0Q
1R
b0000000000000000 [
b0000000000000000 ]
1b
b0000000000000000 e
b0000000000000000 x
b0000000000000001 y
0z
b00000000000000001 |
b0000000000000000 }
b0000000000000000 !"
0#"
b00000000000000000 %"
b0000000000000001 *"
12"
#140000000
0!
b1000 (
b0000000000000011 )
0*
b1000 0
b0000000000000011 1
03
b1000 8
b0000000000000011 9
0R
b1000 _
b0000000000000011 `
0b
02"
#145000000
1!
1*
13
1R
1b
12"
#150000000
0!
b1001 (
b0000000000000000 )
0*
b1001 0
b0000000000000000 1
03
b1001 8
b0000000000000000 9
0R
b1001 _
b0000000000000000 `
0b
02"
#155000000
1!
1*
13
1R
1b
12"
#160000000
0!
b1010 (
0*
b1010 0
03
b1010 8
0R
b1010 _
0b
02"
#165000000
1!
1*
13
1R
1b
12"
#170000000
0!
b1011 (
b0000000001010001 )
0*
b1011 0
b0000000001010001 1
03
b1011 8
b0000000001010001 9
0R
b1011 _
b0000000001010001 `
0b
02"
#175000000
1!
1*
13
1R
1b
12"
#180000000
0!
b1100 (
b0000000000000000 )
0*
b1100 0
b0000000000000000 1
03
b1100 8
b0000000000000000 9
0R
b1100 _
b0000000000000000 `
0b
02"
#185000000
1!
1*
13
1R
1b
12"
#190000000
0!
b1101 (
0*
b1101 0
03
b1101 8
0R
b1101 _
0b
02"
#195000000
1!
1*
13
1R
1b
12"
#200000000
0!
b1110 (
0*
b1110 0
03
b1110 8
0R
b1110 _
0b
02"
#205000000
1!
1*
13
1R
1b
12"
#210000000
0!
b1111 (
0*
b1111 0
03
b1111 8
0R
b1111 _
0b
02"
#215000000
1!
1*
13
1R
1b
12"
#220000000
0!
1"
b0000000000000000 '
0*
b0000000000000000 /
12
03
14
b0000000000000000 :
0;
0<
b0000000000000000 ?
b0000 C
0F
b0000000000000000 J
b0000000000000000 L
0N
0R
b0000 S
b0000 U
0V
0W
b0000000000000000 ^
1a
0b
b0000 c
0f
1i
b0000 j
0k
b0000 m
0p
0q
1s
b00000000 t
b0000000000000000 u
1v
b0000000000000000 y
0z
1{
b00000000000000000 |
0#"
1$"
b0000000000000000 '"
b0000000000000000 *"
0,"
b0000000000000000 -"
00"
02"
b0000000000000000 3"
b0000000000000000 6"
17"
1="
#225000000
1!
1*
13
1R
1b
12"
#230000000
0!
0"
b0010011000000011 '
b1000 (
0*
b0010011000000011 /
b1000 0
02
03
04
b1000 8
b0010011000000011 :
1;
1<
b0000000000000001 ?
b0010 C
b0000000000000011 J
b0000000000000001 L
XN
0R
b0110 S
b0011 U
1V
1W
b0000000000000001 ^
b1000 _
0a
0b
b0010 c
0i
b0010 j
1k
b0010 m
Xp
1q
0s
b00000011 t
b0000000000000011 u
0v
b0000000000000001 y
0z
0{
b00000000000000001 |
0#"
0$"
b0000000000000011 '"
b0000000000000001 *"
b0000000000000001 -"
X0"
02"
b0000000000000001 3"
b0010011000000011 6"
07"
0="
#235000000
1!
b0010011100000111 '
1*
b0010011100000111 /
13
b0010011100000111 :
b0000000000000010 ?
b0000000000000001 B
b0000000000000111 J
b0000000000000001 K
b0000000000000010 L
1R
b0111 S
b0111 U
b0000000000000001 ]
b0000000000000010 ^
1b
b00000111 t
b0000000000000111 u
b0000000000000001 x
b0000000000000010 y
0z
b00000000000000010 |
b0000000000000001 }
b0000000000000001 ""
0#"
b00000000000000001 %"
b0000000000000111 '"
b0000000000000010 *"
b0000000000000001 +"
b0000000000000010 -"
12"
b0000000000000010 3"
b0010011100000111 6"
#240000000
0!
b0100100001100000 '
0*
b0100100001100000 /
03
b0100100001100000 :
0<
b0000000000000011 >
b0000000000000011 ?
b0000000000000011 @
b0000000000000011 A
b0000000000000010 B
b0100 C
b0000000000000011 D
b0000000000000000 E
b0000000000000011 H
b0000000000000011 I
b0000000001100000 J
b0000000000000010 K
b0000000000000011 L
0N
0R
b1000 S
b0110 T
b0000 U
0W
b0000000000000011 Y
b0000000000000011 Z
b0000000000000000 [
b0000000000000011 \
b0000000000000010 ]
b0000000000000011 ^
0b
b0100 c
b0000000000000011 d
b0000000000000000 e
b0000000000000011 h
b0100 j
b0100 m
0p
0q
b01100000 t
b0000000001100000 u
b0000000000000010 x
b0000000000000011 y
0z
b00000000000000011 |
b0000000000000010 }
b0000000000000000 !"
b0000000000000010 ""
0#"
b00000000000000010 %"
b0000000000000011 &"
b0000000001100000 '"
b0000000000000011 )"
b0000000000000011 *"
b0000000000000010 +"
b0000000000000011 -"
b0000000000000011 ."
b0000000000000011 /"
00"
b0000000000000011 1"
02"
b0000000000000011 3"
b0100100001100000 6"
b0000000000000011 9"
b0000000000000011 <"
