top.vcd
$date
  Wed Apr  8 14:18:12 2020
$end
$version
  GHDL v0
$end
$timescale
  1 fs
$end
$scope module standard $end
$upscope $end
$scope module std_logic_1164 $end
$upscope $end
$scope module numeric_std $end
$upscope $end
$scope module t_top $end
$var reg 1 ! clk_t $end
$var reg 1 " reset_t $end
$var reg 1 # instructionwriteenable_t $end
$var reg 16 $ instructionwriteaddr_t[15:0] $end
$var reg 16 % instructionwritedata_t[15:0] $end
$var reg 16 & startpc_t[15:0] $end
$var reg 16 ' instructionout_t[15:0] $end
$var reg 4 ( inr_t[3:0] $end
$var reg 16 ) outr_t[15:0] $end
$scope module test $end
$var reg 1 * clk $end
$var reg 1 + instructionwriteenable $end
$var reg 16 , instructionwriteaddr[15:0] $end
$var reg 16 - instructionwritedata[15:0] $end
$var reg 16 . startpc[15:0] $end
$var reg 16 / instructionout[15:0] $end
$var reg 4 0 inr[3:0] $end
$var reg 16 1 outr[15:0] $end
$var reg 1 2 reset $end
$var reg 1 3 clk_t $end
$var reg 1 4 reset_t $end
$var reg 1 5 instructionwriteenable_t $end
$var reg 16 6 instructionwriteaddr_t[15:0] $end
$var reg 16 7 instructionwritedata_t[15:0] $end
$var reg 4 8 inr_t[3:0] $end
$var reg 16 9 outr_t[15:0] $end
$var reg 16 : instruction_t[15:0] $end
$var reg 1 ; cregwrite_t $end
$var reg 1 < cldi_t $end
$var reg 1 = cjalr_t $end
$var reg 16 > writeinput_t[15:0] $end
$var reg 16 ? pcinput_t[15:0] $end
$var reg 16 @ r1tooffsetmux_t[15:0] $end
$var reg 16 A registertomemory_t[15:0] $end
$var reg 16 B pcoutput_t[15:0] $end
$var reg 4 C caluop_t[3:0] $end
$var reg 16 D a_t[15:0] $end
$var reg 16 E b_t[15:0] $end
$var reg 1 F isbranch_t $end
$var reg 10 G alutomemory_t[9:0] $end
$var reg 16 H alutoregmux_t[15:0] $end
$var reg 16 I outmemory_t[15:0] $end
$var reg 16 J signextension_t[15:0] $end
$var reg 16 K branchadderoutput_t[15:0] $end
$var reg 16 L incrementadderoutput_t[15:0] $end
$var reg 1 M coffset_t $end
$var reg 1 N cmemtoreg_t $end
$var reg 1 O cmemwrite_t $end
$var reg 1 P cmemread_t $end
$var reg 1 Q carry_t $end
$scope module rf $end
$var reg 1 R clk $end
$var reg 4 S rd[11:8] $end
$var reg 4 T r1[7:4] $end
$var reg 4 U r2[3:0] $end
$var reg 1 V cregwrite $end
$var reg 1 W cldi $end
$var reg 1 X cjalr $end
$var reg 16 Y writeinput[15:0] $end
$var reg 16 Z outr1tooffsetmux[15:0] $end
$var reg 16 [ outr2toalu[15:0] $end
$var reg 16 \ tomemory[15:0] $end
$var reg 16 ] pcoutput[15:0] $end
$var reg 16 ^ pcinput[15:0] $end
$var reg 4 _ inr[3:0] $end
$var reg 16 ` outr[15:0] $end
$var reg 1 a reset $end
$comment register16 is not handled $end
$upscope $end
$scope module arithmetic $end
$var reg 1 b clk $end
$var reg 4 c aluop[3:0] $end
$var reg 16 d a[15:0] $end
$var reg 16 e b[15:0] $end
$var reg 1 f isbranch $end
$var reg 10 g outtomemory[9:0] $end
$var reg 16 h outtoregmux[15:0] $end
$var reg 1 i reset $end
$upscope $end
$scope module control $end
$var reg 4 j opcode[15:12] $end
$var reg 1 k cregwrite $end
$var reg 1 l coffset $end
$var reg 4 m caluop[3:0] $end
$var reg 1 n cmemwrite $end
$var reg 1 o cmemread $end
$var reg 1 p cmemtoreg $end
$var reg 1 q cldi $end
$var reg 1 r cjalr $end
$var reg 1 s reset $end
$upscope $end
$scope module sign $end
$var reg 8 t input[7:0] $end
$var reg 16 u output[15:0] $end
$var reg 1 v reset $end
$upscope $end
$scope module incrementadder $end
$var reg 16 w a[15:0] $end
$var reg 16 x b[15:0] $end
$var reg 16 y sum[15:0] $end
$var reg 1 z cout $end
$var reg 1 { reset $end
$var reg 17 | result[16:0] $end
$upscope $end
$scope module branchadder $end
$var reg 16 } a[15:0] $end
$var reg 16 !" b[15:0] $end
$var reg 16 "" sum[15:0] $end
$var reg 1 #" cout $end
$var reg 1 $" reset $end
$var reg 17 %" result[16:0] $end
$upscope $end
$scope module offsetmux $end
$var reg 16 &" a1[15:0] $end
$var reg 16 '" a2[15:0] $end
$var reg 1 (" sel $end
$var reg 16 )" b[15:0] $end
$upscope $end
$scope module pcmux $end
$var reg 16 *" a1[15:0] $end
$var reg 16 +" a2[15:0] $end
$var reg 1 ," sel $end
$var reg 16 -" b[15:0] $end
$upscope $end
$scope module regmux $end
$var reg 16 ." a1[15:0] $end
$var reg 16 /" a2[15:0] $end
$var reg 1 0" sel $end
$var reg 16 1" b[15:0] $end
$upscope $end
$scope module instruction $end
$var reg 1 2" clk $end
$var reg 16 3" pc[15:0] $end
$var reg 1 4" writeenable $end
$var reg 16 5" writedata[15:0] $end
$var reg 16 6" outinstruction[15:0] $end
$var reg 1 7" reset $end
$comment instruction65536 is not handled $end
$upscope $end
$scope module disk $end
$var reg 10 8" addr[9:0] $end
$var reg 16 9" din[15:0] $end
$var reg 1 :" cmemwrite $end
$var reg 1 ;" cmemread $end
$var reg 16 <" outmemory[15:0] $end
$var reg 1 =" reset $end
$comment memory1024 is not handled $end
$upscope $end
$upscope $end
$upscope $end
$enddefinitions $end
#0
0!
1"
U#
bUUUUUUUUUUUUUUUU $
bUUUUUUUUUUUUUUUU %
bUUUUUUUUUUUUUUUU &
b0000000000000000 '
bUUUU (
b0000000000000000 )
0*
U+
bUUUUUUUUUUUUUUUU ,
bUUUUUUUUUUUUUUUU -
bUUUUUUUUUUUUUUUU .
b0000000000000000 /
bUUUU 0
b0000000000000000 1
12
03
14
U5
bUUUUUUUUUUUUUUUU 6
bUUUUUUUUUUUUUUUU 7
bUUUU 8
b0000000000000000 9
b0000000000000000 :
0;
0<
0=
b0000000000000000 >
b0000000000000000 ?
b0000000000000000 @
b0000000000000000 A
b0000000000000000 B
b0000 C
b0000000000000000 D
b0000000000000000 E
0F
b0000000000 G
b0000000000000000 H
b0000000000000000 I
b0000000000000000 J
b0000000000000000 K
b0000000000000000 L
0M
0N
0O
0P
0Q
0R
b0000 S
b0000 T
b0000 U
0V
0W
0X
b0000000000000000 Y
b0000000000000000 Z
b0000000000000000 [
b0000000000000000 \
b0000000000000000 ]
b0000000000000000 ^
bUUUU _
b0000000000000000 `
1a
0b
b0000 c
b0000000000000000 d
b0000000000000000 e
0f
b0000000000 g
b0000000000000000 h
1i
b0000 j
0k
0l
b0000 m
0n
0o
0p
0q
0r
1s
b00000000 t
b0000000000000000 u
1v
b0000000000000001 w
b0000000000000000 x
b0000000000000000 y
0z
1{
b00000000000000000 |
b0000000000000000 }
b0000000000000000 !"
b0000000000000000 ""
0#"
1$"
b00000000000000000 %"
b0000000000000000 &"
b0000000000000000 '"
0("
b0000000000000000 )"
b0000000000000000 *"
b0000000000000000 +"
0,"
b0000000000000000 -"
b0000000000000000 ."
b0000000000000000 /"
00"
b0000000000000000 1"
02"
b0000000000000000 3"
U4"
bUUUUUUUUUUUUUUUU 5"
b0000000000000000 6"
17"
b0000000000 8"
b0000000000000000 9"
0:"
0;"
b0000000000000000 <"
1="
#5000000
1!
1*
13
1R
1b
12"
#10000000
0!
0"
b0000000000000000 &
b0010011000000011 '
b1000 (
0*
b0000000000000000 .
b0010011000000011 /
b1000 0
02
03
04
b1000 8
b0010011000000011 :
1;
1<
b0000000000000001 ?
b0010 C
b0000000000000011 J
b0000000000000011 K
b0000000000000001 L
XN
0R
b0110 S
b0000 T
b0011 U
1V
1W
b0000000000000001 ^
b1000 _
0a
0b
b0010 c
0i
b0010 j
1k
b0010 m
Xp
1q
0s
b00000011 t
b0000000000000011 u
0v
b0000000000000001 y
0z
0{
b00000000000000001 |
b0000000000000011 !"
b0000000000000011 ""
0#"
0$"
b00000000000000011 %"
b0000000000000011 '"
b0000000000000001 *"
b0000000000000011 +"
b0000000000000001 -"
X0"
02"
b0000000000000001 3"
b0010011000000011 6"
07"
0="
#15000000
1!
b0010011100000111 '
1*
b0010011100000111 /
13
b0010011100000111 :
b0000000000000010 ?
b0000000000000001 B
b0000000000000111 J
b0000000000001000 K
b0000000000000010 L
1R
b0111 S
b0111 U
b0000000000000001 ]
b0000000000000010 ^
1b
b00000111 t
b0000000000000111 u
b0000000000000001 x
b0000000000000010 y
0z
b00000000000000010 |
b0000000000000001 }
b0000000000000111 !"
b0000000000001000 ""
0#"
b00000000000001000 %"
b0000000000000111 '"
b0000000000000010 *"
b0000000000001000 +"
b0000000000000010 -"
12"
b0000000000000010 3"
b0010011100000111 6"
#20000000
0!
b0100100001100000 '
0*
b0100100001100000 /
03
b0100100001100000 :
0<
b0000000000000011 >
b0000000000000011 ?
b0000000000000011 @
b0000000000000011 A
b0000000000000010 B
b0100 C
b0000000000000011 D
b0000000000000000 E
b0000000000000011 H
b0000000000000011 I
b0000000001100000 J
b0000000001100010 K
b0000000000000011 L
0N
0R
b1000 S
b0110 T
b0000 U
0W
b0000000000000011 Y
b0000000000000011 Z
b0000000000000000 [
b0000000000000011 \
b0000000000000010 ]
b0000000000000011 ^
0b
b0100 c
b0000000000000011 d
b0000000000000000 e
b0000000000000011 h
b0100 j
b0100 m
0p
0q
b01100000 t
b0000000001100000 u
b0000000000000010 x
b0000000000000011 y
0z
b00000000000000011 |
b0000000000000010 }
b0000000001100000 !"
b0000000001100010 ""
0#"
b00000000001100010 %"
b0000000000000011 &"
b0000000001100000 '"
b0000000000000011 )"
b0000000000000011 *"
b0000000001100010 +"
b0000000000000011 -"
b0000000000000011 ."
b0000000000000011 /"
00"
b0000000000000011 1"
02"
b0000000000000011 3"
b0100100001100000 6"
b0000000000000011 9"
b0000000000000011 <"
#25000000
1!
b0101010101111000 '
b0000000000000011 )
1*
b0101010101111000 /
b0000000000000011 1
13
b0000000000000011 9
b0101010101111000 :
b0000000000001010 >
b0000000000000100 ?
b0000000000000111 @
b0000000000000111 A
b0000000000000011 B
b0101 C
b0000000000000111 D
b0000000000000011 E
b0000000000001010 H
b0000000000000111 I
b0000000001111000 J
b0000000001111011 K
b0000000000000100 L
1R
b0101 S
b0111 T
b1000 U
b0000000000001010 Y
b0000000000000111 Z
b0000000000000011 [
b0000000000000111 \
b0000000000000011 ]
b0000000000000100 ^
b0000000000000011 `
1b
b0101 c
b0000000000000111 d
b0000000000000011 e
b0000000000001010 h
b0101 j
b0101 m
b01111000 t
b0000000001111000 u
b0000000000000011 x
b0000000000000100 y
0z
b00000000000000100 |
b0000000000000011 }
b0000000001111000 !"
b0000000001111011 ""
0#"
b00000000001111011 %"
b0000000000000111 &"
b0000000001111000 '"
b0000000000000111 )"
b0000000000000100 *"
b0000000001111011 +"
b0000000000000100 -"
b0000000000001010 ."
b0000000000000111 /"
b0000000000001010 1"
12"
b0000000000000100 3"
b0101010101111000 6"
b0000000000000111 9"
b0000000000000111 <"
#30000000
0!
b0110010001111000 '
0*
b0110010001111000 /
03
b0110010001111000 :
b0000000000000100 >
b0000000000000101 ?
b0000000000000100 B
b0110 C
b0000000000000100 H
b0000000001111100 K
b0000000000000101 L
0R
b0100 S
b0000000000000100 Y
b0000000000000100 ]
b0000000000000101 ^
0b
b0110 c
b0000000000000100 h
b0110 j
b0110 m
b0000000000000100 x
b0000000000000101 y
0z
b00000000000000101 |
b0000000000000100 }
b0000000001111100 ""
0#"
b00000000001111100 %"
b0000000000000101 *"
b0000000001111100 +"
b0000000000000101 -"
b0000000000000100 ."
b0000000000000100 1"
02"
b0000000000000101 3"
b0110010001111000 6"
#35000000
1!
b0111001101011000 '
1*
b0111001101011000 /
13
b0111001101011000 :
b0000000001010000 >
b0000000000000110 ?
b0000000000001010 @
b0000000000001010 A
b0000000000000101 B
b0111 C
b0000000000001010 D
b0000000001010000 H
b0000000000001010 I
b0000000001011000 J
b0000000001011101 K
b0000000000000110 L
1R
b0011 S
b0101 T
b0000000001010000 Y
b0000000000001010 Z
b0000000000001010 \
b0000000000000101 ]
b0000000000000110 ^
1b
b0111 c
b0000000000001010 d
b0000000001010000 h
b0111 j
b0111 m
b01011000 t
b0000000001011000 u
b0000000000000101 x
b0000000000000110 y
0z
b00000000000000110 |
b0000000000000101 }
b0000000001011000 !"
b0000000001011101 ""
0#"
b00000000001011101 %"
b0000000000001010 &"
b0000000001011000 '"
b0000000000001010 )"
b0000000000000110 *"
b0000000001011101 +"
b0000000000000110 -"
b0000000001010000 ."
b0000000000001010 /"
b0000000001010000 1"
12"
b0000000000000110 3"
b0111001101011000 6"
b0000000000001010 9"
b0000000000001010 <"
#40000000
0!
b1000001101011000 '
0*
b1000001101011000 /
03
b1000001101011000 :
b0000000000000001 >
b0000000000000111 ?
b0000000000000110 B
b1000 C
b0000000000000001 H
b0000000001011110 K
b0000000000000111 L
0R
b0000000000000001 Y
b0000000000000110 ]
b0000000000000111 ^
0b
b1000 c
b0000000000000001 h
b1000 j
b1000 m
b0000000000000110 x
b0000000000000111 y
0z
b00000000000000111 |
b0000000000000110 }
b0000000001011110 ""
0#"
b00000000001011110 %"
b0000000000000111 *"
b0000000001011110 +"
b0000000000000111 -"
b0000000000000001 ."
b0000000000000001 1"
02"
b0000000000000111 3"
b1000001101011000 6"
#45000000
1!
b0101010101111000 '
1*
b0101010101111000 /
13
b0101010101111000 :
b0000000000001010 >
b0000000000001000 ?
b0000000000000111 @
b0000000000000111 A
b0000000000000111 B
b0101 C
b0000000000000111 D
b0000000000001010 H
b0000000000000111 I
b0000000001111000 J
b0000000001111111 K
b0000000000001000 L
1R
b0101 S
b0111 T
b0000000000001010 Y
b0000000000000111 Z
b0000000000000111 \
b0000000000000111 ]
b0000000000001000 ^
1b
b0101 c
b0000000000000111 d
b0000000000001010 h
b0101 j
b0101 m
b01111000 t
b0000000001111000 u
b0000000000000111 x
b0000000000001000 y
0z
b00000000000001000 |
b0000000000000111 }
b0000000001111000 !"
b0000000001111111 ""
0#"
b00000000001111111 %"
b0000000000000111 &"
b0000000001111000 '"
b0000000000000111 )"
b0000000000001000 *"
b0000000001111111 +"
b0000000000001000 -"
b0000000000001010 ."
b0000000000000111 /"
b0000000000001010 1"
12"
b0000000000001000 3"
b0101010101111000 6"
b0000000000000111 9"
b0000000000000111 <"
#50000000
0!
0*
03
b0000000000001001 ?
b0000000000001000 B
b0000000010000000 K
b0000000000001001 L
0R
b0000000000001000 ]
b0000000000001001 ^
0b
b0000000000001000 x
b0000000000001001 y
0z
b00000000000001001 |
b0000000000001000 }
b0000000010000000 ""
0#"
b00000000010000000 %"
b0000000000001001 *"
b0000000010000000 +"
b0000000000001001 -"
02"
b0000000000001001 3"
#55000000
1!
1*
13
b0000000000001010 ?
b0000000000001001 B
b0000000010000001 K
b0000000000001010 L
1R
b0000000000001001 ]
b0000000000001010 ^
1b
b0000000000001001 x
b0000000000001010 y
0z
b00000000000001010 |
b0000000000001001 }
b0000000010000001 ""
0#"
b00000000010000001 %"
b0000000000001010 *"
b0000000010000001 +"
b0000000000001010 -"
12"
b0000000000001010 3"
#60000000
0!
b0000 (
b0000000000000000 )
0*
b0000 0
b0000000000000000 1
03
b0000 8
b0000000000000000 9
b0000000000001011 ?
b0000000000001010 B
b0000000010000010 K
b0000000000001011 L
0R
b0000000000001010 ]
b0000000000001011 ^
b0000 _
b0000000000000000 `
0b
b0000000000001010 x
b0000000000001011 y
0z
b00000000000001011 |
b0000000000001010 }
b0000000010000010 ""
0#"
b00000000010000010 %"
b0000000000001011 *"
b0000000010000010 +"
b0000000000001011 -"
02"
b0000000000001011 3"
#65000000
1!
1*
13
b0000000000001100 ?
b0000000000001011 B
b0000000010000011 K
b0000000000001100 L
1R
b0000000000001011 ]
b0000000000001100 ^
1b
b0000000000001011 x
b0000000000001100 y
0z
b00000000000001100 |
b0000000000001011 }
b0000000010000011 ""
0#"
b00000000010000011 %"
b0000000000001100 *"
b0000000010000011 +"
b0000000000001100 -"
12"
b0000000000001100 3"
#70000000
0!
b0001 (
0*
b0001 0
03
b0001 8
b0000000000001101 ?
b0000000000001100 B
b0000000010000100 K
b0000000000001101 L
0R
b0000000000001100 ]
b0000000000001101 ^
b0001 _
0b
b0000000000001100 x
b0000000000001101 y
0z
b00000000000001101 |
b0000000000001100 }
b0000000010000100 ""
0#"
b00000000010000100 %"
b0000000000001101 *"
b0000000010000100 +"
b0000000000001101 -"
02"
b0000000000001101 3"
#75000000
1!
1*
13
b0000000000001110 ?
b0000000000001101 B
b0000000010000101 K
b0000000000001110 L
1R
b0000000000001101 ]
b0000000000001110 ^
1b
b0000000000001101 x
b0000000000001110 y
0z
b00000000000001110 |
b0000000000001101 }
b0000000010000101 ""
0#"
b00000000010000101 %"
b0000000000001110 *"
b0000000010000101 +"
b0000000000001110 -"
12"
b0000000000001110 3"
#80000000
0!
b0010 (
0*
b0010 0
03
b0010 8
b0000000000001111 ?
b0000000000001110 B
b0000000010000110 K
b0000000000001111 L
0R
b0000000000001110 ]
b0000000000001111 ^
b0010 _
0b
b0000000000001110 x
b0000000000001111 y
0z
b00000000000001111 |
b0000000000001110 }
b0000000010000110 ""
0#"
b00000000010000110 %"
b0000000000001111 *"
b0000000010000110 +"
b0000000000001111 -"
02"
b0000000000001111 3"
#85000000
1!
1*
13
b0000000000010000 ?
b0000000000001111 B
b0000000010000111 K
b0000000000010000 L
1R
b0000000000001111 ]
b0000000000010000 ^
1b
b0000000000001111 x
b0000000000010000 y
0z
b00000000000010000 |
b0000000000001111 }
b0000000010000111 ""
0#"
b00000000010000111 %"
b0000000000010000 *"
b0000000010000111 +"
b0000000000010000 -"
12"
b0000000000010000 3"
#90000000
0!
b0011 (
b0000000000000001 )
0*
b0011 0
b0000000000000001 1
03
b0011 8
b0000000000000001 9
b0000000000010001 ?
b0000000000010000 B
b0000000010001000 K
b0000000000010001 L
0R
b0000000000010000 ]
b0000000000010001 ^
b0011 _
b0000000000000001 `
0b
b0000000000010000 x
b0000000000010001 y
0z
b00000000000010001 |
b0000000000010000 }
b0000000010001000 ""
0#"
b00000000010001000 %"
b0000000000010001 *"
b0000000010001000 +"
b0000000000010001 -"
02"
b0000000000010001 3"
#95000000
1!
1*
13
b0000000000010010 ?
b0000000000010001 B
b0000000010001001 K
b0000000000010010 L
1R
b0000000000010001 ]
b0000000000010010 ^
1b
b0000000000010001 x
b0000000000010010 y
0z
b00000000000010010 |
b0000000000010001 }
b0000000010001001 ""
0#"
b00000000010001001 %"
b0000000000010010 *"
b0000000010001001 +"
b0000000000010010 -"
12"
b0000000000010010 3"
#100000000
0!
b0100 (
b0000000000000100 )
0*
b0100 0
b0000000000000100 1
03
b0100 8
b0000000000000100 9
b0000000000010011 ?
b0000000000010010 B
b0000000010001010 K
b0000000000010011 L
0R
b0000000000010010 ]
b0000000000010011 ^
b0100 _
b0000000000000100 `
0b
b0000000000010010 x
b0000000000010011 y
0z
b00000000000010011 |
b0000000000010010 }
b0000000010001010 ""
0#"
b00000000010001010 %"
b0000000000010011 *"
b0000000010001010 +"
b0000000000010011 -"
02"
b0000000000010011 3"
#105000000
1!
1*
13
b0000000000010100 ?
b0000000000010011 B
b0000000010001011 K
b0000000000010100 L
1R
b0000000000010011 ]
b0000000000010100 ^
1b
b0000000000010011 x
b0000000000010100 y
0z
b00000000000010100 |
b0000000000010011 }
b0000000010001011 ""
0#"
b00000000010001011 %"
b0000000000010100 *"
b0000000010001011 +"
b0000000000010100 -"
12"
b0000000000010100 3"
#110000000
0!
b0101 (
b0000000000001010 )
0*
b0101 0
b0000000000001010 1
03
b0101 8
b0000000000001010 9
b0000000000010101 ?
b0000000000010100 B
b0000000010001100 K
b0000000000010101 L
0R
b0000000000010100 ]
b0000000000010101 ^
b0101 _
b0000000000001010 `
0b
b0000000000010100 x
b0000000000010101 y
0z
b00000000000010101 |
b0000000000010100 }
b0000000010001100 ""
0#"
b00000000010001100 %"
b0000000000010101 *"
b0000000010001100 +"
b0000000000010101 -"
02"
b0000000000010101 3"
#115000000
1!
1*
13
b0000000000010110 ?
b0000000000010101 B
b0000000010001101 K
b0000000000010110 L
1R
b0000000000010101 ]
b0000000000010110 ^
1b
b0000000000010101 x
b0000000000010110 y
0z
b00000000000010110 |
b0000000000010101 }
b0000000010001101 ""
0#"
b00000000010001101 %"
b0000000000010110 *"
b0000000010001101 +"
b0000000000010110 -"
12"
b0000000000010110 3"
#120000000
0!
b0110 (
b0000000000000011 )
0*
b0110 0
b0000000000000011 1
03
b0110 8
b0000000000000011 9
b0000000000010111 ?
b0000000000010110 B
b0000000010001110 K
b0000000000010111 L
0R
b0000000000010110 ]
b0000000000010111 ^
b0110 _
b0000000000000011 `
0b
b0000000000010110 x
b0000000000010111 y
0z
b00000000000010111 |
b0000000000010110 }
b0000000010001110 ""
0#"
b00000000010001110 %"
b0000000000010111 *"
b0000000010001110 +"
b0000000000010111 -"
02"
b0000000000010111 3"
#125000000
1!
1*
13
b0000000000011000 ?
b0000000000010111 B
b0000000010001111 K
b0000000000011000 L
1R
b0000000000010111 ]
b0000000000011000 ^
1b
b0000000000010111 x
b0000000000011000 y
0z
b00000000000011000 |
b0000000000010111 }
b0000000010001111 ""
0#"
b00000000010001111 %"
b0000000000011000 *"
b0000000010001111 +"
b0000000000011000 -"
12"
b0000000000011000 3"
#130000000
0!
b0111 (
b0000000000000111 )
0*
b0111 0
b0000000000000111 1
03
b0111 8
b0000000000000111 9
b0000000000011001 ?
b0000000000011000 B
b0000000010010000 K
b0000000000011001 L
0R
b0000000000011000 ]
b0000000000011001 ^
b0111 _
b0000000000000111 `
0b
b0000000000011000 x
b0000000000011001 y
0z
b00000000000011001 |
b0000000000011000 }
b0000000010010000 ""
0#"
b00000000010010000 %"
b0000000000011001 *"
b0000000010010000 +"
b0000000000011001 -"
02"
b0000000000011001 3"
#135000000
1!
1*
13
b0000000000011010 ?
b0000000000011001 B
b0000000010010001 K
b0000000000011010 L
1R
b0000000000011001 ]
b0000000000011010 ^
1b
b0000000000011001 x
b0000000000011010 y
0z
b00000000000011010 |
b0000000000011001 }
b0000000010010001 ""
0#"
b00000000010010001 %"
b0000000000011010 *"
b0000000010010001 +"
b0000000000011010 -"
12"
b0000000000011010 3"
#140000000
0!
b1000 (
b0000000000000011 )
0*
b1000 0
b0000000000000011 1
03
b1000 8
b0000000000000011 9
b0000000000011011 ?
b0000000000011010 B
b0000000010010010 K
b0000000000011011 L
0R
b0000000000011010 ]
b0000000000011011 ^
b1000 _
b0000000000000011 `
0b
b0000000000011010 x
b0000000000011011 y
0z
b00000000000011011 |
b0000000000011010 }
b0000000010010010 ""
0#"
b00000000010010010 %"
b0000000000011011 *"
b0000000010010010 +"
b0000000000011011 -"
02"
b0000000000011011 3"
#145000000
1!
1*
13
b0000000000011100 ?
b0000000000011011 B
b0000000010010011 K
b0000000000011100 L
1R
b0000000000011011 ]
b0000000000011100 ^
1b
b0000000000011011 x
b0000000000011100 y
0z
b00000000000011100 |
b0000000000011011 }
b0000000010010011 ""
0#"
b00000000010010011 %"
b0000000000011100 *"
b0000000010010011 +"
b0000000000011100 -"
12"
b0000000000011100 3"
#150000000
0!
b1001 (
b0000000000000000 )
0*
b1001 0
b0000000000000000 1
03
b1001 8
b0000000000000000 9
b0000000000011101 ?
b0000000000011100 B
b0000000010010100 K
b0000000000011101 L
0R
b0000000000011100 ]
b0000000000011101 ^
b1001 _
b0000000000000000 `
0b
b0000000000011100 x
b0000000000011101 y
0z
b00000000000011101 |
b0000000000011100 }
b0000000010010100 ""
0#"
b00000000010010100 %"
b0000000000011101 *"
b0000000010010100 +"
b0000000000011101 -"
02"
b0000000000011101 3"
#155000000
1!
1*
13
b0000000000011110 ?
b0000000000011101 B
b0000000010010101 K
b0000000000011110 L
1R
b0000000000011101 ]
b0000000000011110 ^
1b
b0000000000011101 x
b0000000000011110 y
0z
b00000000000011110 |
b0000000000011101 }
b0000000010010101 ""
0#"
b00000000010010101 %"
b0000000000011110 *"
b0000000010010101 +"
b0000000000011110 -"
12"
b0000000000011110 3"
#160000000
0!
b1010 (
0*
b1010 0
03
b1010 8
b0000000000011111 ?
b0000000000011110 B
b0000000010010110 K
b0000000000011111 L
0R
b0000000000011110 ]
b0000000000011111 ^
b1010 _
0b
b0000000000011110 x
b0000000000011111 y
0z
b00000000000011111 |
b0000000000011110 }
b0000000010010110 ""
0#"
b00000000010010110 %"
b0000000000011111 *"
b0000000010010110 +"
b0000000000011111 -"
02"
b0000000000011111 3"
#165000000
1!
1*
13
b0000000000100000 ?
b0000000000011111 B
b0000000010010111 K
b0000000000100000 L
1R
b0000000000011111 ]
b0000000000100000 ^
1b
b0000000000011111 x
b0000000000100000 y
0z
b00000000000100000 |
b0000000000011111 }
b0000000010010111 ""
0#"
b00000000010010111 %"
b0000000000100000 *"
b0000000010010111 +"
b0000000000100000 -"
12"
b0000000000100000 3"
#170000000
0!
b1011 (
0*
b1011 0
03
b1011 8
b0000000000100001 ?
b0000000000100000 B
b0000000010011000 K
b0000000000100001 L
0R
b0000000000100000 ]
b0000000000100001 ^
b1011 _
0b
b0000000000100000 x
b0000000000100001 y
0z
b00000000000100001 |
b0000000000100000 }
b0000000010011000 ""
0#"
b00000000010011000 %"
b0000000000100001 *"
b0000000010011000 +"
b0000000000100001 -"
02"
b0000000000100001 3"
#175000000
1!
1*
13
b0000000000100010 ?
b0000000000100001 B
b0000000010011001 K
b0000000000100010 L
1R
b0000000000100001 ]
b0000000000100010 ^
1b
b0000000000100001 x
b0000000000100010 y
0z
b00000000000100010 |
b0000000000100001 }
b0000000010011001 ""
0#"
b00000000010011001 %"
b0000000000100010 *"
b0000000010011001 +"
b0000000000100010 -"
12"
b0000000000100010 3"
#180000000
0!
b1100 (
0*
b1100 0
03
b1100 8
b0000000000100011 ?
b0000000000100010 B
b0000000010011010 K
b0000000000100011 L
0R
b0000000000100010 ]
b0000000000100011 ^
b1100 _
0b
b0000000000100010 x
b0000000000100011 y
0z
b00000000000100011 |
b0000000000100010 }
b0000000010011010 ""
0#"
b00000000010011010 %"
b0000000000100011 *"
b0000000010011010 +"
b0000000000100011 -"
02"
b0000000000100011 3"
#185000000
1!
1*
13
b0000000000100100 ?
b0000000000100011 B
b0000000010011011 K
b0000000000100100 L
1R
b0000000000100011 ]
b0000000000100100 ^
1b
b0000000000100011 x
b0000000000100100 y
0z
b00000000000100100 |
b0000000000100011 }
b0000000010011011 ""
0#"
b00000000010011011 %"
b0000000000100100 *"
b0000000010011011 +"
b0000000000100100 -"
12"
b0000000000100100 3"
#190000000
0!
b1101 (
0*
b1101 0
03
b1101 8
b0000000000100101 ?
b0000000000100100 B
b0000000010011100 K
b0000000000100101 L
0R
b0000000000100100 ]
b0000000000100101 ^
b1101 _
0b
b0000000000100100 x
b0000000000100101 y
0z
b00000000000100101 |
b0000000000100100 }
b0000000010011100 ""
0#"
b00000000010011100 %"
b0000000000100101 *"
b0000000010011100 +"
b0000000000100101 -"
02"
b0000000000100101 3"
#195000000
1!
1*
13
b0000000000100110 ?
b0000000000100101 B
b0000000010011101 K
b0000000000100110 L
1R
b0000000000100101 ]
b0000000000100110 ^
1b
b0000000000100101 x
b0000000000100110 y
0z
b00000000000100110 |
b0000000000100101 }
b0000000010011101 ""
0#"
b00000000010011101 %"
b0000000000100110 *"
b0000000010011101 +"
b0000000000100110 -"
12"
b0000000000100110 3"
#200000000
0!
b1110 (
0*
b1110 0
03
b1110 8
b0000000000100111 ?
b0000000000100110 B
b0000000010011110 K
b0000000000100111 L
0R
b0000000000100110 ]
b0000000000100111 ^
b1110 _
0b
b0000000000100110 x
b0000000000100111 y
0z
b00000000000100111 |
b0000000000100110 }
b0000000010011110 ""
0#"
b00000000010011110 %"
b0000000000100111 *"
b0000000010011110 +"
b0000000000100111 -"
02"
b0000000000100111 3"
#205000000
1!
1*
13
b0000000000101000 ?
b0000000000100111 B
b0000000010011111 K
b0000000000101000 L
1R
b0000000000100111 ]
b0000000000101000 ^
1b
b0000000000100111 x
b0000000000101000 y
0z
b00000000000101000 |
b0000000000100111 }
b0000000010011111 ""
0#"
b00000000010011111 %"
b0000000000101000 *"
b0000000010011111 +"
b0000000000101000 -"
12"
b0000000000101000 3"
#210000000
0!
b1111 (
b0000000000101000 )
0*
b1111 0
b0000000000101000 1
03
b1111 8
b0000000000101000 9
b0000000000101001 ?
b0000000000101000 B
b0000000010100000 K
b0000000000101001 L
0R
b0000000000101000 ]
b0000000000101001 ^
b1111 _
b0000000000101000 `
0b
b0000000000101000 x
b0000000000101001 y
0z
b00000000000101001 |
b0000000000101000 }
b0000000010100000 ""
0#"
b00000000010100000 %"
b0000000000101001 *"
b0000000010100000 +"
b0000000000101001 -"
02"
b0000000000101001 3"
#215000000
1!
b0000000000101001 )
1*
b0000000000101001 1
13
b0000000000101001 9
b0000000000101010 ?
b0000000000101001 B
b0000000010100001 K
b0000000000101010 L
1R
b0000000000101001 ]
b0000000000101010 ^
b0000000000101001 `
1b
b0000000000101001 x
b0000000000101010 y
0z
b00000000000101010 |
b0000000000101001 }
b0000000010100001 ""
0#"
b00000000010100001 %"
b0000000000101010 *"
b0000000010100001 +"
b0000000000101010 -"
12"
b0000000000101010 3"
