top.vcd
$date
  Wed Apr  8 10:44:48 2020
$end
$version
  GHDL v0
$end
$timescale
  1 fs
$end
$scope module standard $end
$upscope $end
$scope module std_logic_1164 $end
$upscope $end
$scope module numeric_std $end
$upscope $end
$scope module t_top $end
$var reg 1 ! clk_t $end
$var reg 1 " reset_t $end
$var reg 1 # instructionwriteenable_t $end
$var reg 16 $ instructionwriteaddr_t[15:0] $end
$var reg 16 % instructionwritedata_t[15:0] $end
$var reg 16 & startpc_t[15:0] $end
$var reg 16 ' instructionout_t[15:0] $end
$var reg 4 ( inr_t[3:0] $end
$var reg 16 ) outr_t[15:0] $end
$scope module test $end
$var reg 1 * clk $end
$var reg 1 + instructionwriteenable $end
$var reg 16 , instructionwriteaddr[15:0] $end
$var reg 16 - instructionwritedata[15:0] $end
$var reg 16 . startpc[15:0] $end
$var reg 16 / instructionout[15:0] $end
$var reg 4 0 inr[3:0] $end
$var reg 16 1 outr[15:0] $end
$var reg 1 2 reset $end
$var reg 1 3 clk_t $end
$var reg 1 4 reset_t $end
$var reg 1 5 andbranch_t $end
$var reg 16 6 pc_t[15:0] $end
$var reg 1 7 instructionwriteenable_t $end
$var reg 16 8 instructionwriteaddr_t[15:0] $end
$var reg 16 9 instructionwritedata_t[15:0] $end
$var reg 4 : inr_t[3:0] $end
$var reg 16 ; outr_t[15:0] $end
$var reg 16 < instruction_t[15:0] $end
$var reg 1 = cregwrite_t $end
$var reg 1 > cldi_t $end
$var reg 1 ? cjalr_t $end
$var reg 16 @ writeinput_t[15:0] $end
$var reg 16 A pcinput_t[15:0] $end
$var reg 16 B r1tooffsetmux_t[15:0] $end
$var reg 16 C registertomemory_t[15:0] $end
$var reg 16 D pcoutput_t[15:0] $end
$var reg 4 E caluop_t[3:0] $end
$var reg 16 F a_t[15:0] $end
$var reg 16 G b_t[15:0] $end
$var reg 1 H isbranch_t $end
$var reg 10 I alutomemory_t[9:0] $end
$var reg 16 J alutoregmux_t[15:0] $end
$var reg 16 K outmemory_t[15:0] $end
$var reg 16 L signextension_t[15:0] $end
$var reg 16 M branchadderoutput_t[15:0] $end
$var reg 16 N incrementadderoutput_t[15:0] $end
$var reg 1 O coffset_t $end
$var reg 1 P cmemtoreg_t $end
$var reg 1 Q cmemwrite_t $end
$var reg 1 R cmemread_t $end
$var reg 1 S cisbranch_t $end
$var reg 1 T carry_t $end
$scope module rf $end
$var reg 1 U clk $end
$var reg 4 V rd[11:8] $end
$var reg 4 W r1[7:4] $end
$var reg 4 X r2[3:0] $end
$var reg 1 Y cregwrite $end
$var reg 1 Z cldi $end
$var reg 1 [ cjalr $end
$var reg 16 \ writeinput[15:0] $end
$var reg 16 ] outr1tooffsetmux[15:0] $end
$var reg 16 ^ outr2toalu[15:0] $end
$var reg 16 _ tomemory[15:0] $end
$var reg 4 ` inr[3:0] $end
$var reg 16 a outr[15:0] $end
$var reg 1 b reset $end
$comment register16 is not handled $end
$upscope $end
$scope module arithmetic $end
$var reg 1 c clk $end
$var reg 4 d aluop[3:0] $end
$var reg 16 e a[15:0] $end
$var reg 16 f b[15:0] $end
$var reg 1 g isbranch $end
$var reg 10 h outtomemory[9:0] $end
$var reg 16 i outtoregmux[15:0] $end
$var reg 1 j reset $end
$upscope $end
$scope module control $end
$var reg 1 k clk $end
$var reg 4 l opcode[15:12] $end
$var reg 1 m cregwrite $end
$var reg 1 n coffset $end
$var reg 4 o caluop[3:0] $end
$var reg 1 p cmemwrite $end
$var reg 1 q cmemread $end
$var reg 1 r cmemtoreg $end
$var reg 1 s cldi $end
$var reg 1 t cjalr $end
$var reg 1 u cisbranch $end
$var reg 1 v reset $end
$upscope $end
$scope module sign $end
$var reg 8 w input[7:0] $end
$var reg 16 x output[15:0] $end
$var reg 1 y reset $end
$upscope $end
$scope module incrementadder $end
$var reg 16 z a[15:0] $end
$var reg 16 { b[15:0] $end
$var reg 16 | sum[15:0] $end
$var reg 1 } cout $end
$var reg 1 !" reset $end
$var reg 17 "" result[16:0] $end
$upscope $end
$scope module branchadder $end
$var reg 16 #" a[15:0] $end
$var reg 16 $" b[15:0] $end
$var reg 16 %" sum[15:0] $end
$var reg 1 &" cout $end
$var reg 1 '" reset $end
$var reg 17 (" result[16:0] $end
$upscope $end
$scope module offsetmux $end
$var reg 16 )" a1[15:0] $end
$var reg 16 *" a2[15:0] $end
$var reg 1 +" sel $end
$var reg 16 ," b[15:0] $end
$upscope $end
$scope module pcmux $end
$var reg 16 -" a1[15:0] $end
$var reg 16 ." a2[15:0] $end
$var reg 1 /" sel $end
$var reg 16 0" b[15:0] $end
$upscope $end
$scope module regmux $end
$var reg 16 1" a1[15:0] $end
$var reg 16 2" a2[15:0] $end
$var reg 1 3" sel $end
$var reg 16 4" b[15:0] $end
$upscope $end
$scope module instruction $end
$var reg 1 5" clk $end
$var reg 16 6" pc[15:0] $end
$var reg 1 7" writeenable $end
$var reg 16 8" writedata[15:0] $end
$var reg 16 9" outinstruction[15:0] $end
$var reg 1 :" reset $end
$comment instruction65536 is not handled $end
$upscope $end
$scope module disk $end
$var reg 10 ;" addr[9:0] $end
$var reg 16 <" din[15:0] $end
$var reg 1 =" cmemwrite $end
$var reg 1 >" cmemread $end
$var reg 16 ?" outmemory[15:0] $end
$var reg 1 @" reset $end
$comment memory1024 is not handled $end
$upscope $end
$upscope $end
$upscope $end
$enddefinitions $end
#0
0!
1"
U#
bUUUUUUUUUUUUUUUU $
bUUUUUUUUUUUUUUUU %
bUUUUUUUUUUUUUUUU &
b0000000000000000 '
bUUUU (
b0000000000000000 )
0*
U+
bUUUUUUUUUUUUUUUU ,
bUUUUUUUUUUUUUUUU -
bUUUUUUUUUUUUUUUU .
b0000000000000000 /
bUUUU 0
b0000000000000000 1
12
03
14
05
b0000000000000000 6
U7
bUUUUUUUUUUUUUUUU 8
bUUUUUUUUUUUUUUUU 9
bUUUU :
b0000000000000000 ;
b0000000000000000 <
0=
0>
0?
b0000000000000000 @
b0000000000000000 A
b0000000000000000 B
b0000000000000000 C
bUUUUUUUUUUUUUUUU D
b0000 E
b0000000000000000 F
b0000000000000000 G
0H
b0000000000 I
b0000000000000000 J
b0000000000000000 K
b0000000000000000 L
b0000000000000000 M
b0000000000000000 N
0O
0P
0Q
0R
0S
0T
0U
b0000 V
b0000 W
b0000 X
0Y
0Z
0[
b0000000000000000 \
b0000000000000000 ]
b0000000000000000 ^
b0000000000000000 _
bUUUU `
b0000000000000000 a
1b
0c
b0000 d
b0000000000000000 e
b0000000000000000 f
0g
b0000000000 h
b0000000000000000 i
1j
0k
b0000 l
0m
0n
b0000 o
0p
0q
0r
0s
0t
0u
1v
b00000000 w
b0000000000000000 x
1y
b0000000000000001 z
b0000000000000000 {
b0000000000000000 |
0}
1!"
b00000000000000000 ""
b0000000000000000 #"
b0000000000000000 $"
b0000000000000000 %"
0&"
1'"
b00000000000000000 ("
b0000000000000000 )"
b0000000000000000 *"
0+"
b0000000000000000 ,"
b0000000000000000 -"
b0000000000000000 ."
0/"
b0000000000000000 0"
b0000000000000000 1"
b0000000000000000 2"
03"
b0000000000000000 4"
05"
b0000000000000000 6"
U7"
bUUUUUUUUUUUUUUUU 8"
b0000000000000000 9"
1:"
b0000000000 ;"
b0000000000000000 <"
0="
0>"
b0000000000000000 ?"
1@"
#5000000
1!
1*
13
1U
1c
1k
15"
#10000000
0!
0"
b0000000000000000 &
b0101010101111000 '
b0000 (
0*
b0000000000000000 .
b0101010101111000 /
b0000 0
02
03
04
bXXXXXXXXXXXXXXXX 6
b0000 :
b0101010101111000 <
b0000000001111000 L
bXXXXXXXXXXXXXXXX M
bXXXXXXXXXXXXXXXX N
XT
0U
b0101 V
b0111 W
b1000 X
b0000 `
0b
0c
0j
0k
b0101 l
0v
b01111000 w
b0000000001111000 x
0y
bXXXXXXXXXXXXXXXX {
bXXXXXXXXXXXXXXXX |
X}
0!"
bXXXXXXXXXXXXXXXXX ""
bXXXXXXXXXXXXXXXX #"
b0000000001111000 $"
bXXXXXXXXXXXXXXXX %"
X&"
0'"
bXXXXXXXXXXXXXXXXX ("
b0000000001111000 *"
bXXXXXXXXXXXXXXXX -"
bXXXXXXXXXXXXXXXX ."
bXXXXXXXXXXXXXXXX 0"
05"
bXXXXXXXXXXXXXXXX 6"
b0101010101111000 9"
0:"
0@"
#15000000
1!
1*
13
1=
b0101 E
1U
1Y
1c
b0101 d
1k
1m
b0101 o
15"
#20000000
0!
b0001 (
0*
b0001 0
03
b0001 :
0U
b0001 `
0c
0k
bXXXXXXXXXXXXXXXX 0"
05"
#25000000
1!
1*
13
1U
1c
1k
15"
#30000000
0!
b0010 (
0*
b0010 0
03
b0010 :
0U
b0010 `
0c
0k
bXXXXXXXXXXXXXXXX 0"
05"
#35000000
1!
1*
13
1U
1c
1k
15"
#40000000
0!
b0011 (
0*
b0011 0
03
b0011 :
0U
b0011 `
0c
0k
bXXXXXXXXXXXXXXXX 0"
05"
#45000000
1!
1*
13
1U
1c
1k
15"
#50000000
0!
b0100 (
0*
b0100 0
03
b0100 :
0U
b0100 `
0c
0k
bXXXXXXXXXXXXXXXX 0"
05"
#55000000
1!
1*
13
1U
1c
1k
15"
#60000000
0!
b0101 (
0*
b0101 0
03
b0101 :
0U
b0101 `
0c
0k
bXXXXXXXXXXXXXXXX 0"
05"
#65000000
1!
1*
13
1U
1c
1k
15"
#70000000
0!
b0110 (
0*
b0110 0
03
b0110 :
0U
b0110 `
0c
0k
bXXXXXXXXXXXXXXXX 0"
05"
#75000000
1!
1*
13
1U
1c
1k
15"
#80000000
0!
b0111 (
0*
b0111 0
03
b0111 :
0U
b0111 `
0c
0k
bXXXXXXXXXXXXXXXX 0"
05"
#85000000
1!
1*
13
1U
1c
1k
15"
#90000000
0!
b1000 (
0*
b1000 0
03
b1000 :
0U
b1000 `
0c
0k
bXXXXXXXXXXXXXXXX 0"
05"
#95000000
1!
1*
13
1U
1c
1k
15"
#100000000
0!
b1001 (
0*
b1001 0
03
b1001 :
0U
b1001 `
0c
0k
bXXXXXXXXXXXXXXXX 0"
05"
#105000000
1!
1*
13
1U
1c
1k
15"
#110000000
0!
b1010 (
0*
b1010 0
03
b1010 :
0U
b1010 `
0c
0k
bXXXXXXXXXXXXXXXX 0"
05"
#115000000
1!
1*
13
1U
1c
1k
15"
#120000000
0!
b1011 (
0*
b1011 0
03
b1011 :
0U
b1011 `
0c
0k
bXXXXXXXXXXXXXXXX 0"
05"
#125000000
1!
1*
13
1U
1c
1k
15"
#130000000
0!
b1100 (
0*
b1100 0
03
b1100 :
0U
b1100 `
0c
0k
bXXXXXXXXXXXXXXXX 0"
05"
#135000000
1!
1*
13
1U
1c
1k
15"
#140000000
0!
b1101 (
0*
b1101 0
03
b1101 :
0U
b1101 `
0c
0k
bXXXXXXXXXXXXXXXX 0"
05"
#145000000
1!
1*
13
1U
1c
1k
15"
#150000000
0!
b1110 (
0*
b1110 0
03
b1110 :
0U
b1110 `
0c
0k
bXXXXXXXXXXXXXXXX 0"
05"
#155000000
1!
1*
13
1U
1c
1k
15"
#160000000
0!
b1111 (
0*
b1111 0
03
b1111 :
0U
b1111 `
0c
0k
bXXXXXXXXXXXXXXXX 0"
05"
#165000000
1!
1*
13
1U
1c
1k
15"
#170000000
0!
b0000 (
0*
b0000 0
03
b0000 :
0U
b0000 `
0c
0k
bXXXXXXXXXXXXXXXX 0"
05"
#175000000
1!
1*
13
1U
1c
1k
15"
#180000000
0!
b0001 (
0*
b0001 0
03
b0001 :
0U
b0001 `
0c
0k
bXXXXXXXXXXXXXXXX 0"
05"
#185000000
1!
1*
13
1U
1c
1k
15"
#190000000
0!
b0010 (
0*
b0010 0
03
b0010 :
0U
b0010 `
0c
0k
bXXXXXXXXXXXXXXXX 0"
05"
#195000000
1!
1*
13
1U
1c
1k
15"
#200000000
0!
b0011 (
0*
b0011 0
03
b0011 :
0U
b0011 `
0c
0k
bXXXXXXXXXXXXXXXX 0"
05"
#205000000
1!
1*
13
1U
1c
1k
15"
#210000000
0!
b0100 (
0*
b0100 0
03
b0100 :
0U
b0100 `
0c
0k
bXXXXXXXXXXXXXXXX 0"
05"
#215000000
1!
1*
13
1U
1c
1k
15"
#220000000
0!
b0101 (
0*
b0101 0
03
b0101 :
0U
b0101 `
0c
0k
bXXXXXXXXXXXXXXXX 0"
05"
#225000000
1!
1*
13
1U
1c
1k
15"
#230000000
0!
b0110 (
0*
b0110 0
03
b0110 :
0U
b0110 `
0c
0k
bXXXXXXXXXXXXXXXX 0"
05"
#235000000
1!
1*
13
1U
1c
1k
15"
#240000000
0!
b0111 (
0*
b0111 0
03
b0111 :
0U
b0111 `
0c
0k
bXXXXXXXXXXXXXXXX 0"
05"
#245000000
1!
1*
13
1U
1c
1k
15"
#250000000
0!
b1000 (
0*
b1000 0
03
b1000 :
0U
b1000 `
0c
0k
bXXXXXXXXXXXXXXXX 0"
05"
#255000000
1!
1*
13
1U
1c
1k
15"
#260000000
0!
b1001 (
0*
b1001 0
03
b1001 :
0U
b1001 `
0c
0k
bXXXXXXXXXXXXXXXX 0"
05"
#265000000
1!
1*
13
1U
1c
1k
15"
#270000000
0!
b1010 (
0*
b1010 0
03
b1010 :
0U
b1010 `
0c
0k
bXXXXXXXXXXXXXXXX 0"
05"
#275000000
1!
1*
13
1U
1c
1k
15"
#280000000
0!
b1011 (
0*
b1011 0
03
b1011 :
0U
b1011 `
0c
0k
bXXXXXXXXXXXXXXXX 0"
05"
#285000000
1!
1*
13
1U
1c
1k
15"
#290000000
0!
b1100 (
0*
b1100 0
03
b1100 :
0U
b1100 `
0c
0k
bXXXXXXXXXXXXXXXX 0"
05"
#295000000
1!
1*
13
1U
1c
1k
15"
#300000000
0!
b1101 (
0*
b1101 0
03
b1101 :
0U
b1101 `
0c
0k
bXXXXXXXXXXXXXXXX 0"
05"
#305000000
1!
1*
13
1U
1c
1k
15"
#310000000
0!
b1110 (
0*
b1110 0
03
b1110 :
0U
b1110 `
0c
0k
bXXXXXXXXXXXXXXXX 0"
05"
#315000000
1!
1*
13
1U
1c
1k
15"
#320000000
0!
b1111 (
0*
b1111 0
03
b1111 :
0U
b1111 `
0c
0k
bXXXXXXXXXXXXXXXX 0"
05"
#325000000
1!
1*
13
1U
1c
1k
15"
#330000000
0!
b0000 (
0*
b0000 0
03
b0000 :
0U
b0000 `
0c
0k
bXXXXXXXXXXXXXXXX 0"
05"
#335000000
1!
1*
13
1U
1c
1k
15"
#340000000
0!
b0001 (
0*
b0001 0
03
b0001 :
0U
b0001 `
0c
0k
bXXXXXXXXXXXXXXXX 0"
05"
#345000000
1!
1*
13
1U
1c
1k
15"
#350000000
0!
b0010 (
0*
b0010 0
03
b0010 :
0U
b0010 `
0c
0k
bXXXXXXXXXXXXXXXX 0"
05"
#355000000
1!
1*
13
1U
1c
1k
15"
#360000000
0!
b0011 (
0*
b0011 0
03
b0011 :
0U
b0011 `
0c
0k
bXXXXXXXXXXXXXXXX 0"
05"
#365000000
1!
1*
13
1U
1c
1k
15"
#370000000
0!
b0100 (
0*
b0100 0
03
b0100 :
0U
b0100 `
0c
0k
bXXXXXXXXXXXXXXXX 0"
05"
#375000000
1!
1*
13
1U
1c
1k
15"
#380000000
0!
b0101 (
0*
b0101 0
03
b0101 :
0U
b0101 `
0c
0k
bXXXXXXXXXXXXXXXX 0"
05"
#385000000
1!
1*
13
1U
1c
1k
15"
#390000000
0!
b0110 (
0*
b0110 0
03
b0110 :
0U
b0110 `
0c
0k
bXXXXXXXXXXXXXXXX 0"
05"
#395000000
1!
1*
13
1U
1c
1k
15"
#400000000
0!
b0111 (
0*
b0111 0
03
b0111 :
0U
b0111 `
0c
0k
bXXXXXXXXXXXXXXXX 0"
05"
#405000000
1!
1*
13
1U
1c
1k
15"
#410000000
0!
b1000 (
0*
b1000 0
03
b1000 :
0U
b1000 `
0c
0k
bXXXXXXXXXXXXXXXX 0"
05"
#415000000
1!
1*
13
1U
1c
1k
15"
#420000000
0!
b1001 (
0*
b1001 0
03
b1001 :
0U
b1001 `
0c
0k
bXXXXXXXXXXXXXXXX 0"
05"
#425000000
1!
1*
13
1U
1c
1k
15"
#430000000
0!
b1010 (
0*
b1010 0
03
b1010 :
0U
b1010 `
0c
0k
bXXXXXXXXXXXXXXXX 0"
05"
#435000000
1!
1*
13
1U
1c
1k
15"
#440000000
0!
b1011 (
0*
b1011 0
03
b1011 :
0U
b1011 `
0c
0k
bXXXXXXXXXXXXXXXX 0"
05"
#445000000
1!
1*
13
1U
1c
1k
15"
#450000000
0!
b1100 (
0*
b1100 0
03
b1100 :
0U
b1100 `
0c
0k
bXXXXXXXXXXXXXXXX 0"
05"
#455000000
1!
1*
13
1U
1c
1k
15"
#460000000
0!
b1101 (
0*
b1101 0
03
b1101 :
0U
b1101 `
0c
0k
bXXXXXXXXXXXXXXXX 0"
05"
#465000000
1!
1*
13
1U
1c
1k
15"
#470000000
0!
b1110 (
0*
b1110 0
03
b1110 :
0U
b1110 `
0c
0k
bXXXXXXXXXXXXXXXX 0"
05"
#475000000
1!
1*
13
1U
1c
1k
15"
#480000000
0!
b1111 (
0*
b1111 0
03
b1111 :
0U
b1111 `
0c
0k
bXXXXXXXXXXXXXXXX 0"
05"
#485000000
1!
1*
13
1U
1c
1k
15"
#490000000
0!
b0000 (
0*
b0000 0
03
b0000 :
0U
b0000 `
0c
0k
bXXXXXXXXXXXXXXXX 0"
05"
#495000000
1!
1*
13
1U
1c
1k
15"
#500000000
0!
b0001 (
0*
b0001 0
03
b0001 :
0U
b0001 `
0c
0k
bXXXXXXXXXXXXXXXX 0"
05"
#505000000
1!
1*
13
1U
1c
1k
15"
#510000000
0!
b0010 (
0*
b0010 0
03
b0010 :
0U
b0010 `
0c
0k
bXXXXXXXXXXXXXXXX 0"
05"
#515000000
1!
1*
13
1U
1c
1k
15"
#520000000
0!
b0011 (
0*
b0011 0
03
b0011 :
0U
b0011 `
0c
0k
bXXXXXXXXXXXXXXXX 0"
05"
#525000000
1!
1*
13
1U
1c
1k
15"
#530000000
0!
b0100 (
0*
b0100 0
03
b0100 :
0U
b0100 `
0c
0k
bXXXXXXXXXXXXXXXX 0"
05"
#535000000
1!
1*
13
1U
1c
1k
15"
#540000000
0!
b0101 (
0*
b0101 0
03
b0101 :
0U
b0101 `
0c
0k
bXXXXXXXXXXXXXXXX 0"
05"
#545000000
1!
1*
13
1U
1c
1k
15"
#550000000
0!
b0110 (
0*
b0110 0
03
b0110 :
0U
b0110 `
0c
0k
bXXXXXXXXXXXXXXXX 0"
05"
#555000000
1!
1*
13
1U
1c
1k
15"
#560000000
0!
b0111 (
0*
b0111 0
03
b0111 :
0U
b0111 `
0c
0k
bXXXXXXXXXXXXXXXX 0"
05"
#565000000
1!
1*
13
1U
1c
1k
15"
#570000000
0!
b1000 (
0*
b1000 0
03
b1000 :
0U
b1000 `
0c
0k
bXXXXXXXXXXXXXXXX 0"
05"
#575000000
1!
1*
13
1U
1c
1k
15"
#580000000
0!
b1001 (
0*
b1001 0
03
b1001 :
0U
b1001 `
0c
0k
bXXXXXXXXXXXXXXXX 0"
05"
#585000000
1!
1*
13
1U
1c
1k
15"
#590000000
0!
b1010 (
0*
b1010 0
03
b1010 :
0U
b1010 `
0c
0k
bXXXXXXXXXXXXXXXX 0"
05"
#595000000
1!
1*
13
1U
1c
1k
15"
#600000000
0!
b1011 (
0*
b1011 0
03
b1011 :
0U
b1011 `
0c
0k
bXXXXXXXXXXXXXXXX 0"
05"
#605000000
1!
1*
13
1U
1c
1k
15"
#610000000
0!
b1100 (
0*
b1100 0
03
b1100 :
0U
b1100 `
0c
0k
bXXXXXXXXXXXXXXXX 0"
05"
#615000000
1!
1*
13
1U
1c
1k
15"
#620000000
0!
b1101 (
0*
b1101 0
03
b1101 :
0U
b1101 `
0c
0k
bXXXXXXXXXXXXXXXX 0"
05"
#625000000
1!
1*
13
1U
1c
1k
15"
#630000000
0!
b1110 (
0*
b1110 0
03
b1110 :
0U
b1110 `
0c
0k
bXXXXXXXXXXXXXXXX 0"
05"
#635000000
1!
1*
13
1U
1c
1k
15"
#640000000
0!
b1111 (
0*
b1111 0
03
b1111 :
0U
b1111 `
0c
0k
bXXXXXXXXXXXXXXXX 0"
05"
#645000000
1!
1*
13
1U
1c
1k
15"
#650000000
0!
1"
b0000000000000000 '
0*
b0000000000000000 /
12
03
14
b0000000000000000 <
0=
b0000 E
b0000000000000000 L
b0000000000000000 M
b0000000000000000 N
0T
0U
b0000 V
b0000 W
b0000 X
0Y
1b
0c
b0000 d
1j
0k
b0000 l
0m
b0000 o
1v
b00000000 w
b0000000000000000 x
1y
b0000000000000000 |
0}
1!"
b00000000000000000 ""
b0000000000000000 $"
b0000000000000000 %"
0&"
1'"
b00000000000000000 ("
b0000000000000000 *"
b0000000000000000 -"
b0000000000000000 ."
bXXXXXXXXXXXXXXXX 0"
05"
b0000000000000000 9"
1:"
1@"
#655000000
1!
1*
13
1U
1c
1k
15"
#660000000
0!
0"
b0101010101111000 '
b0000 (
0*
b0101010101111000 /
b0000 0
02
03
04
b0000 :
b0101010101111000 <
b0000000001111000 L
bXXXXXXXXXXXXXXXX M
bXXXXXXXXXXXXXXXX N
XT
0U
b0101 V
b0111 W
b1000 X
b0000 `
0b
0c
0j
0k
b0101 l
0v
b01111000 w
b0000000001111000 x
0y
bXXXXXXXXXXXXXXXX |
X}
0!"
bXXXXXXXXXXXXXXXXX ""
b0000000001111000 $"
bXXXXXXXXXXXXXXXX %"
X&"
0'"
bXXXXXXXXXXXXXXXXX ("
b0000000001111000 *"
bXXXXXXXXXXXXXXXX -"
bXXXXXXXXXXXXXXXX ."
bXXXXXXXXXXXXXXXX 0"
05"
b0101010101111000 9"
0:"
0@"
#665000000
1!
1*
13
1=
b0101 E
1U
1Y
1c
b0101 d
1k
1m
b0101 o
15"
#670000000
0!
b0001 (
0*
b0001 0
03
b0001 :
0U
b0001 `
0c
0k
bXXXXXXXXXXXXXXXX 0"
05"
#675000000
1!
1*
13
1U
1c
1k
15"
#680000000
0!
b0010 (
0*
b0010 0
03
b0010 :
0U
b0010 `
0c
0k
bXXXXXXXXXXXXXXXX 0"
05"
#685000000
1!
1*
13
1U
1c
1k
15"
#690000000
0!
b0011 (
0*
b0011 0
03
b0011 :
0U
b0011 `
0c
0k
bXXXXXXXXXXXXXXXX 0"
05"
#695000000
1!
1*
13
1U
1c
1k
15"
#700000000
0!
b0100 (
0*
b0100 0
03
b0100 :
0U
b0100 `
0c
0k
bXXXXXXXXXXXXXXXX 0"
05"
#705000000
1!
1*
13
1U
1c
1k
15"
#710000000
0!
b0101 (
0*
b0101 0
03
b0101 :
0U
b0101 `
0c
0k
bXXXXXXXXXXXXXXXX 0"
05"
#715000000
1!
1*
13
1U
1c
1k
15"
#720000000
0!
b0110 (
0*
b0110 0
03
b0110 :
0U
b0110 `
0c
0k
bXXXXXXXXXXXXXXXX 0"
05"
#725000000
1!
1*
13
1U
1c
1k
15"
#730000000
0!
b0111 (
0*
b0111 0
03
b0111 :
0U
b0111 `
0c
0k
bXXXXXXXXXXXXXXXX 0"
05"
#735000000
1!
1*
13
1U
1c
1k
15"
#740000000
0!
b1000 (
0*
b1000 0
03
b1000 :
0U
b1000 `
0c
0k
bXXXXXXXXXXXXXXXX 0"
05"
#745000000
1!
1*
13
1U
1c
1k
15"
#750000000
0!
b1001 (
0*
b1001 0
03
b1001 :
0U
b1001 `
0c
0k
bXXXXXXXXXXXXXXXX 0"
05"
#755000000
1!
1*
13
1U
1c
1k
15"
#760000000
0!
b1010 (
0*
b1010 0
03
b1010 :
0U
b1010 `
0c
0k
bXXXXXXXXXXXXXXXX 0"
05"
#765000000
1!
1*
13
1U
1c
1k
15"
#770000000
0!
b1011 (
0*
b1011 0
03
b1011 :
0U
b1011 `
0c
0k
bXXXXXXXXXXXXXXXX 0"
05"
#775000000
1!
1*
13
1U
1c
1k
15"
#780000000
0!
b1100 (
0*
b1100 0
03
b1100 :
0U
b1100 `
0c
0k
bXXXXXXXXXXXXXXXX 0"
05"
#785000000
1!
1*
13
1U
1c
1k
15"
#790000000
0!
b1101 (
0*
b1101 0
03
b1101 :
0U
b1101 `
0c
0k
bXXXXXXXXXXXXXXXX 0"
05"
#795000000
1!
1*
13
1U
1c
1k
15"
#800000000
0!
b1110 (
0*
b1110 0
03
b1110 :
0U
b1110 `
0c
0k
bXXXXXXXXXXXXXXXX 0"
05"
#805000000
1!
1*
13
1U
1c
1k
15"
#810000000
0!
b1111 (
0*
b1111 0
03
b1111 :
0U
b1111 `
0c
0k
bXXXXXXXXXXXXXXXX 0"
05"
#815000000
1!
1*
13
1U
1c
1k
15"
#820000000
0!
b0000 (
0*
b0000 0
03
b0000 :
0U
b0000 `
0c
0k
bXXXXXXXXXXXXXXXX 0"
05"
#825000000
1!
1*
13
1U
1c
1k
15"
#830000000
0!
b0001 (
0*
b0001 0
03
b0001 :
0U
b0001 `
0c
0k
bXXXXXXXXXXXXXXXX 0"
05"
#835000000
1!
1*
13
1U
1c
1k
15"
#840000000
0!
b0010 (
0*
b0010 0
03
b0010 :
0U
b0010 `
0c
0k
bXXXXXXXXXXXXXXXX 0"
05"
#845000000
1!
1*
13
1U
1c
1k
15"
#850000000
0!
b0011 (
0*
b0011 0
03
b0011 :
0U
b0011 `
0c
0k
bXXXXXXXXXXXXXXXX 0"
05"
#855000000
1!
1*
13
1U
1c
1k
15"
#860000000
0!
b0100 (
0*
b0100 0
03
b0100 :
0U
b0100 `
0c
0k
bXXXXXXXXXXXXXXXX 0"
05"
#865000000
1!
1*
13
1U
1c
1k
15"
#870000000
0!
b0101 (
0*
b0101 0
03
b0101 :
0U
b0101 `
0c
0k
bXXXXXXXXXXXXXXXX 0"
05"
#875000000
1!
1*
13
1U
1c
1k
15"
#880000000
0!
b0110 (
0*
b0110 0
03
b0110 :
0U
b0110 `
0c
0k
bXXXXXXXXXXXXXXXX 0"
05"
#885000000
1!
1*
13
1U
1c
1k
15"
#890000000
0!
b0111 (
0*
b0111 0
03
b0111 :
0U
b0111 `
0c
0k
bXXXXXXXXXXXXXXXX 0"
05"
#895000000
1!
1*
13
1U
1c
1k
15"
#900000000
0!
b1000 (
0*
b1000 0
03
b1000 :
0U
b1000 `
0c
0k
bXXXXXXXXXXXXXXXX 0"
05"
#905000000
1!
1*
13
1U
1c
1k
15"
#910000000
0!
b1001 (
0*
b1001 0
03
b1001 :
0U
b1001 `
0c
0k
bXXXXXXXXXXXXXXXX 0"
05"
#915000000
1!
1*
13
1U
1c
1k
15"
#920000000
0!
b1010 (
0*
b1010 0
03
b1010 :
0U
b1010 `
0c
0k
bXXXXXXXXXXXXXXXX 0"
05"
#925000000
1!
1*
13
1U
1c
1k
15"
#930000000
0!
b1011 (
0*
b1011 0
03
b1011 :
0U
b1011 `
0c
0k
bXXXXXXXXXXXXXXXX 0"
05"
#935000000
1!
1*
13
1U
1c
1k
15"
#940000000
0!
b1100 (
0*
b1100 0
03
b1100 :
0U
b1100 `
0c
0k
bXXXXXXXXXXXXXXXX 0"
05"
#945000000
1!
1*
13
1U
1c
1k
15"
#950000000
0!
b1101 (
0*
b1101 0
03
b1101 :
0U
b1101 `
0c
0k
bXXXXXXXXXXXXXXXX 0"
05"
#955000000
1!
1*
13
1U
1c
1k
15"
#960000000
0!
b1110 (
0*
b1110 0
03
b1110 :
0U
b1110 `
0c
0k
bXXXXXXXXXXXXXXXX 0"
05"
#965000000
1!
1*
13
1U
1c
1k
15"
#970000000
0!
b1111 (
0*
b1111 0
03
b1111 :
0U
b1111 `
0c
0k
bXXXXXXXXXXXXXXXX 0"
05"
#975000000
1!
1*
13
1U
1c
1k
15"
#980000000
0!
b0000 (
0*
b0000 0
03
b0000 :
0U
b0000 `
0c
0k
bXXXXXXXXXXXXXXXX 0"
05"
#985000000
1!
1*
13
1U
1c
1k
15"
#990000000
0!
b0001 (
0*
b0001 0
03
b0001 :
0U
b0001 `
0c
0k
bXXXXXXXXXXXXXXXX 0"
05"
#995000000
1!
1*
13
1U
1c
1k
15"
#1000000000
0!
b0010 (
0*
b0010 0
03
b0010 :
0U
b0010 `
0c
0k
bXXXXXXXXXXXXXXXX 0"
05"
