top.vcd
$date
  Fri Apr 10 10:09:54 2020
$end
$version
  GHDL v0
$end
$timescale
  1 fs
$end
$scope module standard $end
$upscope $end
$scope module std_logic_1164 $end
$upscope $end
$scope module numeric_std $end
$upscope $end
$scope module t_top $end
$var reg 1 ! clk_t $end
$var reg 1 " reset_t $end
$var reg 1 # instructionwriteenable_t $end
$var reg 16 $ instructionwriteaddr_t[15:0] $end
$var reg 16 % instructionwritedata_t[15:0] $end
$var reg 16 & startpc_t[15:0] $end
$var reg 16 ' instructionout_t[15:0] $end
$var reg 4 ( inr_t[3:0] $end
$var reg 16 ) outr_t[15:0] $end
$scope module test $end
$var reg 1 * clk $end
$var reg 1 + instructionwriteenable $end
$var reg 16 , instructionwriteaddr[15:0] $end
$var reg 16 - instructionwritedata[15:0] $end
$var reg 16 . startpc[15:0] $end
$var reg 16 / instructionout[15:0] $end
$var reg 4 0 inr[3:0] $end
$var reg 16 1 outr[15:0] $end
$var reg 1 2 reset $end
$var reg 1 3 clk_t $end
$var reg 1 4 reset_t $end
$var reg 1 5 instructionwriteenable_t $end
$var reg 16 6 instructionwriteaddr_t[15:0] $end
$var reg 16 7 instructionwritedata_t[15:0] $end
$var reg 4 8 inr_t[3:0] $end
$var reg 16 9 outr_t[15:0] $end
$var reg 16 : instruction_t[15:0] $end
$var reg 1 ; cregwrite_t $end
$var reg 1 < cldi_t $end
$var reg 1 = cjalr_t $end
$var reg 16 > writeinput_t[15:0] $end
$var reg 16 ? pcinput_t[15:0] $end
$var reg 16 @ r1tooffsetmux_t[15:0] $end
$var reg 10 A registertomemoryaddr_t[9:0] $end
$var reg 16 B registertomemorydin_t[15:0] $end
$var reg 16 C pcoutput_t[15:0] $end
$var reg 16 D rdcontent_t[15:0] $end
$var reg 4 E caluop_t[3:0] $end
$var reg 16 F a_t[15:0] $end
$var reg 16 G b_t[15:0] $end
$var reg 1 H isbranch_t $end
$var reg 10 I alutomemory_t[9:0] $end
$var reg 16 J alutoregmux_t[15:0] $end
$var reg 16 K outmemory_t[15:0] $end
$var reg 16 L signextension_t[15:0] $end
$var reg 16 M branchadderoutput_t[15:0] $end
$var reg 16 N incrementadderoutput_t[15:0] $end
$var reg 1 O coffset_t $end
$var reg 1 P cmemtoreg_t $end
$var reg 1 Q cmemwrite_t $end
$var reg 1 R cmemread_t $end
$var reg 1 S carry_t $end
$scope module rf $end
$var reg 1 T clk $end
$var reg 4 U rd[11:8] $end
$var reg 4 V r1[7:4] $end
$var reg 4 W r2[3:0] $end
$var reg 1 X cregwrite $end
$var reg 1 Y cldi $end
$var reg 1 Z cjalr $end
$var reg 16 [ writeinput[15:0] $end
$var reg 16 \ outr1tooffsetmux[15:0] $end
$var reg 16 ] outr2toalu[15:0] $end
$var reg 16 ^ rdcontent[15:0] $end
$var reg 10 _ tomemoryaddr[9:0] $end
$var reg 16 ` tomemorydin[15:0] $end
$var reg 16 a pcoutput[15:0] $end
$var reg 16 b pcinput[15:0] $end
$var reg 4 c inr[3:0] $end
$var reg 16 d outr[15:0] $end
$var reg 1 e reset $end
$comment register16 is not handled $end
$upscope $end
$scope module arithmetic $end
$var reg 1 f clk $end
$var reg 4 g aluop[3:0] $end
$var reg 16 h a[15:0] $end
$var reg 16 i b[15:0] $end
$var reg 1 j isbranch $end
$var reg 10 k outtomemory[9:0] $end
$var reg 16 l outtoregmux[15:0] $end
$var reg 1 m reset $end
$var reg 16 n a_t[15:0] $end
$var reg 16 o b_t[15:0] $end
$upscope $end
$scope module control $end
$var reg 4 p opcode[15:12] $end
$var reg 1 q cregwrite $end
$var reg 1 r coffset $end
$var reg 4 s caluop[3:0] $end
$var reg 1 t cmemwrite $end
$var reg 1 u cmemread $end
$var reg 1 v cmemtoreg $end
$var reg 1 w cldi $end
$var reg 1 x cjalr $end
$var reg 1 y reset $end
$upscope $end
$scope module sign $end
$var reg 8 z input[7:0] $end
$var reg 16 { output[15:0] $end
$var reg 1 | reset $end
$upscope $end
$scope module incrementadder $end
$var reg 16 } a[15:0] $end
$var reg 16 !" b[15:0] $end
$var reg 16 "" sum[15:0] $end
$var reg 1 #" cout $end
$var reg 1 $" reset $end
$var reg 17 %" result[16:0] $end
$upscope $end
$scope module branchadder $end
$var reg 16 &" a[15:0] $end
$var reg 16 '" b[15:0] $end
$var reg 16 (" sum[15:0] $end
$var reg 1 )" cout $end
$var reg 1 *" reset $end
$var reg 17 +" result[16:0] $end
$upscope $end
$scope module offsetmux $end
$var reg 16 ," a1[15:0] $end
$var reg 16 -" a2[15:0] $end
$var reg 1 ." sel $end
$var reg 16 /" b[15:0] $end
$upscope $end
$scope module pcmux $end
$var reg 16 0" a1[15:0] $end
$var reg 16 1" a2[15:0] $end
$var reg 1 2" sel $end
$var reg 16 3" b[15:0] $end
$upscope $end
$scope module regmux $end
$var reg 16 4" a1[15:0] $end
$var reg 16 5" a2[15:0] $end
$var reg 1 6" sel $end
$var reg 16 7" b[15:0] $end
$upscope $end
$scope module instruction $end
$var reg 1 8" clk $end
$var reg 16 9" pc[15:0] $end
$var reg 1 :" writeenable $end
$var reg 16 ;" writedata[15:0] $end
$var reg 16 <" outinstruction[15:0] $end
$var reg 1 =" reset $end
$comment instruction65536 is not handled $end
$var reg 16 >" outinstruction_t[15:0] $end
$upscope $end
$scope module disk $end
$var reg 10 ?" addr[9:0] $end
$var reg 16 @" din[15:0] $end
$var reg 1 A" cmemwrite $end
$var reg 1 B" cmemread $end
$var reg 16 C" outmemory[15:0] $end
$var reg 1 D" reset $end
$comment memory1024 is not handled $end
$upscope $end
$upscope $end
$upscope $end
$enddefinitions $end
#0
0!
1"
U#
bUUUUUUUUUUUUUUUU $
bUUUUUUUUUUUUUUUU %
bUUUUUUUUUUUUUUUU &
b0000000000000000 '
bUUUU (
b0000000000000000 )
0*
U+
bUUUUUUUUUUUUUUUU ,
bUUUUUUUUUUUUUUUU -
bUUUUUUUUUUUUUUUU .
b0000000000000000 /
bUUUU 0
b0000000000000000 1
12
03
14
U5
bUUUUUUUUUUUUUUUU 6
bUUUUUUUUUUUUUUUU 7
bUUUU 8
b0000000000000000 9
b0000000000000000 :
0;
0<
0=
b0000000000000000 >
b0000000000000000 ?
b0000000000000000 @
b0000000000 A
b0000000000000000 B
b0000000000000000 C
b0000000000000000 D
b0000 E
b0000000000000000 F
b0000000000000000 G
0H
b0000000000 I
b0000000000000000 J
b0000000000000000 K
b0000000000000000 L
b0000000000000000 M
b0000000000000000 N
0O
0P
0Q
0R
0S
0T
b0000 U
b0000 V
b0000 W
0X
0Y
0Z
b0000000000000000 [
b0000000000000000 \
b0000000000000000 ]
b0000000000000000 ^
b0000000000 _
b0000000000000000 `
b0000000000000000 a
b0000000000000000 b
bUUUU c
b0000000000000000 d
1e
0f
b0000 g
b0000000000000000 h
b0000000000000000 i
0j
b0000000000 k
b0000000000000000 l
1m
b0000000000000000 n
b0000000000000000 o
b0000 p
0q
0r
b0000 s
0t
0u
0v
0w
0x
1y
b00000000 z
b0000000000000000 {
1|
b0000000000000001 }
b0000000000000000 !"
b0000000000000000 ""
0#"
1$"
b00000000000000000 %"
b0000000000000000 &"
b0000000000000000 '"
b0000000000000000 ("
0)"
1*"
b00000000000000000 +"
b0000000000000000 ,"
b0000000000000000 -"
0."
b0000000000000000 /"
b0000000000000000 0"
b0000000000000000 1"
02"
b0000000000000000 3"
b0000000000000000 4"
b0000000000000000 5"
06"
b0000000000000000 7"
08"
b0000000000000000 9"
U:"
bUUUUUUUUUUUUUUUU ;"
b0000000000000000 <"
1="
bUUUUUUUUUUUUUUUU >"
b0000000000 ?"
b0000000000000000 @"
0A"
0B"
b0000000000000000 C"
1D"
#5000000
1!
1*
13
1T
1f
18"
#10000000
0!
0"
b0000000000000000 &
b0010011000000011 '
b1000 (
0*
b0000000000000000 .
b0010011000000011 /
b1000 0
02
03
04
b1000 8
b0010011000000011 :
1;
1<
b0000000000000001 ?
b0010 E
b0000000000000011 L
b0000000000000001 N
XP
0T
b0110 U
b0011 W
1X
1Y
b0000000000000001 b
b1000 c
0e
0f
b0010 g
0m
b0010 p
1q
b0010 s
Xv
1w
0y
b00000011 z
b0000000000000011 {
0|
b0000000000000001 ""
0#"
0$"
b00000000000000001 %"
0)"
0*"
b0000000000000011 -"
b0000000000000001 0"
b0000000000000001 3"
X6"
08"
b0000000000000001 9"
b0010011000000011 <"
0="
0D"
#15000000
1!
1*
13
1T
1f
18"
#20000000
0!
b0010011100000111 '
0*
b0010011100000111 /
03
b0010011100000111 :
b0000000000000010 ?
b0000000000000001 C
b0000000000000000 D
b0000000000000111 L
b0000000000000001 M
b0000000000000010 N
0T
b0111 U
b0111 W
b0000000000000000 ^
b0000000000000001 a
b0000000000000010 b
0f
b00000111 z
b0000000000000111 {
b0000000000000001 !"
b0000000000000010 ""
0#"
b00000000000000010 %"
b0000000000000001 &"
b0000000000000000 '"
b0000000000000001 ("
0)"
b00000000000000001 +"
b0000000000000111 -"
b0000000000000010 0"
b0000000000000001 1"
b0000000000000010 3"
08"
b0000000000000010 9"
b0010011100000111 <"
#25000000
1!
1*
13
1T
1f
18"
#30000000
0!
b0100100001100000 '
0*
b0100100001100000 /
03
b0100100001100000 :
0<
b0000000000000011 ?
b0000000000000011 @
b0000000000 A
b0000000000000011 B
b0000000000000010 C
b0000000000000000 D
b0100 E
b0000000000000011 F
b0000000000000000 G
b0000000000000011 K
b0000000001100000 L
b0000000000000010 M
b0000000000000011 N
0P
0T
b1000 U
b0110 V
b0000 W
0Y
b0000000000000011 \
b0000000000000000 ]
b0000000000000000 ^
b0000000000 _
b0000000000000011 `
b0000000000000010 a
b0000000000000011 b
0f
b0100 g
b0000000000000011 h
b0000000000000000 i
b0000000000000011 n
b0000000000000000 o
b0100 p
b0100 s
0v
0w
b01100000 z
b0000000001100000 {
b0000000000000010 !"
b0000000000000011 ""
0#"
b00000000000000011 %"
b0000000000000010 &"
b0000000000000000 '"
b0000000000000010 ("
0)"
b00000000000000010 +"
b0000000000000011 ,"
b0000000001100000 -"
b0000000000000011 /"
b0000000000000011 0"
b0000000000000010 1"
b0000000000000011 3"
b0000000000000011 5"
06"
08"
b0000000000000011 9"
b0100100001100000 <"
b0000000000 ?"
b0000000000000011 @"
b0000000000000011 C"
#35000000
1!
1*
13
b0000000000000011 >
b0000000000000011 J
1T
b0000000000000011 [
1f
b0000000000000011 l
b0000000000000011 4"
b0000000000000011 7"
18"
#40000000
0!
b0101010101111000 '
b0000000000000011 )
0*
b0101010101111000 /
b0000000000000011 1
03
b0000000000000011 9
b0101010101111000 :
b0000000000000100 ?
b0000000000000111 @
b0000000011 A
b0000000000000111 B
b0000000000000011 C
b0000000000000000 D
b0101 E
b0000000000000111 F
b0000000000000011 G
b0000000000000111 K
b0000000001111000 L
b0000000000000011 M
b0000000000000100 N
0T
b0101 U
b0111 V
b1000 W
b0000000000000111 \
b0000000000000011 ]
b0000000000000000 ^
b0000000011 _
b0000000000000111 `
b0000000000000011 a
b0000000000000100 b
b0000000000000011 d
0f
b0101 g
b0000000000000111 h
b0000000000000011 i
b0000000000000111 n
b0000000000000011 o
b0101 p
b0101 s
b01111000 z
b0000000001111000 {
b0000000000000011 !"
b0000000000000100 ""
0#"
b00000000000000100 %"
b0000000000000011 &"
b0000000000000000 '"
b0000000000000011 ("
0)"
b00000000000000011 +"
b0000000000000111 ,"
b0000000001111000 -"
b0000000000000111 /"
b0000000000000100 0"
b0000000000000011 1"
b0000000000000100 3"
b0000000000000111 5"
08"
b0000000000000100 9"
b0101010101111000 <"
b0000000011 ?"
b0000000000000111 @"
b0000000000000111 C"
#45000000
1!
1*
13
b0000000000001010 >
b0000000000001010 J
1T
b0000000000001010 [
1f
b0000000000001010 l
b0000000000001010 4"
b0000000000001010 7"
18"
#50000000
0!
b0110010001111000 '
0*
b0110010001111000 /
03
b0110010001111000 :
b0000000000000101 ?
b0000000000000100 C
b0000000000000000 D
b0110 E
b0000000000000100 M
b0000000000000101 N
0T
b0100 U
b0000000000000000 ^
b0000000000000100 a
b0000000000000101 b
0f
b0110 g
b0110 p
b0110 s
b0000000000000100 !"
b0000000000000101 ""
0#"
b00000000000000101 %"
b0000000000000100 &"
b0000000000000000 '"
b0000000000000100 ("
0)"
b00000000000000100 +"
b0000000000000101 0"
b0000000000000100 1"
b0000000000000101 3"
08"
b0000000000000101 9"
b0110010001111000 <"
#55000000
1!
1*
13
b0000000000000100 >
b0000000000000100 J
1T
b0000000000000100 [
1f
b0000000000000100 l
b0000000000000100 4"
b0000000000000100 7"
18"
#60000000
0!
b0111001101011000 '
b0000 (
b0000000000000000 )
0*
b0111001101011000 /
b0000 0
b0000000000000000 1
03
b0000 8
b0000000000000000 9
b0111001101011000 :
b0000000000000110 ?
b0000000000001010 @
b0000000000001010 B
b0000000000000101 C
b0000000000000000 D
b0111 E
b0000000000001010 F
b0000000000001010 K
b0000000001011000 L
b0000000000000101 M
b0000000000000110 N
0T
b0011 U
b0101 V
b0000000000001010 \
b0000000000000000 ^
b0000000000001010 `
b0000000000000101 a
b0000000000000110 b
b0000 c
b0000000000000000 d
0f
b0111 g
b0000000000001010 h
b0000000000001010 n
b0111 p
b0111 s
b01011000 z
b0000000001011000 {
b0000000000000101 !"
b0000000000000110 ""
0#"
b00000000000000110 %"
b0000000000000101 &"
b0000000000000000 '"
b0000000000000101 ("
0)"
b00000000000000101 +"
b0000000000001010 ,"
b0000000001011000 -"
b0000000000001010 /"
b0000000000000110 0"
b0000000000000101 1"
b0000000000000110 3"
b0000000000001010 5"
08"
b0000000000000110 9"
b0111001101011000 <"
b0000000000001010 @"
b0000000000001010 C"
#65000000
1!
1*
13
b0000000001010000 >
b0000000001010000 J
1T
b0000000001010000 [
1f
b0000000001010000 l
b0000000001010000 4"
b0000000001010000 7"
18"
#70000000
0!
b1000001001011000 '
b0001 (
0*
b1000001001011000 /
b0001 0
03
b0001 8
b1000001001011000 :
b0000000000000111 ?
b0000000000000110 C
b0000000000000000 D
b1000 E
b0000000000000110 M
b0000000000000111 N
0T
b0010 U
b0000000000000000 ^
b0000000000000110 a
b0000000000000111 b
b0001 c
0f
b1000 g
b1000 p
b1000 s
b0000000000000110 !"
b0000000000000111 ""
0#"
b00000000000000111 %"
b0000000000000110 &"
b0000000000000000 '"
b0000000000000110 ("
0)"
b00000000000000110 +"
b0000000000000111 0"
b0000000000000110 1"
b0000000000000111 3"
08"
b0000000000000111 9"
b1000001001011000 <"
#75000000
1!
1*
13
b0000000000000001 >
b0000000000000001 J
1T
b0000000000000001 [
1f
b0000000000000001 l
b0000000000000001 4"
b0000000000000001 7"
18"
#80000000
0!
b1001100100100011 '
b0010 (
b0000000000000001 )
0*
b1001100100100011 /
b0010 0
b0000000000000001 1
03
b0010 8
b0000000000000001 9
b1001100100100011 :
b0000000000001000 ?
b0000000000000001 @
b0001010000 A
b0000000000000001 B
b0000000000000111 C
b0000000000000000 D
b1001 E
b0000000000000001 F
b0000000001010000 G
b0000000000000001 K
b0000000000100011 L
b0000000000000111 M
b0000000000001000 N
0T
b1001 U
b0010 V
b0011 W
b0000000000000001 \
b0000000001010000 ]
b0000000000000000 ^
b0001010000 _
b0000000000000001 `
b0000000000000111 a
b0000000000001000 b
b0010 c
b0000000000000001 d
0f
b1001 g
b0000000000000001 h
b0000000001010000 i
b0000000000000001 n
b0000000001010000 o
b1001 p
b1001 s
b00100011 z
b0000000000100011 {
b0000000000000111 !"
b0000000000001000 ""
0#"
b00000000000001000 %"
b0000000000000111 &"
b0000000000000000 '"
b0000000000000111 ("
0)"
b00000000000000111 +"
b0000000000000001 ,"
b0000000000100011 -"
b0000000000000001 /"
b0000000000001000 0"
b0000000000000111 1"
b0000000000001000 3"
b0000000000000001 5"
08"
b0000000000001000 9"
b1001100100100011 <"
b0001010000 ?"
b0000000000000001 @"
b0000000000000001 C"
#85000000
1!
1*
13
b0000000000000000 >
b0000000000000000 J
1T
b0000000000000000 [
1f
b0000000000000000 l
b0000000000000000 4"
b0000000000000000 7"
18"
#90000000
0!
b1010101100100011 '
b0011 (
b0000000001010000 )
0*
b1010101100100011 /
b0011 0
b0000000001010000 1
03
b0011 8
b0000000001010000 9
b1010101100100011 :
b0000000000001001 ?
b0000000000001000 C
b1010 E
b0000000000001000 M
b0000000000001001 N
0T
b1011 U
b0000000000001000 a
b0000000000001001 b
b0011 c
b0000000001010000 d
0f
b1010 g
b1010 p
b1010 s
b0000000000001000 !"
b0000000000001001 ""
0#"
b00000000000001001 %"
b0000000000001000 &"
b0000000000001000 ("
0)"
b00000000000001000 +"
b0000000000001001 0"
b0000000000001000 1"
b0000000000001001 3"
08"
b0000000000001001 9"
b1010101100100011 <"
#95000000
1!
1*
13
b0000000001010001 >
b0000000001010001 J
1T
b0000000001010001 [
1f
b0000000001010001 l
b0000000001010001 4"
b0000000001010001 7"
18"
#100000000
0!
b1100010010100111 '
b0100 (
b0000000000000100 )
0*
b1100010010100111 /
b0100 0
b0000000000000100 1
03
b0100 8
b0000000000000100 9
b1100010010100111 :
0;
b0000000000001010 ?
b0000000000000000 @
b0000000111 A
b0000000000000000 B
b0000000000001001 C
b0000000000000100 D
b1100 E
b1111111110100111 F
b0000000000000111 G
b0000000000000000 K
b1111111110100111 L
b0000000000001101 M
b0000000000001010 N
1O
0T
b0100 U
b1010 V
b0111 W
0X
b0000000000000000 \
b0000000000000111 ]
b0000000000000100 ^
b0000000111 _
b0000000000000000 `
b0000000000001001 a
b0000000000001010 b
b0100 c
b0000000000000100 d
0f
b1100 g
b1111111110100111 h
b0000000000000111 i
b1111111110100111 n
b0000000000000111 o
b1100 p
0q
1r
b1100 s
b10100111 z
b1111111110100111 {
b0000000000001001 !"
b0000000000001010 ""
0#"
b00000000000001010 %"
b0000000000001001 &"
b0000000000000100 '"
b0000000000001101 ("
0)"
b00000000000001101 +"
b0000000000000000 ,"
b1111111110100111 -"
1."
b1111111110100111 /"
b0000000000001010 0"
b0000000000001101 1"
b0000000000001010 3"
b0000000000000000 5"
08"
b0000000000001010 9"
b1100010010100111 <"
b0000000111 ?"
b0000000000000000 @"
b0000000000000000 C"
#105000000
1!
b0010011000001111 '
1*
b0010011000001111 /
13
b0010011000001111 :
1;
1<
b0000000000000000 >
b0000000000001100 ?
b0000001001 A
b0000000000000011 D
b0010 E
b0000000000000000 F
b0000000000001001 G
1H
b0000000000000000 J
b0000000000001111 L
b0000000000001100 M
0O
XP
1T
b0110 U
b0000 V
b1111 W
1X
1Y
b0000000000000000 [
b0000000000001001 ]
b0000000000000011 ^
b0000001001 _
b0000000000001100 b
1f
b0010 g
b0000000000000000 h
b0000000000001001 i
1j
b0000000000000000 l
b0000000000000000 n
b0000000000001001 o
b0010 p
1q
0r
b0010 s
Xv
1w
b00001111 z
b0000000000001111 {
0#"
b0000000000000011 '"
b0000000000001100 ("
0)"
b00000000000001100 +"
b0000000000001111 -"
0."
b0000000000000000 /"
b0000000000001100 1"
12"
b0000000000001100 3"
b0000000000000000 4"
X6"
b0000000000000000 7"
18"
b0000000000001100 9"
b0010011000001111 <"
b0000001001 ?"
#110000000
0!
b0010011000001111 '
b0101 (
b0000000000001010 )
0*
b0010011000001111 /
b0101 0
b0000000000001010 1
03
b0101 8
b0000000000001010 9
b0010011000001111 :
1;
1<
b0000000000001101 ?
b0000001100 A
b0000000000001100 C
b0000000000001111 D
b0010 E
b0000000000000000 F
b0000000000001100 G
0H
b0000000000001111 L
b0000000000011011 M
b0000000000001101 N
0O
XP
0T
b0110 U
b0000 V
b1111 W
1X
1Y
b0000000000001100 ]
b0000000000001111 ^
b0000001100 _
b0000000000001100 a
b0000000000001101 b
b0101 c
b0000000000001010 d
0f
b0010 g
b0000000000000000 h
b0000000000001100 i
0j
b0000000000000000 n
b0000000000001100 o
b0010 p
1q
0r
b0010 s
Xv
1w
b00001111 z
b0000000000001111 {
b0000000000001100 !"
b0000000000001101 ""
0#"
b00000000000001101 %"
b0000000000001100 &"
b0000000000001111 '"
b0000000000011011 ("
0)"
b00000000000011011 +"
b0000000000001111 -"
0."
b0000000000000000 /"
b0000000000001101 0"
b0000000000011011 1"
02"
b0000000000001101 3"
X6"
08"
b0000000000001101 9"
b0010011000001111 <"
b0000001100 ?"
#115000000
1!
1*
13
1T
1f
18"
#120000000
0!
b1011001000110100 '
b0110 (
b0000000000001111 )
0*
b1011001000110100 /
b0110 0
b0000000000001111 1
03
b0110 8
b0000000000001111 9
b1011001000110100 :
0;
0<
b0000000000001110 ?
b0000000001010000 @
b0000000100 A
b0000000001010000 B
b0000000000001101 C
b0000000000000001 D
b1011 E
b0000000000110100 F
b0000000000000100 G
b0000000001010000 K
b0000000000110100 L
b0000000000001110 M
b0000000000001110 N
1O
0P
0T
b0010 U
b0011 V
b0100 W
0X
0Y
b0000000001010000 \
b0000000000000100 ]
b0000000000000001 ^
b0000000100 _
b0000000001010000 `
b0000000000001101 a
b0000000000001110 b
b0110 c
b0000000000001111 d
0f
b1011 g
b0000000000110100 h
b0000000000000100 i
b0000000000110100 n
b0000000000000100 o
b1011 p
0q
1r
b1011 s
0v
0w
b00110100 z
b0000000000110100 {
b0000000000001101 !"
b0000000000001110 ""
0#"
b00000000000001110 %"
b0000000000001101 &"
b0000000000000001 '"
b0000000000001110 ("
0)"
b00000000000001110 +"
b0000000001010000 ,"
b0000000000110100 -"
1."
b0000000000110100 /"
b0000000000001110 0"
b0000000000001110 1"
b0000000000001110 3"
b0000000001010000 5"
06"
08"
b0000000000001110 9"
b1011001000110100 <"
b0000000100 ?"
b0000000001010000 @"
b0000000001010000 C"
#125000000
1!
1*
13
1T
1f
18"
#130000000
0!
b1111010101110000 '
b0111 (
b0000000000000111 )
0*
b1111010101110000 /
b0111 0
b0000000000000111 1
03
b0111 8
b0000000000000111 9
b1111010101110000 :
1;
1=
b0000000000001111 ?
b0000000000000111 @
b0000000000 A
b0000000000000111 B
b0000000000001110 C
b0000000000001010 D
b1111 E
b0000000001110000 F
b0000000000000000 G
b0000000000000111 K
b0000000001110000 L
b0000000000011000 M
b0000000000001111 N
0T
b0101 U
b0111 V
b0000 W
1X
1Z
b0000000000000111 \
b0000000000000000 ]
b0000000000001010 ^
b0000000000 _
b0000000000000111 `
b0000000000001110 a
b0000000000001111 b
b0111 c
b0000000000000111 d
0f
b1111 g
b0000000001110000 h
b0000000000000000 i
b0000000001110000 n
b0000000000000000 o
b1111 p
1q
b1111 s
1x
b01110000 z
b0000000001110000 {
b0000000000001110 !"
b0000000000001111 ""
0#"
b00000000000001111 %"
b0000000000001110 &"
b0000000000001010 '"
b0000000000011000 ("
0)"
b00000000000011000 +"
b0000000000000111 ,"
b0000000001110000 -"
b0000000001110000 /"
b0000000000001111 0"
b0000000000011000 1"
b0000000000001111 3"
b0000000000000111 5"
08"
b0000000000001111 9"
b1111010101110000 <"
b0000000000 ?"
b0000000000000111 @"
b0000000000000111 C"
#135000000
1!
b0010011000001111 '
1*
b0010011000001111 /
13
b0010011000001111 :
1<
0=
b0000000000000000 >
b0000000000011101 ?
b0000000000000000 @
b0000001110 A
b0000000000000000 B
b0000000000001111 D
b0010 E
b0000000000000000 F
b0000000000001110 G
1H
b0000000001110000 J
b0000000000000000 K
b0000000000001111 L
b0000000000011101 M
0O
XP
1T
b0110 U
b0000 V
b1111 W
1Y
0Z
b0000000000000000 [
b0000000000000000 \
b0000000000001110 ]
b0000000000001111 ^
b0000001110 _
b0000000000000000 `
b0000000000011101 b
1f
b0010 g
b0000000000000000 h
b0000000000001110 i
1j
b0000000001110000 l
b0000000000000000 n
b0000000000001110 o
b0010 p
0r
b0010 s
Xv
1w
0x
b00001111 z
b0000000000001111 {
0#"
b0000000000001111 '"
b0000000000011101 ("
0)"
b00000000000011101 +"
b0000000000000000 ,"
b0000000000001111 -"
0."
b0000000000000000 /"
b0000000000011101 1"
12"
b0000000000011101 3"
b0000000001110000 4"
b0000000000000000 5"
X6"
b0000000000000000 7"
18"
b0000000000011101 9"
b0010011000001111 <"
b0000001110 ?"
b0000000000000000 @"
b0000000000000000 C"
#140000000
0!
b0011000000100011 '
b1000 (
b0000000000000011 )
0*
b0011000000100011 /
b1000 0
b0000000000000011 1
03
b1000 8
b0000000000000011 9
b0011000000100011 :
0;
0<
0=
b0000000000011110 ?
b0000000000000001 @
b0001010000 A
b0000000000000001 B
b0000000000011101 C
b0000000000000000 D
b0011 E
b0000000000000001 F
b0000000001010000 G
0H
b0000000000000000 J
b0000000000000111 K
b0000000000100011 L
b0000000000011101 M
b0000000000011110 N
0O
0P
1Q
0T
b0000 U
b0010 V
b0011 W
0X
0Y
0Z
b0000000000000001 \
b0000000001010000 ]
b0000000000000000 ^
b0001010000 _
b0000000000000001 `
b0000000000011101 a
b0000000000011110 b
b1000 c
b0000000000000011 d
0f
b0011 g
b0000000000000001 h
b0000000001010000 i
0j
b0000000000000000 l
b0000000000000001 n
b0000000001010000 o
b0011 p
0q
0r
b0011 s
1t
0v
0w
0x
b00100011 z
b0000000000100011 {
b0000000000011101 !"
b0000000000011110 ""
0#"
b00000000000011110 %"
b0000000000011101 &"
b0000000000000000 '"
b0000000000011101 ("
0)"
b00000000000011101 +"
b0000000000000001 ,"
b0000000000100011 -"
0."
b0000000000000001 /"
b0000000000011110 0"
b0000000000011101 1"
02"
b0000000000011110 3"
b0000000000000000 4"
b0000000000000111 5"
06"
08"
b0000000000011110 9"
b0011000000100011 <"
b0001010000 ?"
b0000000000000001 @"
1A"
b0000000000000111 C"
#145000000
1!
1*
13
b0000000001 I
1T
1f
b0000000001 k
18"
#150000000
0!
b0001110000000011 '
b1001 (
b0000000000000000 )
0*
b0001110000000011 /
b1001 0
b0000000000000000 1
03
b1001 8
b0000000000000000 9
b0001110000000011 :
1;
b0000000000000001 >
b0000000000011111 ?
b0000000000000000 @
b0000000000000000 B
b0000000000011110 C
b0001 E
b0000000000000000 F
b0000000000000001 K
b0000000000000011 L
b0000000000011110 M
b0000000000011111 N
1P
0Q
1R
0T
b1100 U
b0000 V
1X
b0000000000000001 [
b0000000000000000 \
b0000000000000000 `
b0000000000011110 a
b0000000000011111 b
b1001 c
b0000000000000000 d
0f
b0001 g
b0000000000000000 h
b0000000000000000 n
b0001 p
1q
b0001 s
0t
1u
1v
b00000011 z
b0000000000000011 {
b0000000000011110 !"
b0000000000011111 ""
0#"
b00000000000011111 %"
b0000000000011110 &"
b0000000000011110 ("
0)"
b00000000000011110 +"
b0000000000000000 ,"
b0000000000000011 -"
b0000000000000000 /"
b0000000000011111 0"
b0000000000011110 1"
b0000000000011111 3"
b0000000000000001 5"
16"
b0000000000000001 7"
08"
b0000000000011111 9"
b0001110000000011 <"
b0000000000000000 @"
0A"
1B"
b0000000000000001 C"
#155000000
1!
1*
13
b0000000000 I
1T
1f
b0000000000 k
18"
#160000000
0!
b0010011000001111 '
b1010 (
0*
b0010011000001111 /
b1010 0
03
b1010 8
b0010011000001111 :
1<
b0000000000000000 >
b0000000000100000 ?
b0000011111 A
b0000000000011111 C
b0000000000001111 D
b0010 E
b0000000000011111 G
b0000000000000000 K
b0000000000001111 L
b0000000000101110 M
b0000000000100000 N
XP
0R
0T
b0110 U
b1111 W
1Y
b0000000000000000 [
b0000000000011111 ]
b0000000000001111 ^
b0000011111 _
b0000000000011111 a
b0000000000100000 b
b1010 c
0f
b0010 g
b0000000000011111 i
b0000000000011111 o
b0010 p
b0010 s
0u
Xv
1w
b00001111 z
b0000000000001111 {
b0000000000011111 !"
b0000000000100000 ""
0#"
b00000000000100000 %"
b0000000000011111 &"
b0000000000001111 '"
b0000000000101110 ("
0)"
b00000000000101110 +"
b0000000000001111 -"
b0000000000100000 0"
b0000000000101110 1"
b0000000000100000 3"
b0000000000000000 5"
X6"
b0000000000000000 7"
08"
b0000000000100000 9"
b0010011000001111 <"
b0000011111 ?"
0B"
b0000000000000000 C"
#165000000
1!
1*
13
1T
1f
18"
#170000000
0!
b1011 (
b0000000001010001 )
0*
b1011 0
b0000000001010001 1
03
b1011 8
b0000000001010001 9
b0000000000100001 ?
b0000100000 A
b0000000000100000 C
b0000000000100000 G
b0000000000101111 M
b0000000000100001 N
0T
b0000000000100000 ]
b0000100000 _
b0000000000100000 a
b0000000000100001 b
b1011 c
b0000000001010001 d
0f
b0000000000100000 i
b0000000000100000 o
b0000000000100000 !"
b0000000000100001 ""
0#"
b00000000000100001 %"
b0000000000100000 &"
b0000000000101111 ("
0)"
b00000000000101111 +"
b0000000000100001 0"
b0000000000101111 1"
b0000000000100001 3"
08"
b0000000000100001 9"
b0000100000 ?"
#175000000
1!
1*
13
1T
1f
18"
#180000000
0!
b1100 (
b0000000000000001 )
0*
b1100 0
b0000000000000001 1
03
b1100 8
b0000000000000001 9
b0000000000100010 ?
b0000100001 A
b0000000000100001 C
b0000000000100001 G
b0000000000110000 M
b0000000000100010 N
0T
b0000000000100001 ]
b0000100001 _
b0000000000100001 a
b0000000000100010 b
b1100 c
b0000000000000001 d
0f
b0000000000100001 i
b0000000000100001 o
b0000000000100001 !"
b0000000000100010 ""
0#"
b00000000000100010 %"
b0000000000100001 &"
b0000000000110000 ("
0)"
b00000000000110000 +"
b0000000000100010 0"
b0000000000110000 1"
b0000000000100010 3"
08"
b0000000000100010 9"
b0000100001 ?"
#185000000
1!
1*
13
1T
1f
18"
