top.vcd
$date
  Wed Apr  8 17:12:54 2020
$end
$version
  GHDL v0
$end
$timescale
  1 fs
$end
$scope module standard $end
$upscope $end
$scope module std_logic_1164 $end
$upscope $end
$scope module numeric_std $end
$upscope $end
$scope module t_top $end
$var reg 1 ! clk_t $end
$var reg 1 " reset_t $end
$var reg 1 # instructionwriteenable_t $end
$var reg 16 $ instructionwriteaddr_t[15:0] $end
$var reg 16 % instructionwritedata_t[15:0] $end
$var reg 16 & startpc_t[15:0] $end
$var reg 16 ' instructionout_t[15:0] $end
$var reg 4 ( inr_t[3:0] $end
$var reg 16 ) outr_t[15:0] $end
$scope module test $end
$var reg 1 * clk $end
$var reg 1 + instructionwriteenable $end
$var reg 16 , instructionwriteaddr[15:0] $end
$var reg 16 - instructionwritedata[15:0] $end
$var reg 16 . startpc[15:0] $end
$var reg 16 / instructionout[15:0] $end
$var reg 4 0 inr[3:0] $end
$var reg 16 1 outr[15:0] $end
$var reg 1 2 reset $end
$var reg 1 3 clk_t $end
$var reg 1 4 reset_t $end
$var reg 1 5 instructionwriteenable_t $end
$var reg 16 6 instructionwriteaddr_t[15:0] $end
$var reg 16 7 instructionwritedata_t[15:0] $end
$var reg 4 8 inr_t[3:0] $end
$var reg 16 9 outr_t[15:0] $end
$var reg 16 : instruction_t[15:0] $end
$var reg 1 ; cregwrite_t $end
$var reg 1 < cldi_t $end
$var reg 1 = cjalr_t $end
$var reg 16 > writeinput_t[15:0] $end
$var reg 16 ? pcinput_t[15:0] $end
$var reg 16 @ r1tooffsetmux_t[15:0] $end
$var reg 16 A registertomemory_t[15:0] $end
$var reg 16 B pcoutput_t[15:0] $end
$var reg 16 C rdcontent_t[15:0] $end
$var reg 4 D caluop_t[3:0] $end
$var reg 16 E a_t[15:0] $end
$var reg 16 F b_t[15:0] $end
$var reg 1 G isbranch_t $end
$var reg 10 H alutomemory_t[9:0] $end
$var reg 16 I alutoregmux_t[15:0] $end
$var reg 16 J outmemory_t[15:0] $end
$var reg 16 K signextension_t[15:0] $end
$var reg 16 L branchadderoutput_t[15:0] $end
$var reg 16 M incrementadderoutput_t[15:0] $end
$var reg 1 N coffset_t $end
$var reg 1 O cmemtoreg_t $end
$var reg 1 P cmemwrite_t $end
$var reg 1 Q cmemread_t $end
$var reg 1 R carry_t $end
$scope module rf $end
$var reg 1 S clk $end
$var reg 4 T rd[11:8] $end
$var reg 4 U r1[7:4] $end
$var reg 4 V r2[3:0] $end
$var reg 1 W cregwrite $end
$var reg 1 X cldi $end
$var reg 1 Y cjalr $end
$var reg 16 Z writeinput[15:0] $end
$var reg 16 [ outr1tooffsetmux[15:0] $end
$var reg 16 \ outr2toalu[15:0] $end
$var reg 16 ] rdcontent[15:0] $end
$var reg 16 ^ tomemory[15:0] $end
$var reg 16 _ pcoutput[15:0] $end
$var reg 16 ` pcinput[15:0] $end
$var reg 4 a inr[3:0] $end
$var reg 16 b outr[15:0] $end
$var reg 1 c reset $end
$comment register16 is not handled $end
$upscope $end
$scope module arithmetic $end
$var reg 1 d clk $end
$var reg 4 e aluop[3:0] $end
$var reg 16 f a[15:0] $end
$var reg 16 g b[15:0] $end
$var reg 1 h isbranch $end
$var reg 10 i outtomemory[9:0] $end
$var reg 16 j outtoregmux[15:0] $end
$var reg 1 k reset $end
$upscope $end
$scope module control $end
$var reg 4 l opcode[15:12] $end
$var reg 1 m cregwrite $end
$var reg 1 n coffset $end
$var reg 4 o caluop[3:0] $end
$var reg 1 p cmemwrite $end
$var reg 1 q cmemread $end
$var reg 1 r cmemtoreg $end
$var reg 1 s cldi $end
$var reg 1 t cjalr $end
$var reg 1 u reset $end
$upscope $end
$scope module sign $end
$var reg 8 v input[7:0] $end
$var reg 16 w output[15:0] $end
$var reg 1 x reset $end
$upscope $end
$scope module incrementadder $end
$var reg 16 y a[15:0] $end
$var reg 16 z b[15:0] $end
$var reg 16 { sum[15:0] $end
$var reg 1 | cout $end
$var reg 1 } reset $end
$var reg 17 !" result[16:0] $end
$upscope $end
$scope module branchadder $end
$var reg 16 "" a[15:0] $end
$var reg 16 #" b[15:0] $end
$var reg 16 $" sum[15:0] $end
$var reg 1 %" cout $end
$var reg 1 &" reset $end
$var reg 17 '" result[16:0] $end
$upscope $end
$scope module offsetmux $end
$var reg 16 (" a1[15:0] $end
$var reg 16 )" a2[15:0] $end
$var reg 1 *" sel $end
$var reg 16 +" b[15:0] $end
$upscope $end
$scope module pcmux $end
$var reg 16 ," a1[15:0] $end
$var reg 16 -" a2[15:0] $end
$var reg 1 ." sel $end
$var reg 16 /" b[15:0] $end
$upscope $end
$scope module regmux $end
$var reg 16 0" a1[15:0] $end
$var reg 16 1" a2[15:0] $end
$var reg 1 2" sel $end
$var reg 16 3" b[15:0] $end
$upscope $end
$scope module instruction $end
$var reg 1 4" clk $end
$var reg 16 5" pc[15:0] $end
$var reg 1 6" writeenable $end
$var reg 16 7" writedata[15:0] $end
$var reg 16 8" outinstruction[15:0] $end
$var reg 1 9" reset $end
$comment instruction65536 is not handled $end
$upscope $end
$scope module disk $end
$var reg 10 :" addr[9:0] $end
$var reg 16 ;" din[15:0] $end
$var reg 1 <" cmemwrite $end
$var reg 1 =" cmemread $end
$var reg 16 >" outmemory[15:0] $end
$var reg 1 ?" reset $end
$comment memory1024 is not handled $end
$upscope $end
$upscope $end
$upscope $end
$enddefinitions $end
#0
0!
1"
U#
bUUUUUUUUUUUUUUUU $
bUUUUUUUUUUUUUUUU %
bUUUUUUUUUUUUUUUU &
b0000000000000000 '
bUUUU (
b0000000000000000 )
0*
U+
bUUUUUUUUUUUUUUUU ,
bUUUUUUUUUUUUUUUU -
bUUUUUUUUUUUUUUUU .
b0000000000000000 /
bUUUU 0
b0000000000000000 1
12
03
14
U5
bUUUUUUUUUUUUUUUU 6
bUUUUUUUUUUUUUUUU 7
bUUUU 8
b0000000000000000 9
b0000000000000000 :
0;
0<
0=
b0000000000000000 >
b0000000000000000 ?
b0000000000000000 @
b0000000000000000 A
b0000000000000000 B
b0000000000000000 C
b0000 D
b0000000000000000 E
b0000000000000000 F
0G
b0000000000 H
b0000000000000000 I
b0000000000000000 J
b0000000000000000 K
b0000000000000000 L
b0000000000000000 M
0N
0O
0P
0Q
0R
0S
b0000 T
b0000 U
b0000 V
0W
0X
0Y
b0000000000000000 Z
b0000000000000000 [
b0000000000000000 \
b0000000000000000 ]
b0000000000000000 ^
b0000000000000000 _
b0000000000000000 `
bUUUU a
b0000000000000000 b
1c
0d
b0000 e
b0000000000000000 f
b0000000000000000 g
0h
b0000000000 i
b0000000000000000 j
1k
b0000 l
0m
0n
b0000 o
0p
0q
0r
0s
0t
1u
b00000000 v
b0000000000000000 w
1x
b0000000000000001 y
b0000000000000000 z
b0000000000000000 {
0|
1}
b00000000000000000 !"
b0000000000000000 ""
b0000000000000000 #"
b0000000000000000 $"
0%"
1&"
b00000000000000000 '"
b0000000000000000 ("
b0000000000000000 )"
0*"
b0000000000000000 +"
b0000000000000000 ,"
b0000000000000000 -"
0."
b0000000000000000 /"
b0000000000000000 0"
b0000000000000000 1"
02"
b0000000000000000 3"
04"
b0000000000000000 5"
U6"
bUUUUUUUUUUUUUUUU 7"
b0000000000000000 8"
19"
b0000000000 :"
b0000000000000000 ;"
0<"
0="
b0000000000000000 >"
1?"
#5000000
1!
1*
13
1S
1d
14"
#10000000
0!
0"
b0000000000000000 &
b0010011000000011 '
b1000 (
0*
b0000000000000000 .
b0010011000000011 /
b1000 0
02
03
04
b1000 8
b0010011000000011 :
1;
1<
b0000000000000001 ?
b0010 D
b0000000000000011 K
b0000000000000001 M
XO
0S
b0110 T
b0011 V
1W
1X
b0000000000000001 `
b1000 a
0c
0d
b0010 e
0k
b0010 l
1m
b0010 o
Xr
1s
0u
b00000011 v
b0000000000000011 w
0x
b0000000000000001 {
0|
0}
b00000000000000001 !"
0%"
0&"
b0000000000000011 )"
b0000000000000001 ,"
b0000000000000001 /"
X2"
04"
b0000000000000001 5"
b0010011000000011 8"
09"
0?"
#15000000
1!
b0010011100000111 '
1*
b0010011100000111 /
13
b0010011100000111 :
b0000000000000010 ?
b0000000000000001 B
b0000000000000000 C
b0000000000000111 K
b0000000000000001 L
b0000000000000010 M
1S
b0111 T
b0111 V
b0000000000000000 ]
b0000000000000001 _
b0000000000000010 `
1d
b00000111 v
b0000000000000111 w
b0000000000000001 z
b0000000000000010 {
0|
b00000000000000010 !"
b0000000000000001 ""
b0000000000000000 #"
b0000000000000001 $"
0%"
b00000000000000001 '"
b0000000000000111 )"
b0000000000000010 ,"
b0000000000000001 -"
b0000000000000010 /"
14"
b0000000000000010 5"
b0010011100000111 8"
#20000000
0!
b0100100001100000 '
0*
b0100100001100000 /
03
b0100100001100000 :
0<
b0000000000000011 ?
b0000000000000011 @
b0000000000000011 A
b0000000000000010 B
b0000000000000000 C
b0100 D
b0000000000000011 E
b0000000000000000 F
b0000000000000011 J
b0000000001100000 K
b0000000000000010 L
b0000000000000011 M
0O
0S
b1000 T
b0110 U
b0000 V
0X
b0000000000000011 [
b0000000000000000 \
b0000000000000000 ]
b0000000000000011 ^
b0000000000000010 _
b0000000000000011 `
0d
b0100 e
b0000000000000011 f
b0000000000000000 g
b0100 l
b0100 o
0r
0s
b01100000 v
b0000000001100000 w
b0000000000000010 z
b0000000000000011 {
0|
b00000000000000011 !"
b0000000000000010 ""
b0000000000000000 #"
b0000000000000010 $"
0%"
b00000000000000010 '"
b0000000000000011 ("
b0000000001100000 )"
b0000000000000011 +"
b0000000000000011 ,"
b0000000000000010 -"
b0000000000000011 /"
b0000000000000011 1"
02"
04"
b0000000000000011 5"
b0100100001100000 8"
b0000000000000011 ;"
b0000000000000011 >"
#25000000
1!
b0101010101111000 '
1*
b0101010101111000 /
13
b0101010101111000 :
b0000000000000011 >
b0000000000000100 ?
b0000000000000111 @
b0000000000000111 A
b0000000000000011 B
b0101 D
b0000000000000111 E
b0000000000000011 I
b0000000000000111 J
b0000000001111000 K
b0000000000000011 L
b0000000000000100 M
1S
b0101 T
b0111 U
b1000 V
b0000000000000011 Z
b0000000000000111 [
b0000000000000111 ^
b0000000000000011 _
b0000000000000100 `
1d
b0101 e
b0000000000000111 f
b0000000000000011 j
b0101 l
b0101 o
b01111000 v
b0000000001111000 w
b0000000000000011 z
b0000000000000100 {
0|
b00000000000000100 !"
b0000000000000011 ""
b0000000000000011 $"
0%"
b00000000000000011 '"
b0000000000000111 ("
b0000000001111000 )"
b0000000000000111 +"
b0000000000000100 ,"
b0000000000000011 -"
b0000000000000100 /"
b0000000000000011 0"
b0000000000000111 1"
b0000000000000011 3"
14"
b0000000000000100 5"
b0101010101111000 8"
b0000000000000111 ;"
b0000000000000111 >"
#30000000
0!
b0110010001111000 '
0*
b0110010001111000 /
03
b0110010001111000 :
b0000000000000111 >
b0000000000000101 ?
b0000000000000100 B
b0000000000000000 C
b0110 D
b0000000000000111 I
b0000000000000100 L
b0000000000000101 M
0S
b0100 T
b0000000000000111 Z
b0000000000000000 ]
b0000000000000100 _
b0000000000000101 `
0d
b0110 e
b0000000000000111 j
b0110 l
b0110 o
b0000000000000100 z
b0000000000000101 {
0|
b00000000000000101 !"
b0000000000000100 ""
b0000000000000000 #"
b0000000000000100 $"
0%"
b00000000000000100 '"
b0000000000000101 ,"
b0000000000000100 -"
b0000000000000101 /"
b0000000000000111 0"
b0000000000000111 3"
04"
b0000000000000101 5"
b0110010001111000 8"
#35000000
1!
b0111001101011000 '
1*
b0111001101011000 /
13
b0111001101011000 :
b0000000000000110 ?
b0000000000000011 @
b0000000000000011 A
b0000000000000101 B
b0000000000000000 C
b0111 D
b0000000000000011 E
b0000000000000011 J
b0000000001011000 K
b0000000000000101 L
b0000000000000110 M
1S
b0011 T
b0101 U
b0000000000000011 [
b0000000000000000 ]
b0000000000000011 ^
b0000000000000101 _
b0000000000000110 `
1d
b0111 e
b0000000000000011 f
b0111 l
b0111 o
b01011000 v
b0000000001011000 w
b0000000000000101 z
b0000000000000110 {
0|
b00000000000000110 !"
b0000000000000101 ""
b0000000000000000 #"
b0000000000000101 $"
0%"
b00000000000000101 '"
b0000000000000011 ("
b0000000001011000 )"
b0000000000000011 +"
b0000000000000110 ,"
b0000000000000101 -"
b0000000000000110 /"
b0000000000000011 1"
14"
b0000000000000110 5"
b0111001101011000 8"
b0000000000000011 ;"
b0000000000000011 >"
#40000000
0!
b1000001001011000 '
0*
b1000001001011000 /
03
b1000001001011000 :
b0000000000000011 >
b0000000000000111 ?
b0000000000000110 B
b0000000000000000 C
b1000 D
b0000000000000011 I
b0000000000000110 L
b0000000000000111 M
0S
b0010 T
b0000000000000011 Z
b0000000000000000 ]
b0000000000000110 _
b0000000000000111 `
0d
b1000 e
b0000000000000011 j
b1000 l
b1000 o
b0000000000000110 z
b0000000000000111 {
0|
b00000000000000111 !"
b0000000000000110 ""
b0000000000000000 #"
b0000000000000110 $"
0%"
b00000000000000110 '"
b0000000000000111 ,"
b0000000000000110 -"
b0000000000000111 /"
b0000000000000011 0"
b0000000000000011 3"
04"
b0000000000000111 5"
b1000001001011000 8"
#45000000
1!
b1001100100100011 '
1*
b1001100100100011 /
13
b1001100100100011 :
b0000000000001000 ?
b0000000000000111 B
b0000000000000000 C
b1001 D
b0000000000000111 F
b0000000000100011 K
b0000000000000111 L
b0000000000001000 M
1S
b1001 T
b0010 U
b0011 V
b0000000000000111 \
b0000000000000000 ]
b0000000000000111 _
b0000000000001000 `
1d
b1001 e
b0000000000000111 g
b1001 l
b1001 o
b00100011 v
b0000000000100011 w
b0000000000000111 z
b0000000000001000 {
0|
b00000000000001000 !"
b0000000000000111 ""
b0000000000000000 #"
b0000000000000111 $"
0%"
b00000000000000111 '"
b0000000000100011 )"
b0000000000001000 ,"
b0000000000000111 -"
b0000000000001000 /"
14"
b0000000000001000 5"
b1001100100100011 8"
#50000000
0!
b1010101100100011 '
0*
b1010101100100011 /
03
b1010101100100011 :
b0000000000001001 ?
b0000000000001000 B
b0000000000000000 C
b1010 D
b0000000000001000 L
b0000000000001001 M
0S
b1011 T
b0000000000000000 ]
b0000000000001000 _
b0000000000001001 `
0d
b1010 e
b1010 l
b1010 o
b0000000000001000 z
b0000000000001001 {
0|
b00000000000001001 !"
b0000000000001000 ""
b0000000000000000 #"
b0000000000001000 $"
0%"
b00000000000001000 '"
b0000000000001001 ,"
b0000000000001000 -"
b0000000000001001 /"
04"
b0000000000001001 5"
b1010101100100011 8"
#55000000
1!
b1100100010100111 '
1*
b1100100010100111 /
13
b1100100010100111 :
b0000000000000111 >
b0000000000001010 ?
b0000000000000000 @
b0000000000000000 A
b0000000000001001 B
b0000000000000000 C
b1100 D
b1111111110100111 E
b0000000000000111 I
b0000000000000000 J
b1111111110100111 K
b0000000000001001 L
b0000000000001010 M
1N
1S
b1000 T
b1010 U
b0111 V
b0000000000000111 Z
b0000000000000000 [
b0000000000000000 ]
b0000000000000000 ^
b0000000000001001 _
b0000000000001010 `
1d
b1100 e
b1111111110100111 f
b0000000000000111 j
b1100 l
1n
b1100 o
b10100111 v
b1111111110100111 w
b0000000000001001 z
b0000000000001010 {
0|
b00000000000001010 !"
b0000000000001001 ""
b0000000000000000 #"
b0000000000001001 $"
0%"
b00000000000001001 '"
b0000000000000000 ("
b1111111110100111 )"
1*"
b1111111110100111 +"
b0000000000001010 ,"
b0000000000001001 -"
b0000000000001010 /"
b0000000000000111 0"
b0000000000000000 1"
b0000000000000111 3"
14"
b0000000000001010 5"
b1100100010100111 8"
b0000000000000000 ;"
b0000000000000000 >"
#60000000
0!
b0010011000001111 '
b0000 (
0*
b0010011000001111 /
b0000 0
03
b0000 8
b0010011000001111 :
1<
b0000000000000000 >
b0000000000001101 ?
b0000000000000000 @
b0000000000000000 A
b0000000000001010 B
b0000000000000011 C
b0010 D
b0000000000000000 E
b0000000000001010 F
1G
b0000000000000000 I
b0000000000000000 J
b0000000000001111 K
b0000000000001101 L
b0000000000001011 M
0N
XO
0S
b0110 T
b0000 U
b1111 V
1X
b0000000000000000 Z
b0000000000000000 [
b0000000000001010 \
b0000000000000011 ]
b0000000000000000 ^
b0000000000001010 _
b0000000000001101 `
b0000 a
0d
b0010 e
b0000000000000000 f
b0000000000001010 g
1h
b0000000000000000 j
b0010 l
0n
b0010 o
Xr
1s
b00001111 v
b0000000000001111 w
b0000000000001010 z
b0000000000001011 {
0|
b00000000000001011 !"
b0000000000001010 ""
b0000000000000011 #"
b0000000000001101 $"
0%"
b00000000000001101 '"
b0000000000000000 ("
b0000000000001111 )"
0*"
b0000000000000000 +"
b0000000000001011 ,"
b0000000000001101 -"
1."
b0000000000001101 /"
b0000000000000000 0"
b0000000000000000 1"
X2"
b0000000000000000 3"
04"
b0000000000001101 5"
b0010011000001111 8"
b0000000000000000 ;"
b0000000000000000 >"
#65000000
1!
b0010011000001111 '
1*
b0010011000001111 /
13
b0010011000001111 :
1<
b0000000000000000 >
b0000000000001110 ?
b0000000000000000 @
b0000000000000000 A
b0000000000001101 B
b0000000000001111 C
b0010 D
b0000000000000000 E
b0000000000001101 F
0G
b0000000000000000 J
b0000000000001111 K
b0000000000011100 L
b0000000000001110 M
XO
1S
b0110 T
b0000 U
b1111 V
1X
b0000000000000000 Z
b0000000000000000 [
b0000000000001101 \
b0000000000001111 ]
b0000000000000000 ^
b0000000000001101 _
b0000000000001110 `
1d
b0010 e
b0000000000000000 f
b0000000000001101 g
0h
b0010 l
b0010 o
Xr
1s
b00001111 v
b0000000000001111 w
b0000000000001101 z
b0000000000001110 {
0|
b00000000000001110 !"
b0000000000001101 ""
b0000000000001111 #"
b0000000000011100 $"
0%"
b00000000000011100 '"
b0000000000000000 ("
b0000000000001111 )"
b0000000000000000 +"
b0000000000001110 ,"
b0000000000011100 -"
0."
b0000000000001110 /"
b0000000000000000 1"
X2"
b0000000000000000 3"
14"
b0000000000001110 5"
b0010011000001111 8"
b0000000000000000 ;"
b0000000000000000 >"
#70000000
0!
b0001 (
0*
b0001 0
03
b0001 8
b0000000000001111 ?
b0000000000001110 B
b0000000000001110 F
b0000000000011101 L
b0000000000001111 M
0S
b0000000000001110 \
b0000000000001110 _
b0000000000001111 `
b0001 a
0d
b0000000000001110 g
b0000000000001110 z
b0000000000001111 {
0|
b00000000000001111 !"
b0000000000001110 ""
b0000000000011101 $"
0%"
b00000000000011101 '"
b0000000000001111 ,"
b0000000000011101 -"
b0000000000001111 /"
04"
b0000000000001111 5"
#75000000
1!
1*
13
b0000000000010000 ?
b0000000000001111 B
b0000000000001111 F
b0000000000011110 L
b0000000000010000 M
1S
b0000000000001111 \
b0000000000001111 _
b0000000000010000 `
1d
b0000000000001111 g
b0000000000001111 z
b0000000000010000 {
0|
b00000000000010000 !"
b0000000000001111 ""
b0000000000011110 $"
0%"
b00000000000011110 '"
b0000000000010000 ,"
b0000000000011110 -"
b0000000000010000 /"
14"
b0000000000010000 5"
#80000000
0!
b0010 (
b0000000000000011 )
0*
b0010 0
b0000000000000011 1
03
b0010 8
b0000000000000011 9
b0000000000010001 ?
b0000000000010000 B
b0000000000010000 F
b0000000000011111 L
b0000000000010001 M
0S
b0000000000010000 \
b0000000000010000 _
b0000000000010001 `
b0010 a
b0000000000000011 b
0d
b0000000000010000 g
b0000000000010000 z
b0000000000010001 {
0|
b00000000000010001 !"
b0000000000010000 ""
b0000000000011111 $"
0%"
b00000000000011111 '"
b0000000000010001 ,"
b0000000000011111 -"
b0000000000010001 /"
04"
b0000000000010001 5"
#85000000
1!
1*
13
b0000000000010010 ?
b0000000000010001 B
b0000000000010001 F
b0000000000100000 L
b0000000000010010 M
1S
b0000000000010001 \
b0000000000010001 _
b0000000000010010 `
1d
b0000000000010001 g
b0000000000010001 z
b0000000000010010 {
0|
b00000000000010010 !"
b0000000000010001 ""
b0000000000100000 $"
0%"
b00000000000100000 '"
b0000000000010010 ,"
b0000000000100000 -"
b0000000000010010 /"
14"
b0000000000010010 5"
#90000000
0!
b0011 (
b0000000000000111 )
0*
b0011 0
b0000000000000111 1
03
b0011 8
b0000000000000111 9
b0000000000010011 ?
b0000000000010010 B
b0000000000010010 F
b0000000000100001 L
b0000000000010011 M
0S
b0000000000010010 \
b0000000000010010 _
b0000000000010011 `
b0011 a
b0000000000000111 b
0d
b0000000000010010 g
b0000000000010010 z
b0000000000010011 {
0|
b00000000000010011 !"
b0000000000010010 ""
b0000000000100001 $"
0%"
b00000000000100001 '"
b0000000000010011 ,"
b0000000000100001 -"
b0000000000010011 /"
04"
b0000000000010011 5"
#95000000
1!
1*
13
b0000000000010100 ?
b0000000000010011 B
b0000000000010011 F
b0000000000100010 L
b0000000000010100 M
1S
b0000000000010011 \
b0000000000010011 _
b0000000000010100 `
1d
b0000000000010011 g
b0000000000010011 z
b0000000000010100 {
0|
b00000000000010100 !"
b0000000000010011 ""
b0000000000100010 $"
0%"
b00000000000100010 '"
b0000000000010100 ,"
b0000000000100010 -"
b0000000000010100 /"
14"
b0000000000010100 5"
#100000000
0!
b0100 (
0*
b0100 0
03
b0100 8
b0000000000010101 ?
b0000000000010100 B
b0000000000010100 F
b0000000000100011 L
b0000000000010101 M
0S
b0000000000010100 \
b0000000000010100 _
b0000000000010101 `
b0100 a
0d
b0000000000010100 g
b0000000000010100 z
b0000000000010101 {
0|
b00000000000010101 !"
b0000000000010100 ""
b0000000000100011 $"
0%"
b00000000000100011 '"
b0000000000010101 ,"
b0000000000100011 -"
b0000000000010101 /"
04"
b0000000000010101 5"
#105000000
1!
1*
13
b0000000000010110 ?
b0000000000010101 B
b0000000000010101 F
b0000000000100100 L
b0000000000010110 M
1S
b0000000000010101 \
b0000000000010101 _
b0000000000010110 `
1d
b0000000000010101 g
b0000000000010101 z
b0000000000010110 {
0|
b00000000000010110 !"
b0000000000010101 ""
b0000000000100100 $"
0%"
b00000000000100100 '"
b0000000000010110 ,"
b0000000000100100 -"
b0000000000010110 /"
14"
b0000000000010110 5"
#110000000
0!
b0101 (
b0000000000000011 )
0*
b0101 0
b0000000000000011 1
03
b0101 8
b0000000000000011 9
b0000000000010111 ?
b0000000000010110 B
b0000000000010110 F
b0000000000100101 L
b0000000000010111 M
0S
b0000000000010110 \
b0000000000010110 _
b0000000000010111 `
b0101 a
b0000000000000011 b
0d
b0000000000010110 g
b0000000000010110 z
b0000000000010111 {
0|
b00000000000010111 !"
b0000000000010110 ""
b0000000000100101 $"
0%"
b00000000000100101 '"
b0000000000010111 ,"
b0000000000100101 -"
b0000000000010111 /"
04"
b0000000000010111 5"
#115000000
1!
1*
13
b0000000000011000 ?
b0000000000010111 B
b0000000000010111 F
b0000000000100110 L
b0000000000011000 M
1S
b0000000000010111 \
b0000000000010111 _
b0000000000011000 `
1d
b0000000000010111 g
b0000000000010111 z
b0000000000011000 {
0|
b00000000000011000 !"
b0000000000010111 ""
b0000000000100110 $"
0%"
b00000000000100110 '"
b0000000000011000 ,"
b0000000000100110 -"
b0000000000011000 /"
14"
b0000000000011000 5"
#120000000
0!
b0110 (
b0000000000001111 )
0*
b0110 0
b0000000000001111 1
03
b0110 8
b0000000000001111 9
b0000000000011001 ?
b0000000000011000 B
b0000000000011000 F
b0000000000100111 L
b0000000000011001 M
0S
b0000000000011000 \
b0000000000011000 _
b0000000000011001 `
b0110 a
b0000000000001111 b
0d
b0000000000011000 g
b0000000000011000 z
b0000000000011001 {
0|
b00000000000011001 !"
b0000000000011000 ""
b0000000000100111 $"
0%"
b00000000000100111 '"
b0000000000011001 ,"
b0000000000100111 -"
b0000000000011001 /"
04"
b0000000000011001 5"
#125000000
1!
1*
13
b0000000000011010 ?
b0000000000011001 B
b0000000000011001 F
b0000000000101000 L
b0000000000011010 M
1S
b0000000000011001 \
b0000000000011001 _
b0000000000011010 `
1d
b0000000000011001 g
b0000000000011001 z
b0000000000011010 {
0|
b00000000000011010 !"
b0000000000011001 ""
b0000000000101000 $"
0%"
b00000000000101000 '"
b0000000000011010 ,"
b0000000000101000 -"
b0000000000011010 /"
14"
b0000000000011010 5"
#130000000
0!
b0111 (
b0000000000000111 )
0*
b0111 0
b0000000000000111 1
03
b0111 8
b0000000000000111 9
b0000000000011011 ?
b0000000000011010 B
b0000000000011010 F
b0000000000101001 L
b0000000000011011 M
0S
b0000000000011010 \
b0000000000011010 _
b0000000000011011 `
b0111 a
b0000000000000111 b
0d
b0000000000011010 g
b0000000000011010 z
b0000000000011011 {
0|
b00000000000011011 !"
b0000000000011010 ""
b0000000000101001 $"
0%"
b00000000000101001 '"
b0000000000011011 ,"
b0000000000101001 -"
b0000000000011011 /"
04"
b0000000000011011 5"
#135000000
1!
1*
13
b0000000000011100 ?
b0000000000011011 B
b0000000000011011 F
b0000000000101010 L
b0000000000011100 M
1S
b0000000000011011 \
b0000000000011011 _
b0000000000011100 `
1d
b0000000000011011 g
b0000000000011011 z
b0000000000011100 {
0|
b00000000000011100 !"
b0000000000011011 ""
b0000000000101010 $"
0%"
b00000000000101010 '"
b0000000000011100 ,"
b0000000000101010 -"
b0000000000011100 /"
14"
b0000000000011100 5"
#140000000
0!
b1000 (
0*
b1000 0
03
b1000 8
b0000000000011101 ?
b0000000000011100 B
b0000000000011100 F
b0000000000101011 L
b0000000000011101 M
0S
b0000000000011100 \
b0000000000011100 _
b0000000000011101 `
b1000 a
0d
b0000000000011100 g
b0000000000011100 z
b0000000000011101 {
0|
b00000000000011101 !"
b0000000000011100 ""
b0000000000101011 $"
0%"
b00000000000101011 '"
b0000000000011101 ,"
b0000000000101011 -"
b0000000000011101 /"
04"
b0000000000011101 5"
#145000000
1!
1*
13
b0000000000011110 ?
b0000000000011101 B
b0000000000011101 F
b0000000000101100 L
b0000000000011110 M
1S
b0000000000011101 \
b0000000000011101 _
b0000000000011110 `
1d
b0000000000011101 g
b0000000000011101 z
b0000000000011110 {
0|
b00000000000011110 !"
b0000000000011101 ""
b0000000000101100 $"
0%"
b00000000000101100 '"
b0000000000011110 ,"
b0000000000101100 -"
b0000000000011110 /"
14"
b0000000000011110 5"
#150000000
0!
b1001 (
b0000000000000011 )
0*
b1001 0
b0000000000000011 1
03
b1001 8
b0000000000000011 9
b0000000000011111 ?
b0000000000011110 B
b0000000000011110 F
b0000000000101101 L
b0000000000011111 M
0S
b0000000000011110 \
b0000000000011110 _
b0000000000011111 `
b1001 a
b0000000000000011 b
0d
b0000000000011110 g
b0000000000011110 z
b0000000000011111 {
0|
b00000000000011111 !"
b0000000000011110 ""
b0000000000101101 $"
0%"
b00000000000101101 '"
b0000000000011111 ,"
b0000000000101101 -"
b0000000000011111 /"
04"
b0000000000011111 5"
#155000000
1!
1*
13
b0000000000100000 ?
b0000000000011111 B
b0000000000011111 F
b0000000000101110 L
b0000000000100000 M
1S
b0000000000011111 \
b0000000000011111 _
b0000000000100000 `
1d
b0000000000011111 g
b0000000000011111 z
b0000000000100000 {
0|
b00000000000100000 !"
b0000000000011111 ""
b0000000000101110 $"
0%"
b00000000000101110 '"
b0000000000100000 ,"
b0000000000101110 -"
b0000000000100000 /"
14"
b0000000000100000 5"
#160000000
0!
b1010 (
b0000000000000000 )
0*
b1010 0
b0000000000000000 1
03
b1010 8
b0000000000000000 9
b0000000000100001 ?
b0000000000100000 B
b0000000000100000 F
b0000000000101111 L
b0000000000100001 M
0S
b0000000000100000 \
b0000000000100000 _
b0000000000100001 `
b1010 a
b0000000000000000 b
0d
b0000000000100000 g
b0000000000100000 z
b0000000000100001 {
0|
b00000000000100001 !"
b0000000000100000 ""
b0000000000101111 $"
0%"
b00000000000101111 '"
b0000000000100001 ,"
b0000000000101111 -"
b0000000000100001 /"
04"
b0000000000100001 5"
#165000000
1!
1*
13
b0000000000100010 ?
b0000000000100001 B
b0000000000100001 F
b0000000000110000 L
b0000000000100010 M
1S
b0000000000100001 \
b0000000000100001 _
b0000000000100010 `
1d
b0000000000100001 g
b0000000000100001 z
b0000000000100010 {
0|
b00000000000100010 !"
b0000000000100001 ""
b0000000000110000 $"
0%"
b00000000000110000 '"
b0000000000100010 ,"
b0000000000110000 -"
b0000000000100010 /"
14"
b0000000000100010 5"
#170000000
0!
b1011 (
b0000000000000011 )
0*
b1011 0
b0000000000000011 1
03
b1011 8
b0000000000000011 9
b0000000000100011 ?
b0000000000100010 B
b0000000000100010 F
b0000000000110001 L
b0000000000100011 M
0S
b0000000000100010 \
b0000000000100010 _
b0000000000100011 `
b1011 a
b0000000000000011 b
0d
b0000000000100010 g
b0000000000100010 z
b0000000000100011 {
0|
b00000000000100011 !"
b0000000000100010 ""
b0000000000110001 $"
0%"
b00000000000110001 '"
b0000000000100011 ,"
b0000000000110001 -"
b0000000000100011 /"
04"
b0000000000100011 5"
#175000000
1!
1*
13
b0000000000100100 ?
b0000000000100011 B
b0000000000100011 F
b0000000000110010 L
b0000000000100100 M
1S
b0000000000100011 \
b0000000000100011 _
b0000000000100100 `
1d
b0000000000100011 g
b0000000000100011 z
b0000000000100100 {
0|
b00000000000100100 !"
b0000000000100011 ""
b0000000000110010 $"
0%"
b00000000000110010 '"
b0000000000100100 ,"
b0000000000110010 -"
b0000000000100100 /"
14"
b0000000000100100 5"
#180000000
0!
b1100 (
b0000000000000000 )
0*
b1100 0
b0000000000000000 1
03
b1100 8
b0000000000000000 9
b0000000000100101 ?
b0000000000100100 B
b0000000000100100 F
b0000000000110011 L
b0000000000100101 M
0S
b0000000000100100 \
b0000000000100100 _
b0000000000100101 `
b1100 a
b0000000000000000 b
0d
b0000000000100100 g
b0000000000100100 z
b0000000000100101 {
0|
b00000000000100101 !"
b0000000000100100 ""
b0000000000110011 $"
0%"
b00000000000110011 '"
b0000000000100101 ,"
b0000000000110011 -"
b0000000000100101 /"
04"
b0000000000100101 5"
